14
C7H5NO optimized with ADF in AMS.
 C        1.80888237863440      -0.42988049444367       0.36643330440860
 C        2.88838096913156       0.37158843500215       0.02577184845388
 C        1.99496972507629      -1.77587946735692       0.65942800329097
 C        4.16767594804902      -0.17777498109991      -0.02180552173143
 C        4.36204412764959      -1.53002408121799       0.27137496894653
 C        3.27436550778581      -2.32018945573472       0.60964374012065
 H        2.76136858523410       1.42170128504061      -0.20500205748643
 C        6.41873332140508       0.56191590731644      -0.49313127318292
 H        0.81635142067199       0.00317734059121       0.40264913555456
 H        1.14927127149092      -2.39800367493006       0.92504054787721
 H        5.36146596456302      -1.94903461176425       0.23175982750484
 H        3.42882694916919      -3.36857407403862       0.83690267538579
 N        5.22599363833851       0.65630761382109      -0.36441729779556
 O        7.57527019270053       0.60527025881465      -0.65364790154669
