14
Coordinates from ORCA-job mol E -399.380036736230
  C       1.920900     -0.365300      0.447900
  C       2.939100      0.351600     -0.178400
  C       2.124900     -1.676600      0.851800
  C       4.187000     -0.250400     -0.394200
  C       4.368100     -1.597900     -0.020900
  C       3.346900     -2.300200      0.613100
  H       2.768700      1.376500     -0.487400
  C       6.160900      0.568200     -0.310600
  H       0.959100      0.110900      0.625100
  H       1.327100     -2.223500      1.349800
  H       5.314800     -2.104700     -0.208600
  H       3.502100     -3.326800      0.920100
  N       5.208300      0.502400     -1.001100
  O       7.105700      0.606400      0.384400
14
Coordinates from ORCA-job mol E -399.398248305251
  C       1.872453     -0.382172      0.444982
  C       2.913957      0.338454     -0.146394
  C       2.062949     -1.708360      0.835427
  C       4.164199     -0.266251     -0.337584
  C       4.342866     -1.611341      0.025838
  C       3.299815     -2.324922      0.620232
  H       2.762774      1.367370     -0.452471
  C       6.310552      0.633028     -0.343452
  H       0.910201      0.095630      0.599475
  H       1.253123     -2.262733      1.299327
  H       5.295312     -2.104347     -0.148521
  H       3.451333     -3.358056      0.912739
  N       5.237828      0.506448     -0.932473
  O       7.356239      0.747854      0.213873
14
Coordinates from ORCA-job mol E -399.402913923693
  C       1.841542     -0.394038      0.431331
  C       2.901792      0.340990     -0.108593
  C       2.025436     -1.731158      0.804099
  C       4.153629     -0.262346     -0.264561
  C       4.341520     -1.603875      0.088214
  C       3.277907     -2.333980      0.626875
  H       2.765895      1.373838     -0.407786
  C       6.379006      0.643406     -0.378349
  H       0.873353      0.078131      0.557151
  H       1.202507     -2.299233      1.223911
  H       5.306133     -2.076771     -0.062967
  H       3.427963     -3.371937      0.904548
  N       5.237176      0.515713     -0.836860
  O       7.499742      0.791860      0.013986
14
Coordinates from ORCA-job mol E -399.407648894441
  C       1.817919     -0.403943      0.409312
  C       2.904812      0.341905     -0.058633
  C       1.983092     -1.753806      0.757422
  C       4.154848     -0.270231     -0.165787
  C       4.338388     -1.615516      0.165913
  C       3.244814     -2.352728      0.632397
  H       2.798381      1.382082     -0.341170
  C       6.444598      0.661736     -0.415834
  H       0.846031      0.068425      0.498314
  H       1.139474     -2.330995      1.118111
  H       5.314436     -2.072048      0.052307
  H       3.382073     -3.397130      0.893673
  N       5.249683      0.508925     -0.672170
  O       7.615049      0.903925     -0.282854
14
Coordinates from ORCA-job mol E -399.409895880273
  C       1.815885     -0.406400      0.390717
  C       2.923384      0.340809     -0.021657
  C       1.959450     -1.763132      0.719164
  C       4.172902     -0.282098     -0.096184
  C       4.337375     -1.635622      0.223879
  C       3.219662     -2.369677      0.633457
  H       2.840573      1.387171     -0.287273
  C       6.470376      0.675504     -0.447423
  H       0.844076      0.070817      0.453641
  H       1.098232     -2.340011      1.036522
  H       5.316887     -2.091219      0.144021
  H       3.338464     -3.419096      0.883719
  N       5.271199      0.488850     -0.536810
  O       7.625138      1.014704     -0.504773
14
Coordinates from ORCA-job mol E -399.410581467646
  C       1.817833     -0.408303      0.382595
  C       2.931142      0.339634     -0.009273
  C       1.953894     -1.764992      0.704866
  C       4.185921     -0.281501     -0.073809
  C       4.335843     -1.641099      0.242835
  C       3.212140     -2.374560      0.633020
  H       2.851441      1.388540     -0.266509
  C       6.474210      0.681403     -0.465860
  H       0.845347      0.069360      0.436438
  H       1.086773     -2.341379      1.008137
  H       5.315344     -2.100748      0.178511
  H       3.323516     -3.425288      0.880401
  N       5.282788      0.486102     -0.480542
  O       7.617407      1.043431     -0.579810
14
Coordinates from ORCA-job mol E -399.411045858208
  C       1.816779     -0.412098      0.377034
  C       2.930933      0.340473      0.000236
  C       1.952294     -1.767767      0.694586
  C       4.194495     -0.270370     -0.057610
  C       4.334676     -1.634691      0.255920
  C       3.211762     -2.374107      0.631863
  H       2.844875      1.390889     -0.250670
  C       6.475127      0.684350     -0.486025
  H       0.841745      0.061646      0.423444
  H       1.083511     -2.347573      0.987768
  H       5.314642     -2.096938      0.202807
  H       3.322404     -3.425390      0.876050
  N       5.288993      0.497863     -0.439241
  O       7.621365      1.024314     -0.625162
14
Coordinates from ORCA-job mol E -399.411297136321
  C       1.813327     -0.415793      0.372742
  C       2.926977      0.343315      0.009568
  C       1.951443     -1.771993      0.685030
  C       4.196746     -0.256976     -0.041890
  C       4.335301     -1.623083      0.268306
  C       3.214930     -2.371538      0.630619
  H       2.833376      1.394723     -0.235933
  C       6.475395      0.685552     -0.504125
  H       0.835645      0.053082      0.412169
  H       1.083007     -2.357488      0.967999
  H       5.316849     -2.084079      0.223826
  H       3.329016     -3.423252      0.870684
  N       5.291009      0.515204     -0.406038
  O       7.630579      0.982926     -0.661957
14
Coordinates from ORCA-job mol E -399.411406947337
  C       1.810257     -0.417813      0.368840
  C       2.924612      0.346434      0.018258
  C       1.949997     -1.775817      0.676172
  C       4.195774     -0.249241     -0.025977
  C       4.337387     -1.615143      0.280560
  C       3.217167     -2.370016      0.629900
  H       2.828260      1.398621     -0.222963
  C       6.475266      0.686025     -0.517557
  H       0.831131      0.048276      0.401834
  H       1.081550     -2.365859      0.948870
  H       5.320744     -2.072739      0.243052
  H       3.334149     -3.422316      0.866046
  N       5.292375      0.526942     -0.378361
  O       7.634930      0.953247     -0.697676
14
Coordinates from ORCA-job mol E -399.411449485489
  C       1.808962     -0.418288      0.365857
  C       2.924903      0.348260      0.023998
  C       1.948443     -1.777856      0.669874
  C       4.194616     -0.248156     -0.014334
  C       4.339434     -1.613360      0.289688
  C       3.217124     -2.370162      0.629788
  H       2.830106      1.401054     -0.214463
  C       6.474768      0.686443     -0.525667
  H       0.829575      0.047367      0.394428
  H       1.079179     -2.369779      0.935178
  H       5.323952     -2.068066      0.257159
  H       3.334560     -3.423024      0.863597
  N       5.294263      0.530646     -0.358824
  O       7.633713      0.945521     -0.725277
14
Coordinates from ORCA-job mol E -399.411463419217
  C       1.808794     -0.418228      0.364167
  C       2.925929      0.348975      0.026685
  C       1.947619     -1.778394      0.666670
  C       4.194304     -0.249372     -0.008173
  C       4.340660     -1.614312      0.294496
  C       3.216255     -2.370760      0.629909
  H       2.833440      1.402097     -0.210547
  C       6.474343      0.686175     -0.529371
  H       0.829453      0.047648      0.390491
  H       1.077497     -2.370620      0.928291
  H       5.325675     -2.067537      0.264531
  H       3.332869     -3.423997      0.862755
  N       5.295853      0.530791     -0.348442
  O       7.630908      0.948135     -0.740462
14
Coordinates from ORCA-job mol E -399.411468693795
  C       1.808790     -0.418263      0.363320
  C       2.926355      0.349382      0.027928
  C       1.947515     -1.778475      0.665086
  C       4.194410     -0.249759     -0.005292
  C       4.341287     -1.614765      0.296705
  C       3.215881     -2.370966      0.629929
  H       2.835054      1.402662     -0.208741
  C       6.474049      0.685001     -0.530862
  H       0.829320      0.047444      0.388587
  H       1.076968     -2.370844      0.925056
  H       5.326584     -2.067256      0.267945
  H       3.331874     -3.424389      0.862361
  N       5.296545      0.531418     -0.343252
  O       7.628967      0.949410     -0.747771
14
Coordinates from ORCA-job mol E -399.411472852908
  C       1.808557     -0.418518      0.362592
  C       2.926076      0.350025      0.029089
  C       1.947855     -1.778635      0.663605
  C       4.194469     -0.248815     -0.002900
  C       4.341906     -1.613993      0.298412
  C       3.216209     -2.370694      0.629737
  H       2.835177      1.403445     -0.206975
  C       6.473682      0.682398     -0.531874
  H       0.828687      0.046436      0.386999
  H       1.077218     -2.371550      0.922193
  H       5.327627     -2.065609      0.270667
  H       3.332072     -3.424232      0.861732
  N       5.296457      0.533957     -0.338650
  O       7.627609      0.946385     -0.753626
14
Coordinates from ORCA-job mol E -399.411476191513
  C       1.807940     -0.419021      0.362021
  C       2.924847      0.351026      0.030197
  C       1.948645     -1.779026      0.662211
  C       4.194188     -0.246197     -0.001047
  C       4.342610     -1.611523      0.299559
  C       3.217519     -2.369772      0.629254
  H       2.833330      1.404564     -0.205148
  C       6.473202      0.678055     -0.532357
  H       0.827387      0.044539      0.385821
  H       1.078395     -2.373079      0.919632
  H       5.328960     -2.061959      0.272643
  H       3.334094     -3.423330      0.860728
  N       5.295248      0.539002     -0.334760
  O       7.627235      0.937320     -0.757754
14
Coordinates from ORCA-job mol E -399.411477540162
  C       1.807288     -0.419454      0.361977
  C       2.923390      0.351800      0.030540
  C       1.949384     -1.779436      0.661793
  C       4.193621     -0.243524     -0.000913
  C       4.343031     -1.608833      0.299387
  C       3.219049     -2.368715      0.628752
  H       2.830595      1.405350     -0.204413
  C       6.472897      0.674508     -0.531916
  H       0.826209      0.042970      0.385840
  H       1.079793     -2.374545      0.918992
  H       5.329829     -2.058479      0.272591
  H       3.336831     -3.422185      0.859934
  N       5.293565      0.543546     -0.334092
  O       7.628118      0.927597     -0.757471
14
Coordinates from ORCA-job mol E -399.411477791600
  C       1.807019     -0.419590      0.362185
  C       2.922738      0.352013      0.030369
  C       1.949624     -1.779618      0.662037
  C       4.193252     -0.242479     -0.001554
  C       4.343105     -1.607698      0.298785
  C       3.219736     -2.368225      0.628545
  H       2.829139      1.405516     -0.204569
  C       6.472856      0.673457     -0.531369
  H       0.825818      0.042538      0.386341
  H       1.080409     -2.375115      0.919521
  H       5.329977     -2.057234      0.271754
  H       3.338233     -3.421619      0.859693
  N       5.292694      0.545112     -0.335203
  O       7.629001      0.923543     -0.755534
14
Coordinates from ORCA-job mol E -399.411477845385
  C       1.806997     -0.419592      0.362265
  C       2.922676      0.352003      0.030274
  C       1.949608     -1.779650      0.662171
  C       4.193171     -0.242406     -0.001790
  C       4.343102     -1.607584      0.298593
  C       3.219814     -2.368147      0.628522
  H       2.828883      1.405482     -0.204694
  C       6.472869      0.673489     -0.531235
  H       0.825828      0.042593      0.386512
  H       1.080461     -2.375178      0.919770
  H       5.329927     -2.057214      0.271485
  H       3.338470     -3.421525      0.859683
  N       5.292558      0.545181     -0.335681
  O       7.629234      0.923148     -0.754876
