-------------------------------------------------------------
----------------------- !PROPERTIES! ------------------------
-------------------------------------------------------------
# -----------------------------------------------------------
$ SCF_Energy
   description: The SCF energy
   geom. index: 1
   prop. index: 1
        SCF Energy:     -399.9030305995
# -----------------------------------------------------------
$ DFT_Energy
   description: The DFT energy
   geom. index: 1
   prop. index: 1
   Number of Alpha Electrons                 31.0000020718 
   Number of Beta  Electrons                 31.0000020718 
   Total number of  Electrons                62.0000041435 
   Exchange energy                          -35.8982584118 
   Correlation energy                        -2.5976611379 
   Correlation energy NL                      0.0000000000 
   Exchange-Correlation energy              -38.4959195496 
   Embedding correction                       0.0000000000 
   Total DFT Energy (No VdW correction)    -399.9030305995 
# -----------------------------------------------------------
$ Solvation_Details
   description: Details concerning solvation
   geom. index: 1
   prop. index: 1
     Epsilon:                2.2800000000
     Refrac:                 1.5010000000
     RSolv:                  1.3000000000
     Surface Type:                      2
     Number of Points:                847
     Surface Area:         583.4808110251
     Dielectric Energy:     -0.0067480282
# -----------------------------------------------------------
$ Mayer_Pop
   description: The Mayer population analysis
   geom. index: 1
   prop. index: 1
     Number of atoms                     : 14
     Threshold for printing              : 0.1000000
     Number of bond orders printed       : 15
  NA   - Mulliken gross atomic population
  ZA   - Total nuclear charge
  QA   - Mulliken gross atomic charge
  VA   - Mayer's total valence
  BVA  - Mayer's bonded valence
  FA   - Mayer's free valence
  ATOM       NA         ZA         QA         VA         BVA        FA
  0   0     6.1461     6.0000    -0.1461     3.9346     3.9346    -0.0000
  1   0     6.2102     6.0000    -0.2102     3.9475     3.9475    -0.0000
  2   0     6.1049     6.0000    -0.1049     3.9161     3.9161    -0.0000
  3   0     5.7791     6.0000     0.2209     3.7029     3.7029    -0.0000
  4   0     6.2118     6.0000    -0.2118     3.9485     3.9485     0.0000
  5   0     6.1450     6.0000    -0.1450     3.9327     3.9327    -0.0000
  6   0     0.8404     1.0000     0.1596     0.9704     0.9704    -0.0000
  7   0     6.0886     6.0000    -0.0886     3.7352     3.7352     0.0000
  8   0     0.8511     1.0000     0.1489     0.9683     0.9683     0.0000
  9   0     0.8496     1.0000     0.1504     0.9656     0.9656    -0.0000
 10   0     0.8402     1.0000     0.1598     0.9704     0.9704     0.0000
 11   0     0.8510     1.0000     0.1490     0.9682     0.9682    -0.0000
 12   0     6.6658     7.0000     0.3342     4.0633     4.0633     0.0000
 13   0     8.4164     8.0000    -0.4164     1.8711     1.8711     0.0000
      Bond orders larger than 0.1000000
           Atom A     A.N. of A          Atom B    A.N. of B              Bond order
                0             6               1            6                1.457620
                0             6               2            6                1.402952
                0             6               8            1                0.972185
                1             6               3            6                1.354870
                1             6               6            1                0.970082
                2             6               5            6                1.401863
                2             6               9            1                0.968609
                3             6               4            6                1.355961
                3             6               7            6                0.958013
                4             6               5            6                1.457753
                4             6              10            1                0.970042
                5             6              11            1                0.971958
                7             6              12            7                2.503749
                7             6              13            8                0.331693
               12             7              13            8                1.475495
# -----------------------------------------------------------
$ VdW_Correction
   description: The Van der Waals Correction
   geom. index: 1
   prop. index: 1
        Van der Waals Correction:       -0.0288542476
# -----------------------------------------------------------
$ SCF_Energy
   description: The SCF energy
   geom. index: 2
   prop. index: 1
        SCF Energy:     -399.9063407662
# -----------------------------------------------------------
$ DFT_Energy
   description: The DFT energy
   geom. index: 2
   prop. index: 1
   Number of Alpha Electrons                 31.0000020368 
   Number of Beta  Electrons                 31.0000020368 
   Total number of  Electrons                62.0000040735 
   Exchange energy                          -35.9543413368 
   Correlation energy                        -2.6022678997 
   Correlation energy NL                      0.0000000000 
   Exchange-Correlation energy              -38.5566092364 
   Embedding correction                       0.0000000000 
   Total DFT Energy (No VdW correction)    -399.9063407662 
# -----------------------------------------------------------
$ Solvation_Details
   description: Details concerning solvation
   geom. index: 2
   prop. index: 1
     Epsilon:                2.2800000000
     Refrac:                 1.5010000000
     RSolv:                  1.3000000000
     Surface Type:                      2
     Number of Points:                847
     Surface Area:         579.5129659915
     Dielectric Energy:     -0.0063785352
# -----------------------------------------------------------
$ VdW_Correction
   description: The Van der Waals Correction
   geom. index: 2
   prop. index: 1
        Van der Waals Correction:       -0.0290476503
# -----------------------------------------------------------
$ SCF_Energy
   description: The SCF energy
   geom. index: 3
   prop. index: 1
        SCF Energy:     -399.9065030812
# -----------------------------------------------------------
$ DFT_Energy
   description: The DFT energy
   geom. index: 3
   prop. index: 1
   Number of Alpha Electrons                 31.0000020173 
   Number of Beta  Electrons                 31.0000020173 
   Total number of  Electrons                62.0000040346 
   Exchange energy                          -35.9632654733 
   Correlation energy                        -2.6030946591 
   Correlation energy NL                      0.0000000000 
   Exchange-Correlation energy              -38.5663601324 
   Embedding correction                       0.0000000000 
   Total DFT Energy (No VdW correction)    -399.9065030812 
# -----------------------------------------------------------
$ Solvation_Details
   description: Details concerning solvation
   geom. index: 3
   prop. index: 1
     Epsilon:                2.2800000000
     Refrac:                 1.5010000000
     RSolv:                  1.3000000000
     Surface Type:                      2
     Number of Points:                845
     Surface Area:         578.8485783843
     Dielectric Energy:     -0.0061731246
# -----------------------------------------------------------
$ VdW_Correction
   description: The Van der Waals Correction
   geom. index: 3
   prop. index: 1
        Van der Waals Correction:       -0.0290711834
# -----------------------------------------------------------
$ SCF_Energy
   description: The SCF energy
   geom. index: 4
   prop. index: 1
        SCF Energy:     -399.9065204585
# -----------------------------------------------------------
$ DFT_Energy
   description: The DFT energy
   geom. index: 4
   prop. index: 1
   Number of Alpha Electrons                 31.0000019870 
   Number of Beta  Electrons                 31.0000019870 
   Total number of  Electrons                62.0000039739 
   Exchange energy                          -35.9618052412 
   Correlation energy                        -2.6029893993 
   Correlation energy NL                      0.0000000000 
   Exchange-Correlation energy              -38.5647946405 
   Embedding correction                       0.0000000000 
   Total DFT Energy (No VdW correction)    -399.9065204585 
# -----------------------------------------------------------
$ Solvation_Details
   description: Details concerning solvation
   geom. index: 4
   prop. index: 1
     Epsilon:                2.2800000000
     Refrac:                 1.5010000000
     RSolv:                  1.3000000000
     Surface Type:                      2
     Number of Points:                845
     Surface Area:         578.9342119481
     Dielectric Energy:     -0.0061537747
# -----------------------------------------------------------
$ VdW_Correction
   description: The Van der Waals Correction
   geom. index: 4
   prop. index: 1
        Van der Waals Correction:       -0.0290635583
# -----------------------------------------------------------
$ SCF_Energy
   description: The SCF energy
   geom. index: 5
   prop. index: 1
        SCF Energy:     -399.9065256592
# -----------------------------------------------------------
$ DFT_Energy
   description: The DFT energy
   geom. index: 5
   prop. index: 1
   Number of Alpha Electrons                 31.0000019545 
   Number of Beta  Electrons                 31.0000019545 
   Total number of  Electrons                62.0000039090 
   Exchange energy                          -35.9610792451 
   Correlation energy                        -2.6029276996 
   Correlation energy NL                      0.0000000000 
   Exchange-Correlation energy              -38.5640069447 
   Embedding correction                       0.0000000000 
   Total DFT Energy (No VdW correction)    -399.9065256592 
# -----------------------------------------------------------
$ Solvation_Details
   description: Details concerning solvation
   geom. index: 5
   prop. index: 1
     Epsilon:                2.2800000000
     Refrac:                 1.5010000000
     RSolv:                  1.3000000000
     Surface Type:                      2
     Number of Points:                844
     Surface Area:         578.9590388765
     Dielectric Energy:     -0.0061584331
# -----------------------------------------------------------
$ VdW_Correction
   description: The Van der Waals Correction
   geom. index: 5
   prop. index: 1
        Van der Waals Correction:       -0.0290603069
# -----------------------------------------------------------
$ SCF_Energy
   description: The SCF energy
   geom. index: 6
   prop. index: 1
        SCF Energy:     -399.9065267432
# -----------------------------------------------------------
$ DFT_Energy
   description: The DFT energy
   geom. index: 6
   prop. index: 1
   Number of Alpha Electrons                 31.0000019221 
   Number of Beta  Electrons                 31.0000019221 
   Total number of  Electrons                62.0000038442 
   Exchange energy                          -35.9609155639 
   Correlation energy                        -2.6029111148 
   Correlation energy NL                      0.0000000000 
   Exchange-Correlation energy              -38.5638266787 
   Embedding correction                       0.0000000000 
   Total DFT Energy (No VdW correction)    -399.9065267432 
# -----------------------------------------------------------
$ Solvation_Details
   description: Details concerning solvation
   geom. index: 6
   prop. index: 1
     Epsilon:                2.2800000000
     Refrac:                 1.5010000000
     RSolv:                  1.3000000000
     Surface Type:                      2
     Number of Points:                844
     Surface Area:         578.9320744653
     Dielectric Energy:     -0.0061652157
# -----------------------------------------------------------
$ VdW_Correction
   description: The Van der Waals Correction
   geom. index: 6
   prop. index: 1
        Van der Waals Correction:       -0.0290599647
# -----------------------------------------------------------
$ SCF_Energy
   description: The SCF energy
   geom. index: 7
   prop. index: 1
        SCF Energy:     -399.9065264644
# -----------------------------------------------------------
$ DFT_Energy
   description: The DFT energy
   geom. index: 7
   prop. index: 1
   Number of Alpha Electrons                 31.0000018871 
   Number of Beta  Electrons                 31.0000018871 
   Total number of  Electrons                62.0000037743 
   Exchange energy                          -35.9609804172 
   Correlation energy                        -2.6029143475 
   Correlation energy NL                      0.0000000000 
   Exchange-Correlation energy              -38.5638947647 
   Embedding correction                       0.0000000000 
   Total DFT Energy (No VdW correction)    -399.9065264644 
# -----------------------------------------------------------
$ Solvation_Details
   description: Details concerning solvation
   geom. index: 7
   prop. index: 1
     Epsilon:                2.2800000000
     Refrac:                 1.5010000000
     RSolv:                  1.3000000000
     Surface Type:                      2
     Number of Points:                844
     Surface Area:         578.8778803163
     Dielectric Energy:     -0.0061700786
# -----------------------------------------------------------
$ VdW_Correction
   description: The Van der Waals Correction
   geom. index: 7
   prop. index: 1
        Van der Waals Correction:       -0.0290606500
# -----------------------------------------------------------
$ SCF_Energy
   description: The SCF energy
   geom. index: 8
   prop. index: 1
        SCF Energy:     -399.9065258959
# -----------------------------------------------------------
$ DFT_Energy
   description: The DFT energy
   geom. index: 8
   prop. index: 1
   Number of Alpha Electrons                 31.0000018542 
   Number of Beta  Electrons                 31.0000018542 
   Total number of  Electrons                62.0000037084 
   Exchange energy                          -35.9611161612 
   Correlation energy                        -2.6029252844 
   Correlation energy NL                      0.0000000000 
   Exchange-Correlation energy              -38.5640414455 
   Embedding correction                       0.0000000000 
   Total DFT Energy (No VdW correction)    -399.9065258959 
# -----------------------------------------------------------
$ Solvation_Details
   description: Details concerning solvation
   geom. index: 8
   prop. index: 1
     Epsilon:                2.2800000000
     Refrac:                 1.5010000000
     RSolv:                  1.3000000000
     Surface Type:                      2
     Number of Points:                843
     Surface Area:         578.8161973891
     Dielectric Energy:     -0.0061713080
# -----------------------------------------------------------
$ Mayer_Pop
   description: The Mayer population analysis
   geom. index: 8
   prop. index: 1
     Number of atoms                     : 14
     Threshold for printing              : 0.1000000
     Number of bond orders printed       : 15
  NA   - Mulliken gross atomic population
  ZA   - Total nuclear charge
  QA   - Mulliken gross atomic charge
  VA   - Mayer's total valence
  BVA  - Mayer's bonded valence
  FA   - Mayer's free valence
  ATOM       NA         ZA         QA         VA         BVA        FA
  0   0     6.1480     6.0000    -0.1480     3.9391     3.9391    -0.0000
  1   0     6.2116     6.0000    -0.2116     3.9493     3.9493     0.0000
  2   0     6.1044     6.0000    -0.1044     3.9176     3.9176     0.0000
  3   0     5.7691     6.0000     0.2309     3.7060     3.7060    -0.0000
  4   0     6.2122     6.0000    -0.2122     3.9493     3.9493     0.0000
  5   0     6.1472     6.0000    -0.1472     3.9380     3.9380    -0.0000
  6   0     0.8426     1.0000     0.1574     0.9712     0.9712    -0.0000
  7   0     6.1315     6.0000    -0.1315     3.7268     3.7268     0.0000
  8   0     0.8535     1.0000     0.1465     0.9691     0.9691     0.0000
  9   0     0.8527     1.0000     0.1473     0.9663     0.9663    -0.0000
 10   0     0.8425     1.0000     0.1575     0.9712     0.9712    -0.0000
 11   0     0.8535     1.0000     0.1465     0.9691     0.9691     0.0000
 12   0     6.6141     7.0000     0.3859     4.1047     4.1047     0.0000
 13   0     8.4172     8.0000    -0.4172     1.9241     1.9241     0.0000
      Bond orders larger than 0.1000000
           Atom A     A.N. of A          Atom B    A.N. of B              Bond order
                0             6               1            6                1.456567
                0             6               2            6                1.405617
                0             6               8            1                0.973559
                1             6               3            6                1.362492
                1             6               6            1                0.972000
                2             6               5            6                1.405489
                2             6               9            1                0.970101
                3             6               4            6                1.362840
                3             6               7            6                0.948861
                4             6               5            6                1.456213
                4             6              10            1                0.971993
                5             6              11            1                0.973469
                7             6              12            7                2.503274
                7             6              13            8                0.337741
               12             7              13            8                1.524663
# -----------------------------------------------------------
$ VdW_Correction
   description: The Van der Waals Correction
   geom. index: 8
   prop. index: 1
        Van der Waals Correction:       -0.0290614624
# -----------------------------------------------------------
$ SCF_Electric_Properties
   description: The SCF Calculated Electric Properties
   geom. index: 8
   prop. index: 1
       Filename                          : orca.scfp 
       Do Dipole Moment Calculation      : true 
       Do Quadrupole Moment Calculation  : false 
       Do Polarizability Calculation     : false 
** Dipole moment part of electric properties **
        Magnitude of dipole moment (Debye) :        5.7947704890
        Electronic Contribution:
                  0    
      0       4.174015
      1       5.175421
      2       0.301006
        Nuclear Contribution:
                  0    
      0      -5.603900
      1      -6.948358
      2      -0.398863
        Total Dipole moment:
                  0    
      0      -1.429884
      1      -1.772937
      2      -0.097857
# -----------------------------------------------------------
$ Hessian
   description: Details about the Hessian
   geom. index: 8
   prop. index: 1
Normal modes:
Number of Rows: 42 Number of Columns: 42
                  0          1          2          3          4          5    
      0       0.000000   0.000000   0.000000   0.000000   0.000000   0.000000
      1       0.000000   0.000000   0.000000   0.000000   0.000000   0.000000
      2       0.000000   0.000000   0.000000   0.000000   0.000000   0.000000
      3       0.000000   0.000000   0.000000   0.000000   0.000000   0.000000
      4       0.000000   0.000000   0.000000   0.000000   0.000000   0.000000
      5       0.000000   0.000000   0.000000   0.000000   0.000000   0.000000
      6       0.000000   0.000000   0.000000   0.000000   0.000000   0.000000
      7       0.000000   0.000000   0.000000   0.000000   0.000000   0.000000
      8       0.000000   0.000000   0.000000   0.000000   0.000000   0.000000
      9       0.000000   0.000000   0.000000   0.000000   0.000000   0.000000
     10       0.000000   0.000000   0.000000   0.000000   0.000000   0.000000
     11       0.000000   0.000000   0.000000   0.000000   0.000000   0.000000
     12       0.000000   0.000000   0.000000   0.000000   0.000000   0.000000
     13       0.000000   0.000000   0.000000   0.000000   0.000000   0.000000
     14       0.000000   0.000000   0.000000   0.000000   0.000000   0.000000
     15       0.000000   0.000000   0.000000   0.000000   0.000000   0.000000
     16       0.000000   0.000000   0.000000   0.000000   0.000000   0.000000
     17       0.000000   0.000000   0.000000   0.000000   0.000000   0.000000
     18       0.000000   0.000000   0.000000   0.000000   0.000000   0.000000
     19       0.000000   0.000000   0.000000   0.000000   0.000000   0.000000
     20       0.000000   0.000000   0.000000   0.000000   0.000000   0.000000
     21       0.000000   0.000000   0.000000   0.000000   0.000000   0.000000
     22       0.000000   0.000000   0.000000   0.000000   0.000000   0.000000
     23       0.000000   0.000000   0.000000   0.000000   0.000000   0.000000
     24       0.000000   0.000000   0.000000   0.000000   0.000000   0.000000
     25       0.000000   0.000000   0.000000   0.000000   0.000000   0.000000
     26       0.000000   0.000000   0.000000   0.000000   0.000000   0.000000
     27       0.000000   0.000000   0.000000   0.000000   0.000000   0.000000
     28       0.000000   0.000000   0.000000   0.000000   0.000000   0.000000
     29       0.000000   0.000000   0.000000   0.000000   0.000000   0.000000
     30       0.000000   0.000000   0.000000   0.000000   0.000000   0.000000
     31       0.000000   0.000000   0.000000   0.000000   0.000000   0.000000
     32       0.000000   0.000000   0.000000   0.000000   0.000000   0.000000
     33       0.000000   0.000000   0.000000   0.000000   0.000000   0.000000
     34       0.000000   0.000000   0.000000   0.000000   0.000000   0.000000
     35       0.000000   0.000000   0.000000   0.000000   0.000000   0.000000
     36       0.000000   0.000000   0.000000   0.000000   0.000000   0.000000
     37       0.000000   0.000000   0.000000   0.000000   0.000000   0.000000
     38       0.000000   0.000000   0.000000   0.000000   0.000000   0.000000
     39       0.000000   0.000000   0.000000   0.000000   0.000000   0.000000
     40       0.000000   0.000000   0.000000   0.000000   0.000000   0.000000
     41       0.000000   0.000000   0.000000   0.000000   0.000000   0.000000
                  6          7          8          9         10         11    
      0       0.057259  -0.009172   0.004664  -0.070094  -0.018669   0.061044
      1       0.158976   0.001898   0.000280  -0.223317  -0.000198   0.089589
      2       0.000986   0.108620  -0.049128  -0.006846   0.207410   0.010570
      3       0.202584   0.016664   0.020541  -0.028668   0.014701   0.219368
      4       0.038611  -0.001808  -0.001247  -0.193746  -0.001694  -0.074916
      5       0.017129  -0.178298  -0.239004   0.001531  -0.205026   0.013017
      6      -0.113771  -0.024995  -0.020510  -0.221185  -0.000117  -0.066768
      7       0.092437   0.002676   0.003004  -0.273727  -0.001773   0.055922
      8      -0.013153   0.274315   0.250952  -0.015738  -0.000003  -0.005941
      9       0.175470   0.025583   0.006577   0.052212  -0.001833   0.173784
     10      -0.142880  -0.004573  -0.000262   0.063433   0.001912  -0.141049
     11       0.019056  -0.285988  -0.076640   0.004517  -0.000109   0.016047
     12       0.004508   0.014712   0.020873  -0.181497  -0.019576   0.119659
     13      -0.207120  -0.004284  -0.001347  -0.070048   0.003829  -0.198280
     14       0.005404  -0.178737  -0.238818  -0.017684   0.204709   0.018010
     15      -0.143046  -0.011163   0.004955  -0.203753   0.017697  -0.072284
     16      -0.089475  -0.000634   0.000230  -0.116210  -0.001343  -0.078074
     17      -0.011178   0.108018  -0.049081  -0.013962  -0.207535  -0.011847
     18       0.340808   0.026365   0.028391  -0.202570   0.033884   0.372877
     19       0.090857  -0.002168  -0.001936  -0.257213  -0.004859  -0.018366
     20       0.028094  -0.276332  -0.327568  -0.009581  -0.459082   0.017828
     21       0.252405   0.030213  -0.034398   0.172934   0.004491  -0.321354
     22      -0.205502  -0.005735   0.003954   0.217305  -0.002163   0.259535
     23       0.026897  -0.332776   0.409581   0.015091   0.000444  -0.029471
     24       0.080504  -0.018544   0.002828  -0.051256  -0.039429   0.087070
     25       0.303894   0.004296   0.000061  -0.095108   0.000503   0.248486
     26      -0.000519   0.221331  -0.028337  -0.009619   0.448177   0.018610
     27      -0.224627  -0.047434  -0.050274  -0.222063   0.000817  -0.141105
     28       0.182533   0.005821   0.006083  -0.274238  -0.002526   0.116229
     29      -0.025764   0.524745   0.601507  -0.014953  -0.000058  -0.012498
     30      -0.017491   0.022872   0.028468  -0.206769  -0.041044   0.095802
     31      -0.353105  -0.006575  -0.001607  -0.254909   0.007126  -0.360292
     32       0.006962  -0.276893  -0.327042  -0.021413   0.458220   0.025065
     33      -0.279580  -0.022087   0.003175  -0.084206   0.040446  -0.221620
     34      -0.142485  -0.000143   0.000419  -0.071641  -0.002629  -0.137805
     35      -0.022421   0.220256  -0.028333  -0.001356  -0.448252  -0.031375
     36      -0.032372   0.000056  -0.016262   0.201709   0.004157  -0.294687
     37       0.026667   0.001392   0.000727   0.254620  -0.001627   0.237555
     38      -0.002996   0.005807   0.184092   0.018787   0.000265  -0.027024
     39      -0.292210  -0.029016   0.011415   0.232111  -0.000821   0.160666
     40       0.237983   0.008058  -0.004290   0.284802   0.002648  -0.132898
     41      -0.030407   0.332879  -0.160158   0.011981  -0.000087   0.014753
                 12         13         14         15         16         17    
      0       0.011679  -0.008266   0.066193  -0.355461  -0.012606  -0.271600
      1      -0.001886  -0.000106  -0.027447  -0.055677   0.001135   0.085732
      2      -0.138178   0.102634   0.005465  -0.029798   0.153690  -0.022782
      3       0.001256   0.002173  -0.092917  -0.011853   0.008493  -0.245189
      4      -0.000678  -0.000696   0.126332  -0.301258  -0.000997   0.070813
      5      -0.014139  -0.019937  -0.008808   0.001704  -0.093936  -0.022167
      6      -0.017791   0.011011   0.066966  -0.103208   0.007475   0.176653
      7       0.000849  -0.002758  -0.052920   0.084208  -0.001295   0.219073
      8       0.201030  -0.141911   0.006389  -0.009456  -0.093074   0.012373
      9      -0.026730   0.023585  -0.087928   0.095333  -0.009720  -0.147220
     10       0.003409  -0.001219   0.069681  -0.077813   0.001482  -0.182595
     11       0.319408  -0.268906  -0.007315   0.008590   0.119049  -0.010031
     12       0.000649   0.000558  -0.141569   0.291460   0.007832   0.120371
     13      -0.000075   0.000280   0.063902   0.074307  -0.000386  -0.226044
     14      -0.014316  -0.019800  -0.012595   0.024114  -0.094250   0.011468
     15       0.011087  -0.009662   0.041825  -0.019729  -0.013388   0.140260
     16      -0.001366   0.000834  -0.059787   0.360178   0.001836  -0.248877
     17      -0.137967   0.102784   0.004130  -0.004842   0.153622   0.015184
     18       0.023796  -0.027114  -0.202073   0.120549   0.044943  -0.032195
     19      -0.003360   0.001666   0.085999  -0.250896  -0.004985   0.157635
     20      -0.287011   0.306734  -0.018628   0.012610  -0.525954  -0.006869
     21      -0.003649  -0.029495   0.442180   0.127446  -0.001144   0.018882
     22       0.001296   0.005093  -0.360403  -0.103810   0.000167   0.025947
     23       0.052737   0.375968   0.039497   0.011850   0.013206   0.004146
     24       0.037828  -0.035725   0.046006  -0.333698   0.008470  -0.334573
     25      -0.004003   0.003719  -0.148150   0.089898  -0.000196  -0.290962
     26      -0.444215   0.426731   0.003607  -0.029202  -0.092261  -0.025848
     27      -0.030042   0.011531   0.023081   0.239662   0.048900   0.175215
     28       0.002100  -0.002728  -0.017292  -0.194021  -0.005649   0.217481
     29       0.345550  -0.149604   0.002017   0.022276  -0.579651   0.009504
     30       0.023760  -0.027411  -0.124423   0.270200   0.044442   0.160392
     31      -0.003267   0.001998   0.183418  -0.065535  -0.004655   0.000233
     32      -0.286631   0.306261  -0.013476   0.023635  -0.524531   0.011031
     33       0.037756  -0.036014   0.153461  -0.157623   0.008240  -0.213790
     34      -0.003870   0.004224  -0.015313   0.308156  -0.000088  -0.389726
     35      -0.443717   0.427210   0.012490  -0.015919  -0.091931  -0.014512
     36       0.027025   0.030055  -0.476398  -0.055501   0.000651   0.060764
     37      -0.003734  -0.003928   0.387211   0.045144  -0.000296   0.073904
     38      -0.326989  -0.375135  -0.042728  -0.005120  -0.009518   0.003131
     39      -0.011885  -0.011505   0.202352   0.021819  -0.000533   0.118270
     40       0.002887   0.001807  -0.163928  -0.017528  -0.000217   0.146686
     41       0.154962   0.147210   0.018198   0.002016   0.003797   0.007806
                 18         19         20         21         22         23    
      0       0.000537   0.005677  -0.001329   0.008118  -0.075400  -0.007265
      1      -0.000089  -0.000581   0.000137  -0.000837   0.022479   0.000791
      2      -0.005730  -0.066725   0.016054  -0.095078  -0.007436   0.083949
      3       0.007346   0.006807   0.008745  -0.007342   0.160999   0.002903
      4      -0.000757  -0.000709  -0.000917   0.001036  -0.366573  -0.000819
      5      -0.086111  -0.080022  -0.102612   0.084883   0.017338  -0.031471
      6       0.009567  -0.000031  -0.007825  -0.000180   0.231194   0.009348
      7      -0.001008   0.000019   0.000849  -0.000241   0.287204  -0.000546
      8      -0.113056   0.000143   0.092142   0.000334   0.017796  -0.106639
      9      -0.014480  -0.000011  -0.005380  -0.000039   0.032031   0.000033
     10       0.001566  -0.000021   0.000584  -0.000062   0.039845   0.000058
     11       0.170783   0.000272   0.063367   0.000209   0.002449  -0.000045
     12       0.007354  -0.006729   0.008724   0.007537  -0.390596   0.002196
     13      -0.000756   0.000687  -0.000913  -0.000796   0.081333  -0.000154
     14      -0.085987   0.079280  -0.102473  -0.085558  -0.034030  -0.031766
     15       0.000483  -0.005721  -0.001285  -0.008115   0.037694  -0.007040
     16       0.000019   0.000592   0.000181   0.000913  -0.069594   0.000615
     17      -0.005846   0.067123   0.014914   0.095013   0.003603   0.083908
     18      -0.011267  -0.044355  -0.048842   0.038935   0.219655  -0.018461
     19       0.001156   0.004596   0.004991  -0.003643  -0.364853   0.001355
     20       0.131796   0.519823   0.571192  -0.455275   0.018836   0.218769
     21       0.003016   0.000005   0.001486  -0.000003   0.007500   0.000327
     22      -0.000514  -0.000006  -0.000277  -0.000007   0.009160  -0.000049
     23      -0.037078  -0.000070  -0.018371  -0.000065   0.000446  -0.003842
     24      -0.048448  -0.039599   0.007920  -0.044363  -0.054353   0.042167
     25       0.004920   0.003981  -0.000798   0.004366   0.072649  -0.003959
     26       0.569434   0.464724  -0.092490   0.520575  -0.000079  -0.495591
     27      -0.042685   0.000054   0.045893   0.000004   0.240522  -0.052238
     28       0.004465   0.000034  -0.004822  -0.000266   0.298980   0.006064
     29       0.501056  -0.001248  -0.538456  -0.001896   0.013870   0.614837
     30      -0.011193   0.044138  -0.048758  -0.038997  -0.400624  -0.019300
     31       0.001032  -0.004426   0.004813   0.003790   0.141555   0.002209
     32       0.131299  -0.516949   0.571151   0.459771  -0.035452   0.220265
     33      -0.048586   0.039721   0.007324   0.044478   0.080558   0.042550
     34       0.005167  -0.004199  -0.000711  -0.004525  -0.038482  -0.004451
     35       0.569732  -0.466517  -0.085870  -0.520042   0.008779  -0.495176
     36      -0.000053  -0.000002  -0.000048   0.000001   0.002893  -0.000048
     37      -0.000021  -0.000001  -0.000018   0.000001   0.003602   0.000011
     38       0.000295   0.000005   0.000297  -0.000004   0.000212   0.000602
     39      -0.000113   0.000007  -0.000014   0.000013  -0.010504  -0.000002
     40       0.000117   0.000018   0.000065   0.000013  -0.012968  -0.000007
     41       0.002214   0.000005   0.000691   0.000002  -0.000685  -0.000069
                 24         25         26         27         28         29    
      0      -0.187500  -0.078688  -0.112430  -0.004685  -0.007111  -0.013788
      1       0.097122  -0.014013  -0.035428  -0.059970  -0.048515  -0.211177
      2      -0.016829  -0.006522  -0.009290   0.000117  -0.000160   0.000610
      3       0.071997   0.029065  -0.039559   0.023393   0.048111   0.201010
      4       0.014646   0.106063   0.046345  -0.002985   0.017970   0.047448
      5       0.005948   0.001506  -0.003720   0.002022   0.003923   0.016701
      6      -0.097348   0.059788   0.033431  -0.065471  -0.005304  -0.145080
      7      -0.120738  -0.048266   0.041662   0.053294  -0.006011   0.117438
      8      -0.007161   0.005462   0.002479  -0.005994  -0.000404  -0.013342
      9       0.040922   0.037906   0.219995  -0.017588   0.001193  -0.258677
     10       0.050660  -0.030131   0.273234   0.014439   0.001584   0.209887
     11       0.003059   0.003487   0.016234  -0.001632   0.000116  -0.023865
     12      -0.000638  -0.097592   0.053813   0.007712   0.007554  -0.004202
     13       0.073813  -0.050757  -0.028677  -0.022843   0.050814  -0.206867
     14      -0.000693  -0.007831   0.004844   0.000870   0.000176   0.001466
     15       0.133845  -0.002770  -0.011006   0.057750  -0.045235   0.203355
     16      -0.163730   0.079734  -0.118108   0.017241  -0.016950   0.057630
     17       0.012738  -0.000920   0.000112   0.004732  -0.003692   0.016846
     18       0.383158   0.420058  -0.460733   0.143563   0.470027   0.127902
     19       0.138124   0.263263  -0.096530   0.041905   0.178445   0.015068
     20       0.031679   0.033793  -0.038344   0.011861   0.038616   0.010569
     21       0.011589  -0.012866   0.078810   0.002847   0.004993   0.012939
     22       0.014322   0.010667   0.096490  -0.002272   0.006294  -0.010683
     23       0.000503  -0.001205   0.004252   0.000260   0.000280   0.001194
     24      -0.141405  -0.128067  -0.173168  -0.067277  -0.077039   0.100816
     25       0.481806  -0.278496  -0.368400  -0.461994  -0.487149   0.491273
     26      -0.015989  -0.008804  -0.011499  -0.001765  -0.002492   0.004323
     27      -0.109419   0.404046   0.031562  -0.546332  -0.007391   0.290326
     28      -0.134792  -0.327627   0.040008   0.443491  -0.004402  -0.235881
     29      -0.008348   0.037506   0.002466  -0.050547  -0.000510   0.026854
     30       0.054401  -0.168712   0.003418  -0.011431   0.075059   0.011872
     31       0.405255  -0.467932  -0.469341  -0.154312   0.496532  -0.129443
     32       0.001222  -0.010478   0.004570   0.000294   0.002227   0.002106
     33       0.499272   0.244601  -0.325222   0.439869  -0.455431  -0.457821
     34      -0.037852   0.183586  -0.248423   0.164199  -0.176432  -0.202196
     35       0.043116   0.019220  -0.025731   0.036138  -0.037321  -0.037423
     36       0.000868  -0.000106   0.021526  -0.000202   0.002884   0.000229
     37       0.001125   0.000169   0.027048   0.000166   0.003557  -0.000380
     38       0.000099  -0.000008   0.001535  -0.000017   0.000198   0.000028
     39      -0.023612   0.000374  -0.128075  -0.000172  -0.006008  -0.001469
     40      -0.029244  -0.000643  -0.158527   0.000083  -0.007447   0.001429
     41      -0.001515   0.000041  -0.008221  -0.000014  -0.000386  -0.000136
                 30         31         32         33         34         35    
      0       0.017977   0.080291  -0.098165  -0.008373   0.125450   0.122404
      1       0.001656  -0.032228  -0.118315   0.166006  -0.188716   0.271515
      2       0.001517   0.007097  -0.007320  -0.002160   0.012309   0.008049
      3      -0.077514  -0.117467   0.009647   0.120695  -0.220692  -0.257543
      4      -0.056332  -0.036853   0.113528  -0.013282   0.036111  -0.180765
      5      -0.006121  -0.009735  -0.000165   0.010359  -0.019056  -0.020311
      6       0.065921   0.022821   0.097430  -0.070074  -0.301000  -0.090166
      7      -0.053422   0.028799  -0.079217  -0.086992   0.243788  -0.113193
      8       0.006080   0.001705   0.009007  -0.005194  -0.027736  -0.006672
      9      -0.057800  -0.135076   0.124302  -0.112562   0.231774   0.135148
     10       0.046880  -0.167370  -0.100981  -0.139597  -0.187422   0.168860
     11      -0.005338  -0.009523   0.011475  -0.008190   0.021362   0.009896
     12       0.038509  -0.011368  -0.108681  -0.038110  -0.082054  -0.121695
     13       0.087675  -0.123467  -0.033217   0.115887   0.207621  -0.291486
     14       0.002527   0.000079  -0.008979  -0.004279  -0.008824  -0.007796
     15       0.002110  -0.047920   0.095074   0.163251   0.211349   0.237856
     16      -0.017868   0.072123   0.121221   0.026363  -0.082711   0.177160
     17       0.000342  -0.004726   0.007020   0.013654   0.018703   0.018695
     18       0.546692   0.372319  -0.226151  -0.378434   0.203849   0.388222
     19       0.176842   0.142421   0.046975  -0.221063   0.215670   0.054537
     20       0.045135   0.030777  -0.019658  -0.030308   0.015536   0.032596
     21       0.009070   0.206067  -0.013750   0.038055  -0.010165  -0.019293
     22      -0.007239   0.255188   0.011161   0.047107   0.008038  -0.023945
     23       0.000830   0.013826  -0.001271   0.002689  -0.000941  -0.001361
     24       0.069279   0.152286  -0.029619  -0.117453   0.204913   0.041304
     25       0.307990   0.351716   0.429225  -0.462243   0.145040  -0.325164
     26       0.003218   0.009904  -0.006238  -0.005982   0.016092   0.006302
     27      -0.250839   0.031376  -0.493958  -0.085262   0.389528  -0.106076
     28       0.203635   0.037619   0.400650  -0.106048  -0.316596  -0.130050
     29      -0.023191   0.002308  -0.045637  -0.006297   0.036012  -0.007914
     30      -0.057644   0.060988  -0.093446  -0.135876  -0.167505  -0.027513
     31      -0.573516   0.396991   0.211420  -0.418708  -0.244030   0.393836
     32       0.000043   0.001879  -0.009794  -0.007931  -0.012114  -0.005780
     33      -0.284688   0.310466  -0.424966  -0.424616  -0.099454  -0.324389
     34      -0.131966   0.222921  -0.061037  -0.211679  -0.231358  -0.026392
     35      -0.023059   0.024503  -0.035651  -0.034319  -0.006457  -0.027414
     36       0.000551   0.170745  -0.000672   0.041979  -0.000842  -0.021722
     37      -0.000375   0.211541   0.000632   0.051975   0.000627  -0.026895
     38       0.000050   0.011170  -0.000064   0.002736  -0.000078  -0.001420
     39      -0.000623  -0.205925   0.001015  -0.034554   0.001298   0.015772
     40       0.000387  -0.254903  -0.000845  -0.042758  -0.000936   0.019526
     41      -0.000056  -0.013191   0.000093  -0.002214   0.000116   0.001007
                 36         37         38         39         40         41    
      0       0.002085  -0.040668   0.050583  -0.017747  -0.036501   0.039877
      1       0.004842   0.005155  -0.009072   0.006652   0.003620  -0.006376
      2       0.000137  -0.003509   0.004388  -0.001568  -0.003140   0.003452
      3      -0.007904   0.006857  -0.013205   0.017059  -0.017485   0.012280
      4      -0.007078  -0.014507   0.030382  -0.041675   0.050878  -0.036339
      5      -0.000602   0.000713  -0.001392   0.001821  -0.001939   0.001368
      6      -0.001718   0.036064  -0.002015  -0.034299   0.000381   0.023413
      7      -0.002122   0.044736   0.002922  -0.042326  -0.004323   0.028862
      8      -0.000136   0.002670  -0.000197  -0.002541   0.000071   0.001736
      9      -0.056039  -0.000501   0.001359  -0.001523   0.003283  -0.001443
     10      -0.069923  -0.000586  -0.001026  -0.001755  -0.002585  -0.002131
     11      -0.004278  -0.000037   0.000124  -0.000112   0.000302  -0.000102
     12      -0.005338  -0.014896  -0.030409  -0.042358  -0.051862  -0.043484
     13      -0.009243   0.003575   0.006265   0.007857   0.006484   0.005132
     14      -0.000368  -0.001301  -0.002649  -0.003682  -0.004481  -0.003754
     15       0.004355   0.013421   0.019381   0.011454  -0.009037  -0.015276
     16       0.003060  -0.038585  -0.048010  -0.019566   0.030027   0.040269
     17       0.000344   0.001489   0.002079   0.001150  -0.001038  -0.001661
     18       0.009474  -0.068677   0.138383  -0.182930   0.210083  -0.147362
     19      -0.006736   0.178656  -0.362046   0.481167  -0.563361   0.396013
     20       0.000871  -0.007442   0.015010  -0.019858   0.022899  -0.016074
     21       0.458596  -0.000098  -0.000108   0.000197  -0.000254   0.000340
     22       0.567025  -0.000121   0.000074   0.000240   0.000181   0.000451
     23       0.029922  -0.000005  -0.000011   0.000016  -0.000024   0.000024
     24       0.007048   0.477900  -0.584181   0.205669   0.399154  -0.434645
     25      -0.004473  -0.074504   0.093697  -0.037054  -0.061019   0.069414
     26       0.000646   0.041357  -0.050573   0.017841   0.034533  -0.037626
     27      -0.002464  -0.422443  -0.004303   0.383442   0.018560  -0.252033
     28      -0.003147  -0.524146  -0.011277   0.475529   0.028863  -0.312471
     29      -0.000205  -0.031278  -0.000266   0.028382   0.001322  -0.018656
     30      -0.008883   0.180737   0.359645   0.487649   0.579300   0.478496
     31       0.007977  -0.028701  -0.056396  -0.075680  -0.086054  -0.070647
     32      -0.000796   0.015665   0.031163   0.042254   0.050163   0.041430
     33      -0.005892  -0.171527  -0.214449  -0.094265   0.121209   0.168417
     34       0.005924   0.450358   0.556185   0.233685  -0.322713  -0.438044
     35      -0.000544  -0.018649  -0.023253  -0.010126   0.013212   0.018270
     36      -0.419482   0.000235  -0.000005   0.000114  -0.000016  -0.000142
     37      -0.518479   0.000290  -0.000008   0.000137   0.000017  -0.000177
     38      -0.026864   0.000015  -0.000000   0.000008  -0.000001  -0.000009
     39       0.071481  -0.000087   0.000007  -0.000014   0.000013   0.000122
     40       0.088674  -0.000108  -0.000001  -0.000020  -0.000015   0.000145
     41       0.004738  -0.000006   0.000001  -0.000001   0.000001   0.000008
# -----------------------------------------------------------
$ THERMOCHEMISTRY_Energies
   description: The Thermochemistry energies
   geom. index: 8
   prop. index: 1
        Temperature (Kelvin)           :        298.1500000000
        Pressure (atm)                 :          1.0000000000
        Total Mass (AMU)               :        119.1230000000
        Spin Degeneracy                :          1.0000000000
        Electronic Energy (Hartree)    :       -399.9355873583
        Translational Energy (Hartree) :          0.0014162714
        Rotational Energy (Hartree)    :          0.0014162714
        Vibrational Energy (Hartree)   :          0.0042500286
        Number of frequencies          :     42      
        Scaling Factor for frequencies :          1.0000000000
        Vibrational frequencies        :     
                  0    
      0       0.000000
      1       0.000000
      2       0.000000
      3       0.000000
      4       0.000000
      5       0.000000
      6      77.718765
      7      90.307342
      8     286.954749
      9     408.935010
     10     413.325785
     11     418.744790
     12     497.001571
     13     534.017976
     14     553.969845
     15     638.193261
     16     713.753012
     17     737.157988
     18     784.717869
     19     877.520256
     20     965.761200
     21     1014.875263
     22     1029.982874
     23     1034.134332
     24     1061.980735
     25     1114.969858
     26     1134.368463
     27     1179.719156
     28     1206.683038
     29     1300.583957
     30     1360.875314
     31     1413.001359
     32     1496.810812
     33     1552.123308
     34     1659.432841
     35     1684.690584
     36     2481.118081
     37     3203.107388
     38     3212.323518
     39     3219.888717
     40     3227.880528
     41     3232.075448
        Zero Point Energy (Hartree)    :          0.1043826905
        Inner Energy (Hartree)         :       -399.8241220963
        Enthalpy (Hartree)             :       -399.8231778873
        Electronic entropy             :          0.0000000000
        Rotational entropy             :          0.0137130453
        Vibrational entropy            :          0.0069552022
        Translational entropy          :          0.0137130453
        Entropy                        :          0.0397873179
        Gibbs Energy (Hartree)         :       -399.8629652051
        Is Linear                      :                 false
# -------------------------------------------------------------
----------------------- !GEOMETRIES! ------------------------
# -------------------------------------------------------------
------------------------ !GEOMETRY! -------------------------
    Number of atoms:    14 
    Geometry Index:     1 
    Coordinates:
               0 C     -0.082734707830   -0.070642114497    0.352379607359
               1 C      0.782472665880    1.021935175151    0.417553955336
               2 C      0.421197370634   -1.376236661908    0.406102943575
               3 C      2.173885212976    0.813079366508    0.538037743888
               4 C      2.676679977816   -0.505698071948    0.592332944305
               5 C      1.800257643518   -1.588890042038    0.526009965561
               6 H      0.397049615050    2.034356339001    0.376355653643
               7 C      3.065622949442    1.920910256736    0.603642865506
               8 H     -1.150541570181    0.096505268850    0.259820604825
               9 H     -0.255927549755   -2.222202920585    0.354837381560
              10 H      3.745041251875   -0.664438463612    0.685138465338
              11 H      2.193632181397   -2.598933470329    0.567751237599
              12 N      3.814845936970    2.824036500318    0.649438592450
              13 O      4.614819022207    3.784518838353    0.696598039055
------------------------ !GEOMETRY! -------------------------
    Number of atoms:    14 
    Geometry Index:     2 
    Coordinates:
               0 C     -0.070331096416   -0.066253604562    0.353488982905
               1 C      0.791245821728    1.018808208660    0.418239672641
               2 C      0.430622864421   -1.364071428056    0.406845639844
               3 C      2.169970086261    0.805965478539    0.537529929366
               4 C      2.672678687446   -0.500052906249    0.591615427918
               5 C      1.801317576671   -1.577101937233    0.525870832957
               6 H      0.408639282455    2.031833647810    0.377042062422
               7 C      3.065183006726    1.918777136381    0.603326990053
               8 H     -1.137050153509    0.102050467488    0.260920057709
               9 H     -0.246640126415   -2.208965400528    0.355864347425
              10 H      3.740808387327   -0.657317267042    0.684424971395
              11 H      2.194092040832   -2.586437445648    0.567943504056
              12 N      3.797566713870    2.804616141820    0.648188550898
              13 O      4.578196908605    3.746448908620    0.694699030414
------------------------ !GEOMETRY! -------------------------
    Number of atoms:    14 
    Geometry Index:     3 
    Coordinates:
               0 C     -0.068217583983   -0.065783992638    0.353705777364
               1 C      0.793557957796    1.017809218850    0.418348461302
               2 C      0.432015994493   -1.361942170583    0.407046502406
               3 C      2.168420035105    0.802130046878    0.537283603670
               4 C      2.671856616724   -0.499902721892    0.591381719319
               5 C      1.800769576217   -1.575927203101    0.525798085202
               6 H      0.412176941517    2.031412733947    0.377131647324
               7 C      3.066715207528    1.919072066715    0.603231395911
               8 H     -1.135067612587    0.103078558919    0.261098829563
               9 H     -0.245878434361   -2.206659066892    0.356184533864
              10 H      3.740104857008   -0.657106870428    0.684136473169
              11 H      2.192896447173   -2.585742994919    0.567968626767
              12 N      3.797489931718    2.805963348473    0.648082528981
              13 O      4.569460065654    3.741899046670    0.694601815158
------------------------ !GEOMETRY! -------------------------
    Number of atoms:    14 
    Geometry Index:     4 
    Coordinates:
               0 C     -0.068444771200   -0.065651695525    0.353702525106
               1 C      0.793946135371    1.018075067455    0.418256248350
               2 C      0.431758550496   -1.361986556690    0.407122419937
               3 C      2.168441494396    0.800839657896    0.537109786719
               4 C      2.672420096059   -0.500775908952    0.591320803663
               5 C      1.800534221323   -1.576794435387    0.525813647040
               6 H      0.412999862285    2.031798212643    0.377032842217
               7 C      3.067771035464    1.919103642179    0.603128454272
               8 H     -1.135311387337    0.103363372996    0.261145992996
               9 H     -0.246484592411   -2.206511844248    0.356354795883
              10 H      3.740569830013   -0.658401082565    0.684015580931
              11 H      2.192012003897   -2.586900311556    0.567993059685
              12 N      3.798131240197    2.807717331867    0.648068587961
              13 O      4.567956281447    3.744424549888    0.694935255240
------------------------ !GEOMETRY! -------------------------
    Number of atoms:    14 
    Geometry Index:     5 
    Coordinates:
               0 C     -0.068403859071   -0.065307709372    0.353722586370
               1 C      0.794475442608    1.018406549580    0.418176196360
               2 C      0.431649981866   -1.361820240884    0.407217846686
               3 C      2.168762126318    0.799837758518    0.536978957669
               4 C      2.673023187632   -0.501594707577    0.591267542503
               5 C      1.800405258027   -1.577414906937    0.525837500013
               6 H      0.413934791613    2.032223544765    0.376928144285
               7 C      3.068606605429    1.918640332296    0.602987828887
               8 H     -1.135242454954    0.103866282039    0.261218181735
               9 H     -0.246928070318   -2.206102030692    0.356538271379
              10 H      3.741049918342   -0.659723182164    0.683893753169
              11 H      2.191198067206   -2.587779375103    0.568009557083
              12 N      3.797861329394    2.808405506671    0.647968232926
              13 O      4.565907675910    3.746662178862    0.695255400935
------------------------ !GEOMETRY! -------------------------
    Number of atoms:    14 
    Geometry Index:     6 
    Coordinates:
               0 C     -0.068129165226   -0.064887570976    0.353768115930
               1 C      0.795171756887    1.018628167996    0.418101103450
               2 C      0.431611891835   -1.361536537838    0.407324430239
               3 C      2.169269545774    0.798973528942    0.536834847966
               4 C      2.673493777823   -0.502382092916    0.591190328470
               5 C      1.800255568845   -1.577858007097    0.525861221864
               6 H      0.415051218426    2.032562261062    0.376822161479
               7 C      3.069401404627    1.917881300278    0.602799189871
               8 H     -1.134931037984    0.104498947312    0.261324819808
               9 H     -0.247316541359   -2.205548011344    0.356744939914
              10 H      3.741410146197   -0.661041556978    0.683750338236
              11 H      2.190375241784   -2.588474306909    0.568037777140
              12 N      3.797242547706    2.808739919019    0.647826375714
              13 O      4.563393644666    3.748743959448    0.695614349920
------------------------ !GEOMETRY! -------------------------
    Number of atoms:    14 
    Geometry Index:     7 
    Coordinates:
               0 C     -0.067704703940   -0.064417159912    0.353833741348
               1 C      0.796059823365    1.018741510945    0.418004338311
               2 C      0.431536564689   -1.361235896382    0.407459791665
               3 C      2.170012140950    0.798173136023    0.536656675490
               4 C      2.673864785931   -0.503254676235    0.591067085057
               5 C      1.800032678534   -1.578286924080    0.525885548741
               6 H      0.416423460086    2.032835400539    0.376682300549
               7 C      3.070366405327    1.916918692259    0.602551860034
               8 H     -1.134460248862    0.105285498817    0.261469437227
               9 H     -0.247797543209   -2.204931313537    0.357011188623
              10 H      3.741681821512   -0.662499720931    0.683548214499
              11 H      2.189464010485   -2.589164757441    0.568085252506
              12 N      3.796462282132    2.809079805367    0.647659627318
              13 O      4.560358522998    3.751056404568    0.696084938636
------------------------ !GEOMETRY! -------------------------
    Number of atoms:    14 
    Geometry Index:     8 
    Coordinates:
               0 C     -0.067240280112   -0.063982280475    0.353909429359
               1 C      0.797005909834    1.018734743698    0.417913174645
               2 C      0.431386026958   -1.361015816921    0.407596745603
               3 C      2.170886506326    0.797532610360    0.536479418474
               4 C      2.674086461308   -0.504118970251    0.590929842654
               5 C      1.799751827958   -1.578706799423    0.525911577452
               6 H      0.417863840585    2.033013902336    0.376537695727
               7 C      3.071454694360    1.915929840724    0.602265088086
               8 H     -1.133939791832    0.106123796978    0.261623061047
               9 H     -0.248356322861   -2.204390061203    0.357279345739
              10 H      3.741830794775   -0.663911719574    0.683323183740
              11 H      2.188598087547   -2.589809553777    0.568143477270
              12 N      3.795700393081    2.809513213303    0.647479954662
              13 O      4.557271852074    3.753387094225    0.696608005542
