14
Coordinates from ORCA-job mol
  C   -0.06921015019951     -0.06529574338198      0.35351243810965
  C   0.79119481039741      1.02077331721576      0.41768875439828
  C   0.42989931957957     -1.36457191695647      0.40718753758030
  C   2.17575666564252      0.81102159077568      0.53719150033227
  C   2.67533482680034     -0.50176770719158      0.59147547901439
  C   1.80140818574810     -1.57684873567026      0.52609215138209
  H   0.40765836837094      2.03487643116054      0.37656911451740
  C   3.06191489361693      1.91379422791223      0.60264216164607
  H   -1.13782599495373      0.10384127089922      0.26102054569341
  H   -0.24889323457951     -2.21037517498550      0.35646562399650
  H   3.74452867342934     -0.66129087138067      0.68420326955335
  H   2.19404842130074     -2.58836125441004      0.56812577366666
  N   3.80259885027137      2.81196682644448      0.64842931614434
  O   4.56788636457547      3.74053773956857      0.69539633396529
