14
Coordinates from ORCA-job mol E -399.564457554144
  C      -0.069210     -0.065296      0.353512
  C       0.791195      1.020773      0.417689
  C       0.429899     -1.364572      0.407188
  C       2.175757      0.811022      0.537192
  C       2.675335     -0.501768      0.591475
  C       1.801408     -1.576849      0.526092
  H       0.407658      2.034876      0.376569
  C       3.061915      1.913794      0.602642
  H      -1.137826      0.103841      0.261021
  H      -0.248893     -2.210375      0.356466
  H       3.744529     -0.661291      0.684203
  H       2.194048     -2.588361      0.568126
  N       3.802599      2.811967      0.648429
  O       4.567886      3.740538      0.695396
14
Coordinates from ORCA-job mol E -399.564496279443
  C      -0.069704     -0.064718      0.353487
  C       0.790923      1.021596      0.417709
  C       0.429842     -1.364537      0.407153
  C       2.175531      0.810234      0.537207
  C       2.676346     -0.502339      0.591594
  C       1.801919     -1.577455      0.526099
  H       0.407489      2.036037      0.376558
  C       3.061896      1.913185      0.602553
  H      -1.138386      0.104685      0.260953
  H      -0.249178     -2.210378      0.356439
  H       3.745778     -0.661965      0.684363
  H       2.194527     -2.589097      0.568185
  N       3.801292      2.810600      0.648221
  O       4.568024      3.742452      0.695480
14
Coordinates from ORCA-job mol E -399.564501306669
  C      -0.069784     -0.064352      0.353495
  C       0.790991      1.022060      0.417677
  C       0.429919     -1.364298      0.407191
  C       2.175358      0.809372      0.537133
  C       2.676962     -0.502812      0.591606
  C       1.802076     -1.577787      0.526124
  H       0.407802      2.036538      0.376522
  C       3.061950      1.912467      0.602422
  H      -1.138426      0.105200      0.260976
  H      -0.249253     -2.210017      0.356506
  H       3.746322     -0.662561      0.684357
  H       2.194439     -2.589505      0.568233
  N       3.800582      2.810049      0.648074
  O       4.567363      3.743945      0.695684
14
Coordinates from ORCA-job mol E -399.564501690528
  C      -0.069690     -0.064221      0.353513
  C       0.791182      1.022174      0.417641
  C       0.429956     -1.364150      0.407237
  C       2.175416      0.809005      0.537065
  C       2.677146     -0.503046      0.591575
  C       1.802031     -1.577904      0.526136
  H       0.408136      2.036675      0.376477
  C       3.062144      1.912150      0.602335
  H      -1.138322      0.105391      0.261017
  H      -0.249323     -2.209791      0.356587
  H       3.746462     -0.662911      0.684301
  H       2.194199     -2.589696      0.568253
  N       3.800399      2.810064      0.648010
  O       4.566565      3.744560      0.695851
