17
Coordinates from ORCA-job orca
  C   1.29282675450418      0.41343790455255      1.56707356594844
  C   2.02155818813623      1.05798943148817      0.57621981195783
  C   0.72957019957117     -0.83988757109498      1.33099651170245
  C   2.18353149220919      0.43554688567761     -0.66565189629858
  C   1.62781181814980     -0.82022009006682     -0.91046303402045
  C   0.90033750476678     -1.45189736822130      0.09206872611479
  C   3.44389908428672      2.10136245506454     -1.90982133616765
  N   2.91140715269695      1.04693166902642     -1.69333475005995
  O   5.60975968747704      1.76381664575488      0.19673900721438
  O   4.00053767095565      3.08495073865977     -2.24366520486541
  Se  5.73213756245928      3.38263192745324      0.16170027164433
  O   4.50443167255942      4.11841006022193      0.92684064684469
  H   2.47241544874109      2.02957569068473      0.75858314663648
  H   1.16766435554285      0.89491469616446      2.53260365331380
  H   0.16203684876312     -1.33722591710132      2.11165554229700
  H   1.76927458901721     -1.28639478273176     -1.88027871517725
  H   0.46629997016284     -2.42904337553219     -0.09836394708495
