17
 restart for step    4999 ; t =         4999.00 
     C    -7.2844901678   -8.7972378124    4.3713343911   12.0000000000   -0.0033558271   -0.0033002727    0.0027117459
     C    -8.2100730028   -7.8147266120    4.7430908568   12.0000000000   -0.0030202998   -0.0045264690    0.0037168304
     C    -5.9146968561   -8.6158380700    4.5932762199   12.0000000000   -0.0031877897   -0.0023245426   -0.0000832541
     C    -7.7347956378   -6.6248453856    5.3849767527   12.0000000000   -0.0032939214   -0.0047316011    0.0011562170
     C    -6.3292312448   -6.4382013678    5.6113130144   12.0000000000   -0.0042317042   -0.0055822763    0.0018127991
     C    -5.4492311037   -7.4365485429    5.1910558463   12.0000000000   -0.0009974497   -0.0022149900    0.0035627473
     H    -9.2820631527   -7.9038449452    4.5891041313    1.0078250322   -0.0002793193   -0.0213883255   -0.0016464233
     C    -8.6189678121   -5.6180360660    5.7771025027   12.0000000000   -0.0163931435    0.0086246706    0.0110731252
     H    -7.6352875163   -9.7168010443    3.9040616649    1.0078250322   -0.0219114388    0.0046953158    0.0088102422
     H    -5.1901387885   -9.3691446277    4.3131877024    1.0078250322   -0.0035904951   -0.0058286319    0.0034776320
     H    -5.9957813570   -5.5361744113    6.1104932070    1.0078250322    0.0080249951   -0.0115264108    0.0021141921
     H    -4.3765166920   -7.3168024504    5.3536458957    1.0078250322   -0.0081019342    0.0070797828    0.0094353447
     N    10.4083377893   10.0138473828   -8.0437202318   14.0030740040    0.0056481337    0.0056245367   -0.0000773296
     O    11.3744018446   10.7101490016   -8.1126917475   15.9949146200    0.0080786836    0.0064791360   -0.0057924777
     O    -9.3362540865   -4.8009849625    6.1223391412   15.9949146200   -0.0014309351   -0.0137613855    0.0010743404
     S     8.8269390906    8.5906034544   -6.2882210502   31.9720711740    0.0063319873    0.0042740470   -0.0046835438
     O    10.4200321291    9.1841152558   -6.6900278546   15.9949146200    0.0032481576    0.0060589940   -0.0052188783
