# t,fs[$1]    pos,AA[$2] , sigma =  0.0500 Angstroems;  E = 270.914 wvn  UpdTime = 10.000 fs 
           0.000    -0.4842771383
          10.000    -0.4737277860
          20.000    -0.4679447767
          30.000    -0.4864378200
          40.000    -0.4983398316
          50.000    -0.4958793001
          60.000    -0.5121267575
          70.000    -0.5437216904
          80.000    -0.5280035635
          90.000    -0.5193890586
         100.000    -0.5056716029
         110.000    -0.5174233285
         120.000    -0.4895768742
         130.000    -0.4186546122
         140.000    -0.4266739479
         150.000    -0.4402861934
         160.000    -0.4057872157
         170.000    -0.4465850877
         180.000    -0.4215000660
         190.000    -0.4243385298
         200.000    -0.4243040649
         210.000    -0.3990407129
         220.000    -0.3836387633
         230.000    -0.3531989321
         240.000    -0.4046980361
         250.000    -0.4393080045
         260.000    -0.3716964756
         270.000    -0.3822728395
         280.000    -0.3774709676
         290.000    -0.3223844742
         300.000    -0.4357471449
         310.000    -0.4333233672
         320.000    -0.4575722686
         330.000    -0.5508396084
         340.000    -0.5659406289
         350.000    -0.5801550690
         360.000    -0.5600369107
         370.000    -0.5818565631
         380.000    -0.5514804422
         390.000    -0.4966201373
         400.000    -0.5407938445
         410.000    -0.5849966411
         420.000    -0.5871466827
         430.000    -0.6175216010
         440.000    -0.5954337901
         450.000    -0.5861708460
         460.000    -0.5676933431
         470.000    -0.4719643054
         480.000    -0.5135800445
         490.000    -0.4389357758
         500.000    -0.5101706840
         510.000    -0.4544630875
         520.000    -0.4583009369
         530.000    -0.5263601244
         540.000    -0.4244731160
         550.000    -0.3221048347
         560.000    -0.3319709632
         570.000    -0.3660806485
         580.000    -0.3462893561
         590.000    -0.3404585603
         600.000    -0.3201978510
         610.000    -0.3803308487
         620.000    -0.4368370163
         630.000    -0.4517923795
         640.000    -0.4468626085
         650.000    -0.4441038419
         660.000    -0.5614356352
         670.000    -0.5345278578
         680.000    -0.5134665105
         690.000    -0.6214615965
         700.000    -0.5929738643
         710.000    -0.6596803327
         720.000    -0.5891900108
         730.000    -0.5551972656
         740.000    -0.6022525210
         750.000    -0.4945637994
         760.000    -0.5736899598
         770.000    -0.5927452709
         780.000    -0.6129433034
         790.000    -0.6501583626
         800.000    -0.6201210714
         810.000    -0.6460577814
         820.000    -0.6067841724
         830.000    -0.5436554617
         840.000    -0.4864500216
         850.000    -0.5043907212
         860.000    -0.5261975007
         870.000    -0.4877221522
         880.000    -0.4417338584
         890.000    -0.4464521473
         900.000    -0.4401223346
         910.000    -0.4480060482
         920.000    -0.3834045252
         930.000    -0.3043320334
         940.000    -0.3723224064
         950.000    -0.3437621114
         960.000    -0.3606661347
         970.000    -0.3426198951
         980.000    -0.3477287081
         990.000    -0.3791314050
        1000.000    -0.2965762528
        1010.000    -0.2876046734
        1020.000    -0.2720620411
        1030.000    -0.2916870308
        1040.000    -0.3069700865
        1050.000    -0.2612386744
        1060.000    -0.2940412275
        1070.000    -0.2876110161
        1080.000    -0.2481104255
        1090.000    -0.3602142373
        1100.000    -0.4354713339
        1110.000    -0.4377364019
        1120.000    -0.4510190594
        1130.000    -0.4568185493
        1140.000    -0.4280228807
        1150.000    -0.5032754942
        1160.000    -0.5413979374
        1170.000    -0.5389352242
        1180.000    -0.6073233536
        1190.000    -0.6729049626
        1200.000    -0.6239587729
        1210.000    -0.5744324164
        1220.000    -0.6188343374
        1230.000    -0.6277752313
        1240.000    -0.5259849944
        1250.000    -0.5277938139
        1260.000    -0.5387947357
        1270.000    -0.6244442798
        1280.000    -0.6103783894
        1290.000    -0.6278192427
        1300.000    -0.7061754328
        1310.000    -0.6262861427
        1320.000    -0.6828518092
        1330.000    -0.6356853650
        1340.000    -0.5286699392
        1350.000    -0.5379947403
        1360.000    -0.4769000456
        1370.000    -0.4835583743
        1380.000    -0.5233838757
        1390.000    -0.5304356061
        1400.000    -0.5371200691
        1410.000    -0.3814505306
        1420.000    -0.4158818623
        1430.000    -0.3767580108
        1440.000    -0.2989138651
        1450.000    -0.3494487295
        1460.000    -0.3475542769
        1470.000    -0.3846610023
        1480.000    -0.3711351108
        1490.000    -0.3587437972
        1500.000    -0.3805914523
        1510.000    -0.3577512169
        1520.000    -0.3628385348
        1530.000    -0.3686567898
        1540.000    -0.3757201193
        1550.000    -0.4018457611
        1560.000    -0.4671180167
        1570.000    -0.4031775049
        1580.000    -0.4822757470
        1590.000    -0.5742979148
        1600.000    -0.5362819849
        1610.000    -0.5090272368
        1620.000    -0.5557257726
        1630.000    -0.5732247436
        1640.000    -0.6031367346
        1650.000    -0.6450198763
        1660.000    -0.6946912152
        1670.000    -0.6747805301
        1680.000    -0.7218543272
        1690.000    -0.6852902142
        1700.000    -0.6884757550
        1710.000    -0.6973600307
        1720.000    -0.7491878962
        1730.000    -0.7848829936
        1740.000    -0.7848988997
        1750.000    -0.7490133671
        1760.000    -0.7663732286
        1770.000    -0.7582696223
        1780.000    -0.8381210836
        1790.000    -0.8455986170
        1800.000    -0.8483085299
        1810.000    -0.7962699706
        1820.000    -0.7460435217
        1830.000    -0.7117426955
        1840.000    -0.7141309507
        1850.000    -0.7303795758
        1860.000    -0.7357379439
        1870.000    -0.7449734592
        1880.000    -0.7648695233
        1890.000    -0.8440748104
        1900.000    -0.8597259441
        1910.000    -0.8675386535
        1920.000    -0.8701048756
        1930.000    -0.9408814704
        1940.000    -0.9668405920
        1950.000    -1.0019393620
        1960.000    -0.9583328057
        1970.000    -0.8800022024
        1980.000    -0.7296251715
        1990.000    -0.6533184048
        2000.000    -0.6788196859
        2010.000    -0.6906772877
        2020.000    -0.6866921076
        2030.000    -0.7099626076
        2040.000    -0.7658999797
        2050.000    -0.8264670567
        2060.000    -0.8597051862
        2070.000    -0.9188432169
        2080.000    -0.9796700408
        2090.000    -0.9988200426
        2100.000    -1.0058358201
        2110.000    -0.9834303769
        2120.000    -0.9741940099
        2130.000    -0.8558343089
        2140.000    -0.7777900991
        2150.000    -0.7662920382
        2160.000    -0.7797011139
        2170.000    -0.7952419863
        2180.000    -0.7762064842
        2190.000    -0.8352558465
        2200.000    -0.8710472200
        2210.000    -0.9409529368
        2220.000    -0.9787930477
        2230.000    -1.0540903538
        2240.000    -1.0838788539
        2250.000    -1.0792787566
        2260.000    -1.0041911267
        2270.000    -1.0333181616
        2280.000    -0.9666610598
        2290.000    -0.8729190822
        2300.000    -0.7657621051
        2310.000    -0.7691977742
        2320.000    -0.7442323363
        2330.000    -0.6448524081
        2340.000    -0.7049581531
        2350.000    -0.6424294295
        2360.000    -0.6744759532
        2370.000    -0.6529192682
        2380.000    -0.7743405947
        2390.000    -0.9150718217
        2400.000    -0.9723874799
        2410.000    -0.9049551018
        2420.000    -0.9333525023
        2430.000    -0.8632541026
        2440.000    -0.8398495126
        2450.000    -0.8248674094
        2460.000    -0.8710721513
        2470.000    -0.8151181760
        2480.000    -0.6756796304
        2490.000    -0.5630966755
        2500.000    -0.5405200868
        2510.000    -0.4420192337
        2520.000    -0.4479598430
        2530.000    -0.4476439875
        2540.000    -0.4731222146
        2550.000    -0.4015907987
        2560.000    -0.3246535938
        2570.000    -0.2785427407
        2580.000    -0.2839469592
        2590.000    -0.2471214197
        2600.000    -0.2709981266
        2610.000    -0.2008584070
        2620.000    -0.3021415925
        2630.000    -0.2528207550
        2640.000    -0.2646431008
        2650.000    -0.2798387908
        2660.000    -0.2145666865
        2670.000    -0.2315088524
        2680.000    -0.2225770875
        2690.000    -0.1893323692
        2700.000    -0.2196616012
        2710.000    -0.2802449188
        2720.000    -0.2924133076
        2730.000    -0.2853105042
        2740.000    -0.3079758823
        2750.000    -0.2751960851
        2760.000    -0.3016617341
        2770.000    -0.2848160832
        2780.000    -0.1943201962
        2790.000    -0.2008618218
        2800.000    -0.1788280911
        2810.000    -0.1902917029
        2820.000    -0.2099160615
        2830.000    -0.2285339361
        2840.000    -0.1936396540
        2850.000    -0.2302770382
        2860.000    -0.1699805340
        2870.000    -0.1173080448
        2880.000    -0.1254029266
        2890.000    -0.0728487591
        2900.000     0.0366043586
        2910.000     0.2119549853
        2920.000     0.4126138980
        2930.000     0.5114727725
        2940.000     0.4522092066
        2950.000     0.4330069172
        2960.000     0.5014078414
        2970.000     0.5718058553
        2980.000     0.6041730066
        2990.000     0.6062288472
        3000.000     0.5978557921
        3010.000     0.5740038276
        3020.000     0.5131238252
        3030.000     0.5219636859
        3040.000     0.5913934839
        3050.000     0.5824172388
        3060.000     0.5692824898
        3070.000     0.5941610886
        3080.000     0.5951342334
        3090.000     0.5357105856
        3100.000     0.4573212771
        3110.000     0.3906219192
        3120.000     0.4161428965
        3130.000     0.4605394017
        3140.000     0.4680527184
        3150.000     0.4837130721
        3160.000     0.4679347058
        3170.000     0.4787927851
        3180.000     0.5213863343
        3190.000     0.5451114102
        3200.000     0.5571753563
        3210.000     0.5242614201
        3220.000     0.5222342609
        3230.000     0.5237693501
        3240.000     0.5605920342
        3250.000     0.6161635914
        3260.000     0.6014770478
        3270.000     0.6117303352
        3280.000     0.6198414070
        3290.000     0.6155351099
        3300.000     0.6242124837
        3310.000     0.6217553335
        3320.000     0.5711866515
        3330.000     0.5191645200
        3340.000     0.5158632516
        3350.000     0.4797467790
        3360.000     0.4575172272
        3370.000     0.4280271295
        3380.000     0.4072555308
        3390.000     0.4274872075
        3400.000     0.4238950820
        3410.000     0.3668644615
        3420.000     0.2953947638
        3430.000     0.3323845009
        3440.000     0.3708456254
        3450.000     0.3104227410
        3460.000     0.3354909062
        3470.000     0.4149569255
        3480.000     0.4815337659
        3490.000     0.5090913046
        3500.000     0.4788231708
        3510.000     0.5326762596
        3520.000     0.5419818704
        3530.000     0.5905725332
        3540.000     0.6574922103
        3550.000     0.6344009635
        3560.000     0.6178535854
        3570.000     0.6026799335
        3580.000     0.6314633293
        3590.000     0.6390907377
        3600.000     0.5939514913
        3610.000     0.5626630594
        3620.000     0.4859754274
        3630.000     0.4169016741
        3640.000     0.3880026659
        3650.000     0.3908735172
        3660.000     0.3362644668
        3670.000     0.2872503206
        3680.000     0.2868791586
        3690.000     0.2951237731
        3700.000     0.3322271037
        3710.000     0.3492397207
        3720.000     0.3323262051
        3730.000     0.3712527777
        3740.000     0.3728948890
        3750.000     0.4174169672
        3760.000     0.4793771889
        3770.000     0.4603310731
        3780.000     0.4174745611
        3790.000     0.3895906429
        3800.000     0.3809557023
        3810.000     0.3962549555
        3820.000     0.4118353607
        3830.000     0.4261711314
        3840.000     0.4909534498
        3850.000     0.5824788174
        3860.000     0.6205067340
        3870.000     0.6544607122
        3880.000     0.6644360671
        3890.000     0.6199255965
        3900.000     0.6128570064
        3910.000     0.6171838416
        3920.000     0.6418069590
        3930.000     0.5937672450
        3940.000     0.6379510839
        3950.000     0.6942534071
        3960.000     0.6495925366
        3970.000     0.6617934544
        3980.000     0.6749209140
        3990.000     0.5835888298
        4000.000     0.5424691595
        4010.000     0.4952537191
        4020.000     0.4740467746
        4030.000     0.5577928578
        4040.000     0.6295125886
        4050.000     0.6306614127
        4060.000     0.6757375273
        4070.000     0.6783806012
        4080.000     0.6634279998
        4090.000     0.5981453745
        4100.000     0.6548765751
        4110.000     0.6637375513
        4120.000     0.6560683864
        4130.000     0.6648144421
        4140.000     0.6718194531
        4150.000     0.6777129277
        4160.000     0.6696732314
        4170.000     0.6745799357
        4180.000     0.5602769969
        4190.000     0.5040237581
        4200.000     0.4940029145
        4210.000     0.4630954918
        4220.000     0.5337981098
        4230.000     0.5662459334
        4240.000     0.5065843571
        4250.000     0.5089379505
        4260.000     0.5118202569
        4270.000     0.5538722183
        4280.000     0.5486710627
        4290.000     0.5465574839
        4300.000     0.4662307602
        4310.000     0.3805731215
        4320.000     0.3205510214
        4330.000     0.2846101089
        4340.000     0.2774217957
        4350.000     0.1942010646
        4360.000     0.1857897127
        4370.000     0.2795381036
        4380.000     0.2979417433
        4390.000     0.2907108997
        4400.000     0.2568277642
        4410.000     0.2344711349
        4420.000     0.3147228390
        4430.000     0.4051185490
        4440.000     0.3975205477
        4450.000     0.3315495459
        4460.000     0.2082609885
        4470.000     0.1482869711
        4480.000     0.1555984087
        4490.000     0.2309373892
        4500.000     0.3180983256
        4510.000     0.3319068542
        4520.000     0.2772817191
        4530.000     0.2398380183
        4540.000     0.2662060707
        4550.000     0.3476089384
        4560.000     0.4183099950
        4570.000     0.4132052959
        4580.000     0.4203707580
        4590.000     0.4599961113
        4600.000     0.5253370380
        4610.000     0.5267790294
        4620.000     0.5129855206
        4630.000     0.5604808568
        4640.000     0.5566015166
        4650.000     0.5884204762
        4660.000     0.6060597828
        4670.000     0.6152859838
        4680.000     0.6299764733
        4690.000     0.6528209462
        4700.000     0.7211721062
        4710.000     0.6776004987
        4720.000     0.6686485730
        4730.000     0.6878547191
        4740.000     0.6115125022
        4750.000     0.5980114721
        4760.000     0.5897094345
        4770.000     0.5109477097
        4780.000     0.4804444908
        4790.000     0.4848585933
        4800.000     0.4716979210
        4810.000     0.4549665163
        4820.000     0.3477387073
        4830.000     0.3496468191
        4840.000     0.4124780332
        4850.000     0.3694775337
        4860.000     0.3115120638
        4870.000     0.2378409363
        4880.000     0.2128291453
        4890.000     0.3066872230
        4900.000     0.3484157981
        4910.000     0.3434530354
        4920.000     0.3507342642
        4930.000     0.2877197465
        4940.000     0.2038220256
        4950.000     0.2516376525
        4960.000     0.3659292903
        4970.000     0.4353095099
        4980.000     0.3934251428
        4990.000     0.4008139395
