17

C   -2.27740268553706     -0.79491249622673     -0.63820488604474
  C   -1.41220205615874      0.28523868781247     -0.62358054476872
  C   -1.92397247819819     -1.96081894645745      0.03698220814714
  C   -0.20075129340066      0.20577798607458      0.08509884969236
  C   0.13934564242861     -0.97585425482936      0.75819048992064
  C   -0.72133897522699     -2.06121187418976      0.72941644487759
  H   -1.66840682971488      1.19695693965777     -1.15281897034376
  C   0.67532903407232      1.32218070096677      0.10995574333990
  H   -3.21688142635269     -0.73975898279539     -1.17702050718781
  Cl  -3.01080164999045     -3.32605760925792      0.00554870349240
  H   1.08181793477414     -1.03540601266171      1.28938576858350
  H   -0.46402156881364     -2.98095520747020      1.24283977622851
  N   0.83432330232939      2.50361150735301     -0.05698352099981
  O   1.74995036254690      3.34853694129199     -0.07985029825894
  O   2.58622312898784      0.85258012190963      0.63943386258896
  S   3.54981518015994      1.93085412740931      0.15664592183507
  O   3.98336437809417      1.77907837141300     -1.24392904110229
