!DLPNO-CCSD(T) Extrapolate(3/4,cc) aug-cc-pVQZ/C TightPNO TightSCF 
!CPCM(Toluene)
%geom maxiter 300 end
%maxcore 4000 
%pal nprocs 28
end

*xyz 0 1
C       -2.428861000     -0.707308000     -0.255795000
C       -1.548203000      0.350219000     -0.424960000
C       -1.962206000     -1.949095000      0.172928000
C       -0.178019000      0.148282000     -0.185107000
C        0.293605000     -1.099820000      0.248985000
C       -0.605352000     -2.140428000      0.428306000
H       -1.899816000      1.324836000     -0.747633000
C        0.733970000      1.219750000     -0.371046000
H       -3.486822000     -0.559140000     -0.449659000
H       -2.659811000     -2.769656000      0.311970000
H        1.352335000     -1.231338000      0.444397000
H       -0.245432000     -3.107347000      0.765997000
N        1.094461000      2.181695000     -0.999519000
O        1.960381000      3.086118000     -0.916005000
O        2.062019000      1.367359000      1.162364000
S        3.217422000      2.284336000      0.777564000
O        4.300329000      1.601539000      0.037215000
*