16
Coordinates from ORCA-job mol
  C   -0.11746428503723     -0.06808722937989      0.34914973002510
  C   0.75695412682946      1.00179637220794      0.41408869436563
  C   0.39450037196340     -1.35956934533504      0.40433593020008
  C   2.14137194095208      0.77680751346398      0.53394810647420
  C   2.63171875832193     -0.54171483551798      0.58797209626692
  C   1.75679759551488     -1.61112045219668      0.52270395443792
  H   0.38249181267823      2.01874044524323      0.37317447809738
  C   3.03434213492448      1.86871136432431      0.60015499265443
  H   -1.18654469774784      0.08187527857565      0.25662538415725
  N   -0.53801451592864     -2.50017986781615      0.33523474100258
  H   3.69876808904934     -0.71165825725517      0.68083392433577
  H   2.11214237528112     -2.63395279837882      0.56190314529603
  N   3.78118926828688      2.76259450131897      0.64705195153384
  O   4.54744041542886      3.68394106620365      0.69632705087961
  O   -1.73211072690374     -2.24773381421040      0.23406614580572
  O   -0.05751266361320     -3.62560994124759      0.38368967446753
