16
Coordinates from ORCA-job mol E -604.055807211852
  C      -0.117479     -0.068106      0.349181
  C       0.756865      1.001823      0.414122
  C       0.394515     -1.359580      0.404348
  C       2.141294      0.776879      0.533992
  C       2.631696     -0.541641      0.588018
  C       1.756810     -1.611043      0.522718
  H       0.382413      2.018769      0.373210
  C       3.034242      1.868809      0.600192
  H      -1.186589      0.081684      0.256660
  N      -0.537994     -2.500196      0.335216
  H       3.698755     -0.711502      0.680894
  H       2.112102     -2.633909      0.561894
  N       3.781251      2.762556      0.647046
  O       4.547750      3.683707      0.696180
  O      -1.732108     -2.247793      0.233956
  O      -0.057451     -3.625617      0.383635
16
Coordinates from ORCA-job mol E -604.055807292571
  C      -0.117464     -0.068087      0.349150
  C       0.756954      1.001796      0.414089
  C       0.394500     -1.359569      0.404336
  C       2.141372      0.776808      0.533948
  C       2.631719     -0.541715      0.587972
  C       1.756798     -1.611120      0.522704
  H       0.382492      2.018740      0.373174
  C       3.034342      1.868711      0.600155
  H      -1.186545      0.081875      0.256625
  N      -0.538015     -2.500180      0.335235
  H       3.698768     -0.711658      0.680834
  H       2.112142     -2.633953      0.561903
  N       3.781189      2.762595      0.647052
  O       4.547440      3.683941      0.696327
  O      -1.732111     -2.247734      0.234066
  O      -0.057513     -3.625610      0.383690
