14
Coordinates from ORCA-job mol
  C   -0.08072555179881     -0.04938012262075      0.35269823531564
  C   0.79044819219653      1.02660322820598      0.41757557805421
  C   0.43153788325192     -1.34218119274167      0.40755428628242
  C   2.17426182331766      0.81207084065855      0.53681188610635
  C   2.66808152106192     -0.50271302971619      0.59078902267483
  C   1.79774447993417     -1.57938986559824      0.52602706064537
  H   0.40466227169519      2.03974870313463      0.37616345483176
  C   3.06351194336565      1.91085962851782      0.60219870629220
  H   -1.14912985684873      0.11331184697691      0.26027315658829
  Cl  -0.66813761252220     -2.70167208515773      0.32554916076543
  H   3.73549333960517     -0.67310517681558      0.68330230422510
  H   2.17626826048305     -2.59505709964433      0.56705232073785
  N   3.80427439753017      2.80680926781541      0.64815295944758
  O   4.57183890872832      3.73870505698521      0.69662186803297
