3
Coordinates from ORCA-job SO2_ground/SO2_ground
  S   0.00000000000000      0.00000004747142      0.36699998497577
  O   0.00000000000000      1.22944225666059     -0.36508397575108
  O   0.00000000000000     -1.22944230413201     -0.36508401022469
