3
Coordinates from ORCA-job SO2_ground/SO2_ground E -548.674785000507
  S       0.000000     -0.000000      0.464422
  O       0.000000      1.351922     -0.413795
  O       0.000000     -1.351922     -0.413795
3
Coordinates from ORCA-job SO2_ground/SO2_ground E -548.721606298533
  S       0.000000      0.000000      0.422047
  O       0.000000      1.267472     -0.392608
  O       0.000000     -1.267472     -0.392608
3
Coordinates from ORCA-job SO2_ground/SO2_ground E -548.731343655364
  S       0.000000     -0.000000      0.361561
  O       0.000000      1.193820     -0.362365
  O       0.000000     -1.193820     -0.362365
3
Coordinates from ORCA-job SO2_ground/SO2_ground E -548.734650590161
  S       0.000000      0.000000      0.373516
  O       0.000000      1.232859     -0.368342
  O       0.000000     -1.232859     -0.368342
3
Coordinates from ORCA-job SO2_ground/SO2_ground E -548.734825661833
  S       0.000000     -0.000000      0.368062
  O       0.000000      1.229525     -0.365615
  O       0.000000     -1.229525     -0.365615
3
Coordinates from ORCA-job SO2_ground/SO2_ground E -548.734828559926
  S       0.000000      0.000000      0.367035
  O       0.000000      1.229375     -0.365102
  O       0.000000     -1.229375     -0.365102
3
Coordinates from ORCA-job SO2_ground/SO2_ground E -548.734828426338
  S       0.000000      0.000000      0.367000
  O       0.000000      1.229442     -0.365084
  O       0.000000     -1.229442     -0.365084
