17
Coordinates from ORCA-job mol E -948.136647264723
  C      -2.421722     -0.439318      0.165071
  C      -1.432561      0.498112     -0.095810
  C      -2.074831     -1.764962      0.422109
  C      -0.098856      0.090029     -0.061033
  C       0.261834     -1.240614      0.158065
  C      -0.738623     -2.165172      0.418203
  H      -1.674841      1.532053     -0.318521
  C       1.017617      1.158565     -0.103495
  H      -3.465048     -0.140085      0.153620
  H      -2.854133     -2.497123      0.611708
  H       1.308193     -1.527392      0.131967
  H      -0.479094     -3.202512      0.604766
  N       1.089329      1.089526     -1.358792
  O       2.496014      2.563939     -1.484508
  O       1.540316      1.731962      0.882197
  S       3.250958      2.671653     -0.173985
  O       4.275448      1.641336      0.048439
17
Coordinates from ORCA-job mol E -948.135594441980
  C      -2.434937     -0.439772      0.200901
  C      -1.452135      0.499399     -0.076402
  C      -2.082473     -1.768860      0.434828
  C      -0.117999      0.088749     -0.076728
  C       0.247842     -1.245289      0.116198
  C      -0.746869     -2.171035      0.392792
  H      -1.699006      1.536223     -0.281109
  C       0.997351      1.156637     -0.132321
  H      -3.477845     -0.139428      0.219699
  H      -2.857681     -2.502443      0.635683
  H       1.293064     -1.533084      0.060959
  H      -0.483989     -3.210568      0.561650
  N       1.029147      1.101336     -1.389052
  O       2.642159      2.363389     -1.546771
  O       1.546783      1.716998      0.847487
  S       3.247836      2.710315     -0.201302
  O       4.348753      1.837432      0.233488
17
Coordinates from ORCA-job mol E -948.138667368807
  C      -2.454328     -0.433929      0.238562
  C      -1.474382      0.487861     -0.098280
  C      -2.101964     -1.761558      0.486068
  C      -0.143284      0.055871     -0.133180
  C       0.216981     -1.286630      0.030672
  C      -0.771137     -2.183176      0.398887
  H      -1.715541      1.525793     -0.300478
  C       0.996131      1.101720     -0.174857
  H      -3.492545     -0.122646      0.295223
  H      -2.876760     -2.484608      0.723249
  H       1.251795     -1.593587     -0.082655
  H      -0.513550     -3.221846      0.578937
  N       1.003137      0.967523     -1.413104
  O       2.838685      2.450566     -1.559359
  O       1.531113      1.673611      0.798913
  S       3.265050      2.779318     -0.147995
  O       4.440601      2.045717      0.359398
17
Coordinates from ORCA-job mol E -948.137046995680
  C      -2.440680     -0.439248      0.196946
  C      -1.452658      0.492537     -0.086751
  C      -2.093800     -1.767623      0.444726
  C      -0.119992      0.073305     -0.077664
  C       0.239567     -1.263537      0.112759
  C      -0.759246     -2.177715      0.408870
  H      -1.693484      1.529640     -0.296409
  C       1.004940      1.129908     -0.139171
  H      -3.482126     -0.133662      0.212419
  H      -2.873052     -2.496150      0.648328
  H       1.282604     -1.559117      0.055538
  H      -0.501844     -3.216719      0.588522
  N       1.059522      1.028053     -1.389118
  O       2.658085      2.539314     -1.535967
  O       1.542053      1.707509      0.836599
  S       3.266846      2.736756     -0.161969
  O       4.363267      1.816749      0.182342
17
Coordinates from ORCA-job mol E -948.136324677408
  C      -2.414875     -0.430798      0.162413
  C      -1.422892      0.503022     -0.098598
  C      -2.071527     -1.758317      0.420980
  C      -0.090042      0.089736     -0.046933
  C       0.267795     -1.245395      0.154689
  C      -0.735636     -2.163791      0.422585
  H      -1.661643      1.538705     -0.318194
  C       1.025036      1.149321     -0.101756
  H      -3.457077     -0.127840      0.149179
  H      -2.854039     -2.489044      0.603061
  H       1.313305     -1.536596      0.129889
  H      -0.479628     -3.201718      0.610304
  N       1.130413      1.044553     -1.351290
  O       2.460421      2.614492     -1.464895
  O       1.530263      1.757009      0.875740
  S       3.238010      2.667354     -0.164405
  O       4.222117      1.589307      0.017231
17
Coordinates from ORCA-job mol E -948.136142610060
  C      -2.414485     -0.440380      0.151609
  C      -1.422718      0.502719     -0.078019
  C      -2.069786     -1.769084      0.400102
  C      -0.088372      0.097852     -0.013558
  C       0.271778     -1.233104      0.205419
  C      -0.732411     -2.165660      0.422815
  H      -1.664945      1.537883     -0.296742
  C       1.017237      1.160293     -0.105626
  H      -3.458043     -0.142928      0.120865
  H      -2.851392     -2.505238      0.563345
  H       1.319800     -1.516444      0.209313
  H      -0.473553     -3.204525      0.601889
  N       1.114200      1.117948     -1.364140
  O       2.465579      2.641271     -1.479335
  O       1.546405      1.765424      0.866798
  S       3.252458      2.638942     -0.176975
  O       4.188249      1.515031     -0.027757
17
Coordinates from ORCA-job mol E -948.136560059819
  C      -2.418765     -0.432503      0.156677
  C      -1.423229      0.503254     -0.083701
  C      -2.079454     -1.762821      0.405504
  C      -0.091031      0.087263     -0.028715
  C       0.264081     -1.247478      0.181649
  C      -0.744135     -2.169579      0.418171
  H      -1.659431      1.540566     -0.298186
  C       1.025110      1.142931     -0.097689
  H      -3.460578     -0.128616      0.134768
  H      -2.864475     -2.493850      0.575278
  H       1.309739     -1.538971      0.171655
  H      -0.491294     -3.209720      0.597973
  N       1.072493      1.097011     -1.355354
  O       2.471127      2.547181     -1.493353
  O       1.578737      1.714122      0.877516
  S       3.233260      2.682564     -0.187952
  O       4.277845      1.668646      0.025761
17
Coordinates from ORCA-job mol E -948.136657908469
  C      -2.418466     -0.435060      0.152391
  C      -1.424065      0.502404     -0.088028
  C      -2.077139     -1.763625      0.405762
  C      -0.090926      0.089581     -0.033718
  C       0.265915     -1.243058      0.186949
  C      -0.741050     -2.167080      0.422619
  H      -1.662338      1.538322     -0.306718
  C       1.023739      1.147652     -0.099782
  H      -3.460946     -0.133595      0.127261
  H      -2.860838     -2.495523      0.577999
  H       1.312268     -1.532297      0.183257
  H      -0.486283     -3.205841      0.608003
  N       1.086891      1.113371     -1.358275
  O       2.457003      2.579696     -1.479684
  O       1.580768      1.711166      0.879424
  S       3.234658      2.666884     -0.176914
  O       4.260809      1.627003     -0.000547
17
Coordinates from ORCA-job mol E -948.136674629356
  C      -2.419082     -0.435033      0.156935
  C      -1.425513      0.500244     -0.095782
  C      -2.077128     -1.762359      0.415208
  C      -0.092544      0.086565     -0.048363
  C       0.264693     -1.245687      0.174713
  C      -0.741335     -2.167087      0.424227
  H      -1.664291      1.535386     -0.317727
  C       1.022949      1.145155     -0.107166
  H      -3.461460     -0.132820      0.137608
  H      -2.860180     -2.492724      0.596683
  H       1.310568     -1.536391      0.163537
  H      -0.486283     -3.205031      0.613839
  N       1.091013      1.112204     -1.365283
  O       2.468026      2.590831     -1.473217
  O       1.574049      1.709628      0.875090
  S       3.234615      2.668278     -0.162675
  O       4.261903      1.628841      0.012373
17
Coordinates from ORCA-job mol E -948.136676763079
  C      -2.418733     -0.433463      0.163041
  C      -1.426671      0.501051     -0.097933
  C      -2.075341     -1.760405      0.421732
  C      -0.093825      0.086381     -0.058159
  C       0.264976     -1.245961      0.162663
  C      -0.739737     -2.166274      0.420754
  H      -1.666313      1.535866     -0.320466
  C       1.021259      1.145203     -0.111841
  H      -3.461086     -0.130885      0.150296
  H      -2.857344     -2.490045      0.610464
  H       1.310415     -1.537637      0.141994
  H      -0.484028     -3.204137      0.609786
  N       1.095852      1.100656     -1.368204
  O       2.478196      2.576799     -1.474583
  O       1.562509      1.718855      0.870317
  S       3.229802      2.668810     -0.156656
  O       4.260069      1.635186      0.036796
17
Coordinates from ORCA-job mol E -948.136683165125
  C      -2.419042     -0.433863      0.162636
  C      -1.426756      0.501147     -0.095786
  C      -2.075876     -1.761133      0.419984
  C      -0.093891      0.086648     -0.054904
  C       0.264719     -1.245781      0.165375
  C      -0.740263     -2.166750      0.420430
  H      -1.666311      1.536136     -0.317629
  C       1.021045      1.145378     -0.111727
  H      -3.461420     -0.131367      0.149024
  H      -2.858031     -2.491041      0.607046
  H       1.310268     -1.537137      0.146333
  H      -0.484687     -3.204874      0.608246
  N       1.095917      1.101222     -1.368347
  O       2.479108      2.576666     -1.477027
  O       1.564367      1.719568      0.869404
  S       3.230187      2.669251     -0.158430
  O       4.260667      1.635928      0.035371
17
Coordinates from ORCA-job mol E -948.136684068281
  C      -2.419079     -0.433392      0.163290
  C      -1.426438      0.501152     -0.095292
  C      -2.076506     -1.760952      0.420151
  C      -0.093771      0.085885     -0.054512
  C       0.264226     -1.246946      0.164448
  C      -0.741138     -2.167346      0.420067
  H      -1.665483      1.536359     -0.316653
  C       1.021573      1.144143     -0.111717
  H      -3.461303     -0.130345      0.150151
  H      -2.859009     -2.490522      0.607073
  H       1.309587     -1.538875      0.144522
  H      -0.486131     -3.205725      0.607234
  N       1.096506      1.097825     -1.368114
  O       2.480380      2.574495     -1.478646
  O       1.564843      1.719654      0.868737
  S       3.228825      2.671889     -0.158853
  O       4.262919      1.642701      0.038113
17
Coordinates from ORCA-job mol E -948.136684051968
  C      -2.419086     -0.432983      0.164016
  C      -1.426161      0.501120     -0.094922
  C      -2.077009     -1.760780      0.420464
  C      -0.093650      0.085182     -0.054461
  C       0.263805     -1.247988      0.163429
  C      -0.741860     -2.167868      0.419725
  H      -1.664784      1.536517     -0.315839
  C       1.022007      1.143073     -0.111950
  H      -3.461175     -0.129457      0.151393
  H      -2.859803     -2.490041      0.607370
  H       1.308996     -1.540435      0.142578
  H      -0.487326     -3.206445      0.606417
  N       1.096963      1.094865     -1.368176
  O       2.481839      2.572694     -1.479939
  O       1.564849      1.720008      0.867953
  S       3.227800      2.674233     -0.159052
  O       4.264595      1.648306      0.040993
17
Coordinates from ORCA-job mol E -948.136683673604
  C      -2.419058     -0.432651      0.164494
  C      -1.425886      0.501083     -0.094694
  C      -2.077399     -1.760630      0.420676
  C      -0.093494      0.084614     -0.054422
  C       0.263496     -1.248823      0.162697
  C      -0.742422     -2.168272      0.419516
  H      -1.664153      1.536631     -0.315276
  C       1.022394      1.142227     -0.112016
  H      -3.461038     -0.128744      0.152203
  H      -2.860442     -2.489638      0.607527
  H       1.308553     -1.541685      0.141192
  H      -0.488274     -3.206992      0.605923
  N       1.097308      1.092675     -1.368116
  O       2.482696      2.571523     -1.480835
  O       1.564925      1.720135      0.867496
  S       3.226992      2.676031     -0.159258
  O       4.265801      1.652516      0.042893
17
Coordinates from ORCA-job mol E -948.136683300518
  C      -2.419020     -0.432406      0.164835
  C      -1.425663      0.501053     -0.094527
  C      -2.077672     -1.760520      0.420824
  C      -0.093352      0.084197     -0.054409
  C       0.263283     -1.249430      0.162185
  C      -0.742822     -2.168568      0.419367
  H      -1.663666      1.536712     -0.314867
  C       1.022676      1.141623     -0.112070
  H      -3.460922     -0.128222      0.152776
  H      -2.860901     -2.489339      0.607633
  H       1.308244     -1.542596      0.140219
  H      -0.488955     -3.207388      0.605584
  N       1.097565      1.091138     -1.368089
  O       2.483269      2.570721     -1.481455
  O       1.564957      1.720253      0.867162
  S       3.226407      2.677318     -0.159411
  O       4.266572      1.655454      0.044245
