17
Coordinates from ORCA-job orca
  C   1.44970864121610      0.31186764305393      1.59009822318308
  C   2.18397339134670      0.92162206797629      0.58054721882890
  C   0.72182566824252     -0.84900210366713      1.33493550700131
  C   2.18516362100966      0.35904001627983     -0.69944836516849
  C   1.46370519603859     -0.80570480691993     -0.96335474612349
  C   0.73353374168302     -1.40374388111941      0.05762364385218
  C   3.54735004198859      1.93604720592119     -1.95824579611553
  N   2.90715512941785      0.93988437883466     -1.74896173515219
  O   5.76193487233112      2.24098875067963      0.49509149637533
  O   4.18199055516358      2.86675023240534     -2.29793521228608
  S   5.56758303322515      3.68965931098698      0.31992589331230
  O   4.27849594893118      4.24530785150905      0.76273210524867
  H   2.76214673007203      1.81968569618858      0.77816510211578
  H   1.44948310327351      0.74890010059320      2.58451274125673
  H   0.15041817405787     -1.31932306034730      2.12935918060362
  H   1.48026954761225     -1.22770891927703     -1.96314470793682
  H   0.17076260438998     -2.30937148309794     -0.14899854899533
