17
Coordinates from ORCA-job mol E -1407.724440171094
  C      -0.072471      0.061612     -0.194660
  C       0.686800      1.210784     -0.345443
  C       0.505404     -1.064521      0.384123
  C       2.023575      1.233145      0.082058
  C       2.590365      0.086869      0.664930
  C       1.829343     -1.060842      0.814584
  H       0.249290      2.095745     -0.795135
  C       2.811740      2.398274     -0.064917
  H      -1.105641      0.036643     -0.522949
  Cl     -0.451090     -2.513299      0.573692
  H       3.623171      0.113224      0.995566
  H       2.259017     -1.949819      1.263098
  N       3.521516      3.312580     -0.158962
  O       4.296146      4.243123     -0.231700
  O       5.478959      1.949527      1.466607
  S       6.414981      2.962788      0.933070
  O       7.172794      2.591866     -0.272230
17
Coordinates from ORCA-job mol E -1407.724440216244
  C      -0.072598      0.061648     -0.194515
  C       0.686767      1.210737     -0.345409
  C       0.505234     -1.064539      0.384244
  C       2.023592      1.233005      0.081945
  C       2.590313      0.086672      0.664787
  C       1.829204     -1.060973      0.814560
  H       0.249261      2.095713     -0.795082
  C       2.811915      2.398009     -0.065115
  H      -1.105802      0.036772     -0.522695
  Cl     -0.451497     -2.513113      0.573876
  H       3.623159      0.112940      0.995314
  H       2.258838     -1.949979      1.263057
  N       3.521844      3.312128     -0.159849
  O       4.295916      4.243230     -0.231400
  O       5.479288      1.949331      1.466366
  S       6.415081      2.963129      0.933439
  O       7.173386      2.592990     -0.271794
