-------------------------------------------------------------
----------------------- !PROPERTIES! ------------------------
-------------------------------------------------------------
# -----------------------------------------------------------
$ PAL_Flags
   description: The PAL Flags
   geom. index: 1
   prop. index: 1
        Diskflag:     2
# -----------------------------------------------------------
$ SCF_Energy
   description: The SCF energy
   geom. index: 1
   prop. index: 1
        SCF Energy:     -947.9802914440
# -----------------------------------------------------------
$ DFT_Energy
   description: The DFT energy
   geom. index: 1
   prop. index: 1
   Number of Alpha Electrons                 47.0000011163 
   Number of Beta  Electrons                 47.0000011163 
   Total number of  Electrons                94.0000022326 
   Exchange energy                          -94.7587769229 
   Correlation energy                        -3.2380661805 
   Correlation energy NL                      0.0000000000 
   Exchange-Correlation energy              -97.9968431034 
   Embedding correction                       0.0000000000 
   Total DFT Energy (No VdW correction)    -947.9802914440 
# -----------------------------------------------------------
$ VdW_Correction
   description: The Van der Waals Correction
   geom. index: 1
   prop. index: 1
        Van der Waals Correction:       -0.0067962380
# -----------------------------------------------------------
$ PAL_Flags
   description: The PAL Flags
   geom. index: 2
   prop. index: 1
        Diskflag:     2
# -----------------------------------------------------------
$ SCF_Energy
   description: The SCF energy
   geom. index: 2
   prop. index: 1
        SCF Energy:     -948.0028190160
# -----------------------------------------------------------
$ DFT_Energy
   description: The DFT energy
   geom. index: 2
   prop. index: 1
   Number of Alpha Electrons                 46.9999942866 
   Number of Beta  Electrons                 46.9999942866 
   Total number of  Electrons                93.9999885732 
   Exchange energy                          -94.6634683654 
   Correlation energy                        -3.2312006881 
   Correlation energy NL                      0.0000000000 
   Exchange-Correlation energy              -97.8946690536 
   Embedding correction                       0.0000000000 
   Total DFT Energy (No VdW correction)    -948.0028190160 
# -----------------------------------------------------------
$ VdW_Correction
   description: The Van der Waals Correction
   geom. index: 2
   prop. index: 1
        Van der Waals Correction:       -0.0067618142
# -----------------------------------------------------------
$ PAL_Flags
   description: The PAL Flags
   geom. index: 3
   prop. index: 1
        Diskflag:     2
# -----------------------------------------------------------
$ SCF_Energy
   description: The SCF energy
   geom. index: 3
   prop. index: 1
        SCF Energy:     -948.0050854435
# -----------------------------------------------------------
$ DFT_Energy
   description: The DFT energy
   geom. index: 3
   prop. index: 1
   Number of Alpha Electrons                 46.9999894120 
   Number of Beta  Electrons                 46.9999894120 
   Total number of  Electrons                93.9999788240 
   Exchange energy                          -94.6480473518 
   Correlation energy                        -3.2304094616 
   Correlation energy NL                      0.0000000000 
   Exchange-Correlation energy              -97.8784568133 
   Embedding correction                       0.0000000000 
   Total DFT Energy (No VdW correction)    -948.0050854435 
# -----------------------------------------------------------
$ VdW_Correction
   description: The Van der Waals Correction
   geom. index: 3
   prop. index: 1
        Van der Waals Correction:       -0.0067549226
# -----------------------------------------------------------
$ PAL_Flags
   description: The PAL Flags
   geom. index: 4
   prop. index: 1
        Diskflag:     2
# -----------------------------------------------------------
$ SCF_Energy
   description: The SCF energy
   geom. index: 4
   prop. index: 1
        SCF Energy:     -948.0027196711
# -----------------------------------------------------------
$ DFT_Energy
   description: The DFT energy
   geom. index: 4
   prop. index: 1
   Number of Alpha Electrons                 47.0000114411 
   Number of Beta  Electrons                 47.0000114411 
   Total number of  Electrons                94.0000228822 
   Exchange energy                          -94.6974606251 
   Correlation energy                        -3.2323828211 
   Correlation energy NL                      0.0000000000 
   Exchange-Correlation energy              -97.9298434462 
   Embedding correction                       0.0000000000 
   Total DFT Energy (No VdW correction)    -948.0027196711 
# -----------------------------------------------------------
$ VdW_Correction
   description: The Van der Waals Correction
   geom. index: 4
   prop. index: 1
        Van der Waals Correction:       -0.0067351485
# -----------------------------------------------------------
$ PAL_Flags
   description: The PAL Flags
   geom. index: 5
   prop. index: 1
        Diskflag:     2
# -----------------------------------------------------------
$ SCF_Energy
   description: The SCF energy
   geom. index: 5
   prop. index: 1
        SCF Energy:     -947.9997099895
# -----------------------------------------------------------
$ DFT_Energy
   description: The DFT energy
   geom. index: 5
   prop. index: 1
   Number of Alpha Electrons                 47.0000050167 
   Number of Beta  Electrons                 47.0000050167 
   Total number of  Electrons                94.0000100333 
   Exchange energy                          -94.5172676389 
   Correlation energy                        -3.2224094610 
   Correlation energy NL                      0.0000000000 
   Exchange-Correlation energy              -97.7396770999 
   Embedding correction                       0.0000000000 
   Total DFT Energy (No VdW correction)    -947.9997099895 
# -----------------------------------------------------------
$ VdW_Correction
   description: The Van der Waals Correction
   geom. index: 5
   prop. index: 1
        Van der Waals Correction:       -0.0066822697
# -----------------------------------------------------------
$ PAL_Flags
   description: The PAL Flags
   geom. index: 6
   prop. index: 1
        Diskflag:     2
# -----------------------------------------------------------
$ SCF_Energy
   description: The SCF energy
   geom. index: 6
   prop. index: 1
        SCF Energy:     -948.0049774493
# -----------------------------------------------------------
$ DFT_Energy
   description: The DFT energy
   geom. index: 6
   prop. index: 1
   Number of Alpha Electrons                 46.9999876850 
   Number of Beta  Electrons                 46.9999876850 
   Total number of  Electrons                93.9999753699 
   Exchange energy                          -94.5667670513 
   Correlation energy                        -3.2255755530 
   Correlation energy NL                      0.0000000000 
   Exchange-Correlation energy              -97.7923426042 
   Embedding correction                       0.0000000000 
   Total DFT Energy (No VdW correction)    -948.0049774493 
# -----------------------------------------------------------
$ VdW_Correction
   description: The Van der Waals Correction
   geom. index: 6
   prop. index: 1
        Van der Waals Correction:       -0.0067316780
# -----------------------------------------------------------
$ PAL_Flags
   description: The PAL Flags
   geom. index: 7
   prop. index: 1
        Diskflag:     2
# -----------------------------------------------------------
$ SCF_Energy
   description: The SCF energy
   geom. index: 7
   prop. index: 1
        SCF Energy:     -948.0050411494
# -----------------------------------------------------------
$ DFT_Energy
   description: The DFT energy
   geom. index: 7
   prop. index: 1
   Number of Alpha Electrons                 47.0000094729 
   Number of Beta  Electrons                 47.0000094729 
   Total number of  Electrons                94.0000189458 
   Exchange energy                          -94.7140616216 
   Correlation energy                        -3.2339564452 
   Correlation energy NL                      0.0000000000 
   Exchange-Correlation energy              -97.9480180668 
   Embedding correction                       0.0000000000 
   Total DFT Energy (No VdW correction)    -948.0050411494 
# -----------------------------------------------------------
$ VdW_Correction
   description: The Van der Waals Correction
   geom. index: 7
   prop. index: 1
        Van der Waals Correction:       -0.0067581933
# -----------------------------------------------------------
$ PAL_Flags
   description: The PAL Flags
   geom. index: 8
   prop. index: 1
        Diskflag:     2
# -----------------------------------------------------------
$ SCF_Energy
   description: The SCF energy
   geom. index: 8
   prop. index: 1
        SCF Energy:     -948.0087537737
# -----------------------------------------------------------
$ DFT_Energy
   description: The DFT energy
   geom. index: 8
   prop. index: 1
   Number of Alpha Electrons                 46.9999985457 
   Number of Beta  Electrons                 46.9999985457 
   Total number of  Electrons                93.9999970914 
   Exchange energy                          -94.6133273092 
   Correlation energy                        -3.2274491803 
   Correlation energy NL                      0.0000000000 
   Exchange-Correlation energy              -97.8407764894 
   Embedding correction                       0.0000000000 
   Total DFT Energy (No VdW correction)    -948.0087537737 
# -----------------------------------------------------------
$ VdW_Correction
   description: The Van der Waals Correction
   geom. index: 8
   prop. index: 1
        Van der Waals Correction:       -0.0067326307
# -----------------------------------------------------------
$ PAL_Flags
   description: The PAL Flags
   geom. index: 9
   prop. index: 1
        Diskflag:     2
# -----------------------------------------------------------
$ SCF_Energy
   description: The SCF energy
   geom. index: 9
   prop. index: 1
        SCF Energy:     -948.0085809451
# -----------------------------------------------------------
$ DFT_Energy
   description: The DFT energy
   geom. index: 9
   prop. index: 1
   Number of Alpha Electrons                 46.9999914655 
   Number of Beta  Electrons                 46.9999914655 
   Total number of  Electrons                93.9999829310 
   Exchange energy                          -94.5922996995 
   Correlation energy                        -3.2272920679 
   Correlation energy NL                      0.0000000000 
   Exchange-Correlation energy              -97.8195917674 
   Embedding correction                       0.0000000000 
   Total DFT Energy (No VdW correction)    -948.0085809451 
# -----------------------------------------------------------
$ VdW_Correction
   description: The Van der Waals Correction
   geom. index: 9
   prop. index: 1
        Van der Waals Correction:       -0.0067304514
# -----------------------------------------------------------
$ PAL_Flags
   description: The PAL Flags
   geom. index: 10
   prop. index: 1
        Diskflag:     2
# -----------------------------------------------------------
$ SCF_Energy
   description: The SCF energy
   geom. index: 10
   prop. index: 1
        SCF Energy:     -948.0073802643
# -----------------------------------------------------------
$ DFT_Energy
   description: The DFT energy
   geom. index: 10
   prop. index: 1
   Number of Alpha Electrons                 46.9999841825 
   Number of Beta  Electrons                 46.9999841825 
   Total number of  Electrons                93.9999683650 
   Exchange energy                          -94.5987558748 
   Correlation energy                        -3.2275801875 
   Correlation energy NL                      0.0000000000 
   Exchange-Correlation energy              -97.8263360623 
   Embedding correction                       0.0000000000 
   Total DFT Energy (No VdW correction)    -948.0073802643 
# -----------------------------------------------------------
$ VdW_Correction
   description: The Van der Waals Correction
   geom. index: 10
   prop. index: 1
        Van der Waals Correction:       -0.0067388297
# -----------------------------------------------------------
$ PAL_Flags
   description: The PAL Flags
   geom. index: 11
   prop. index: 1
        Diskflag:     2
# -----------------------------------------------------------
$ SCF_Energy
   description: The SCF energy
   geom. index: 11
   prop. index: 1
        SCF Energy:     -948.0079507381
# -----------------------------------------------------------
$ DFT_Energy
   description: The DFT energy
   geom. index: 11
   prop. index: 1
   Number of Alpha Electrons                 47.0000061562 
   Number of Beta  Electrons                 47.0000061562 
   Total number of  Electrons                94.0000123124 
   Exchange energy                          -94.6714910766 
   Correlation energy                        -3.2311554403 
   Correlation energy NL                      0.0000000000 
   Exchange-Correlation energy              -97.9026465169 
   Embedding correction                       0.0000000000 
   Total DFT Energy (No VdW correction)    -948.0079507381 
# -----------------------------------------------------------
$ VdW_Correction
   description: The Van der Waals Correction
   geom. index: 11
   prop. index: 1
        Van der Waals Correction:       -0.0067674304
# -----------------------------------------------------------
$ PAL_Flags
   description: The PAL Flags
   geom. index: 12
   prop. index: 1
        Diskflag:     2
# -----------------------------------------------------------
$ SCF_Energy
   description: The SCF energy
   geom. index: 12
   prop. index: 1
        SCF Energy:     -948.0107892400
# -----------------------------------------------------------
$ DFT_Energy
   description: The DFT energy
   geom. index: 12
   prop. index: 1
   Number of Alpha Electrons                 46.9999908756 
   Number of Beta  Electrons                 46.9999908756 
   Total number of  Electrons                93.9999817513 
   Exchange energy                          -94.6127319827 
   Correlation energy                        -3.2281959882 
   Correlation energy NL                      0.0000000000 
   Exchange-Correlation energy              -97.8409279708 
   Embedding correction                       0.0000000000 
   Total DFT Energy (No VdW correction)    -948.0107892400 
# -----------------------------------------------------------
$ VdW_Correction
   description: The Van der Waals Correction
   geom. index: 12
   prop. index: 1
        Van der Waals Correction:       -0.0067414347
# -----------------------------------------------------------
$ PAL_Flags
   description: The PAL Flags
   geom. index: 13
   prop. index: 1
        Diskflag:     2
# -----------------------------------------------------------
$ SCF_Energy
   description: The SCF energy
   geom. index: 13
   prop. index: 1
        SCF Energy:     -948.0114665374
# -----------------------------------------------------------
$ DFT_Energy
   description: The DFT energy
   geom. index: 13
   prop. index: 1
   Number of Alpha Electrons                 46.9999933318 
   Number of Beta  Electrons                 46.9999933318 
   Total number of  Electrons                93.9999866636 
   Exchange energy                          -94.6165734370 
   Correlation energy                        -3.2285748324 
   Correlation energy NL                      0.0000000000 
   Exchange-Correlation energy              -97.8451482694 
   Embedding correction                       0.0000000000 
   Total DFT Energy (No VdW correction)    -948.0114665374 
# -----------------------------------------------------------
$ VdW_Correction
   description: The Van der Waals Correction
   geom. index: 13
   prop. index: 1
        Van der Waals Correction:       -0.0067538572
# -----------------------------------------------------------
$ PAL_Flags
   description: The PAL Flags
   geom. index: 14
   prop. index: 1
        Diskflag:     2
# -----------------------------------------------------------
$ SCF_Energy
   description: The SCF energy
   geom. index: 14
   prop. index: 1
        SCF Energy:     -948.0119509107
# -----------------------------------------------------------
$ DFT_Energy
   description: The DFT energy
   geom. index: 14
   prop. index: 1
   Number of Alpha Electrons                 46.9999970773 
   Number of Beta  Electrons                 46.9999970773 
   Total number of  Electrons                93.9999941547 
   Exchange energy                          -94.6252112848 
   Correlation energy                        -3.2289513504 
   Correlation energy NL                      0.0000000000 
   Exchange-Correlation energy              -97.8541626353 
   Embedding correction                       0.0000000000 
   Total DFT Energy (No VdW correction)    -948.0119509107 
# -----------------------------------------------------------
$ VdW_Correction
   description: The Van der Waals Correction
   geom. index: 14
   prop. index: 1
        Van der Waals Correction:       -0.0067594217
# -----------------------------------------------------------
$ PAL_Flags
   description: The PAL Flags
   geom. index: 15
   prop. index: 1
        Diskflag:     2
# -----------------------------------------------------------
$ SCF_Energy
   description: The SCF energy
   geom. index: 15
   prop. index: 1
        SCF Energy:     -948.0129184438
# -----------------------------------------------------------
$ DFT_Energy
   description: The DFT energy
   geom. index: 15
   prop. index: 1
   Number of Alpha Electrons                 47.0000023293 
   Number of Beta  Electrons                 47.0000023293 
   Total number of  Electrons                94.0000046587 
   Exchange energy                          -94.6386797346 
   Correlation energy                        -3.2298734200 
   Correlation energy NL                      0.0000000000 
   Exchange-Correlation energy              -97.8685531547 
   Embedding correction                       0.0000000000 
   Total DFT Energy (No VdW correction)    -948.0129184438 
# -----------------------------------------------------------
$ VdW_Correction
   description: The Van der Waals Correction
   geom. index: 15
   prop. index: 1
        Van der Waals Correction:       -0.0067800181
# -----------------------------------------------------------
$ PAL_Flags
   description: The PAL Flags
   geom. index: 16
   prop. index: 1
        Diskflag:     2
# -----------------------------------------------------------
$ SCF_Energy
   description: The SCF energy
   geom. index: 16
   prop. index: 1
        SCF Energy:     -948.0133792642
# -----------------------------------------------------------
$ DFT_Energy
   description: The DFT energy
   geom. index: 16
   prop. index: 1
   Number of Alpha Electrons                 46.9999870203 
   Number of Beta  Electrons                 46.9999870203 
   Total number of  Electrons                93.9999740406 
   Exchange energy                          -94.6342125843 
   Correlation energy                        -3.2298155420 
   Correlation energy NL                      0.0000000000 
   Exchange-Correlation energy              -97.8640281263 
   Embedding correction                       0.0000000000 
   Total DFT Energy (No VdW correction)    -948.0133792642 
# -----------------------------------------------------------
$ VdW_Correction
   description: The Van der Waals Correction
   geom. index: 16
   prop. index: 1
        Van der Waals Correction:       -0.0067954168
# -----------------------------------------------------------
$ PAL_Flags
   description: The PAL Flags
   geom. index: 17
   prop. index: 1
        Diskflag:     2
# -----------------------------------------------------------
$ SCF_Energy
   description: The SCF energy
   geom. index: 17
   prop. index: 1
        SCF Energy:     -948.0135554646
# -----------------------------------------------------------
$ DFT_Energy
   description: The DFT energy
   geom. index: 17
   prop. index: 1
   Number of Alpha Electrons                 46.9999869546 
   Number of Beta  Electrons                 46.9999869546 
   Total number of  Electrons                93.9999739093 
   Exchange energy                          -94.6301039252 
   Correlation energy                        -3.2295994788 
   Correlation energy NL                      0.0000000000 
   Exchange-Correlation energy              -97.8597034040 
   Embedding correction                       0.0000000000 
   Total DFT Energy (No VdW correction)    -948.0135554646 
# -----------------------------------------------------------
$ VdW_Correction
   description: The Van der Waals Correction
   geom. index: 17
   prop. index: 1
        Van der Waals Correction:       -0.0067964562
# -----------------------------------------------------------
$ PAL_Flags
   description: The PAL Flags
   geom. index: 18
   prop. index: 1
        Diskflag:     2
# -----------------------------------------------------------
$ SCF_Energy
   description: The SCF energy
   geom. index: 18
   prop. index: 1
        SCF Energy:     -948.0136868164
# -----------------------------------------------------------
$ DFT_Energy
   description: The DFT energy
   geom. index: 18
   prop. index: 1
   Number of Alpha Electrons                 46.9999896842 
   Number of Beta  Electrons                 46.9999896842 
   Total number of  Electrons                93.9999793683 
   Exchange energy                          -94.6258177537 
   Correlation energy                        -3.2294132548 
   Correlation energy NL                      0.0000000000 
   Exchange-Correlation energy              -97.8552310085 
   Embedding correction                       0.0000000000 
   Total DFT Energy (No VdW correction)    -948.0136868164 
# -----------------------------------------------------------
$ VdW_Correction
   description: The Van der Waals Correction
   geom. index: 18
   prop. index: 1
        Van der Waals Correction:       -0.0067939430
# -----------------------------------------------------------
$ PAL_Flags
   description: The PAL Flags
   geom. index: 19
   prop. index: 1
        Diskflag:     2
# -----------------------------------------------------------
$ SCF_Energy
   description: The SCF energy
   geom. index: 19
   prop. index: 1
        SCF Energy:     -948.0140654750
# -----------------------------------------------------------
$ DFT_Energy
   description: The DFT energy
   geom. index: 19
   prop. index: 1
   Number of Alpha Electrons                 47.0000013551 
   Number of Beta  Electrons                 47.0000013551 
   Total number of  Electrons                94.0000027101 
   Exchange energy                          -94.6230837219 
   Correlation energy                        -3.2293227858 
   Correlation energy NL                      0.0000000000 
   Exchange-Correlation energy              -97.8524065078 
   Embedding correction                       0.0000000000 
   Total DFT Energy (No VdW correction)    -948.0140654750 
# -----------------------------------------------------------
$ VdW_Correction
   description: The Van der Waals Correction
   geom. index: 19
   prop. index: 1
        Van der Waals Correction:       -0.0067880696
# -----------------------------------------------------------
$ PAL_Flags
   description: The PAL Flags
   geom. index: 20
   prop. index: 1
        Diskflag:     2
# -----------------------------------------------------------
$ SCF_Energy
   description: The SCF energy
   geom. index: 20
   prop. index: 1
        SCF Energy:     -948.0148076604
# -----------------------------------------------------------
$ DFT_Energy
   description: The DFT energy
   geom. index: 20
   prop. index: 1
   Number of Alpha Electrons                 47.0000131107 
   Number of Beta  Electrons                 47.0000131107 
   Total number of  Electrons                94.0000262213 
   Exchange energy                          -94.6183132922 
   Correlation energy                        -3.2292957182 
   Correlation energy NL                      0.0000000000 
   Exchange-Correlation energy              -97.8476090104 
   Embedding correction                       0.0000000000 
   Total DFT Energy (No VdW correction)    -948.0148076604 
# -----------------------------------------------------------
$ VdW_Correction
   description: The Van der Waals Correction
   geom. index: 20
   prop. index: 1
        Van der Waals Correction:       -0.0067835536
# -----------------------------------------------------------
$ PAL_Flags
   description: The PAL Flags
   geom. index: 21
   prop. index: 1
        Diskflag:     2
# -----------------------------------------------------------
$ SCF_Energy
   description: The SCF energy
   geom. index: 21
   prop. index: 1
        SCF Energy:     -948.0157420549
# -----------------------------------------------------------
$ DFT_Energy
   description: The DFT energy
   geom. index: 21
   prop. index: 1
   Number of Alpha Electrons                 47.0000033363 
   Number of Beta  Electrons                 47.0000033363 
   Total number of  Electrons                94.0000066725 
   Exchange energy                          -94.6251906292 
   Correlation energy                        -3.2298655601 
   Correlation energy NL                      0.0000000000 
   Exchange-Correlation energy              -97.8550561892 
   Embedding correction                       0.0000000000 
   Total DFT Energy (No VdW correction)    -948.0157420549 
# -----------------------------------------------------------
$ VdW_Correction
   description: The Van der Waals Correction
   geom. index: 21
   prop. index: 1
        Van der Waals Correction:       -0.0067813848
# -----------------------------------------------------------
$ PAL_Flags
   description: The PAL Flags
   geom. index: 22
   prop. index: 1
        Diskflag:     2
# -----------------------------------------------------------
$ SCF_Energy
   description: The SCF energy
   geom. index: 22
   prop. index: 1
        SCF Energy:     -948.0167875877
# -----------------------------------------------------------
$ DFT_Energy
   description: The DFT energy
   geom. index: 22
   prop. index: 1
   Number of Alpha Electrons                 47.0000017909 
   Number of Beta  Electrons                 47.0000017909 
   Total number of  Electrons                94.0000035818 
   Exchange energy                          -94.6265667492 
   Correlation energy                        -3.2299492338 
   Correlation energy NL                      0.0000000000 
   Exchange-Correlation energy              -97.8565159830 
   Embedding correction                       0.0000000000 
   Total DFT Energy (No VdW correction)    -948.0167875877 
# -----------------------------------------------------------
$ VdW_Correction
   description: The Van der Waals Correction
   geom. index: 22
   prop. index: 1
        Van der Waals Correction:       -0.0067805546
# -----------------------------------------------------------
$ PAL_Flags
   description: The PAL Flags
   geom. index: 23
   prop. index: 1
        Diskflag:     2
# -----------------------------------------------------------
$ SCF_Energy
   description: The SCF energy
   geom. index: 23
   prop. index: 1
        SCF Energy:     -948.0174759480
# -----------------------------------------------------------
$ DFT_Energy
   description: The DFT energy
   geom. index: 23
   prop. index: 1
   Number of Alpha Electrons                 46.9999540429 
   Number of Beta  Electrons                 46.9999540429 
   Total number of  Electrons                93.9999080859 
   Exchange energy                          -94.6367321673 
   Correlation energy                        -3.2308093626 
   Correlation energy NL                      0.0000000000 
   Exchange-Correlation energy              -97.8675415300 
   Embedding correction                       0.0000000000 
   Total DFT Energy (No VdW correction)    -948.0174759480 
# -----------------------------------------------------------
$ VdW_Correction
   description: The Van der Waals Correction
   geom. index: 23
   prop. index: 1
        Van der Waals Correction:       -0.0067830425
# -----------------------------------------------------------
$ PAL_Flags
   description: The PAL Flags
   geom. index: 24
   prop. index: 1
        Diskflag:     2
# -----------------------------------------------------------
$ SCF_Energy
   description: The SCF energy
   geom. index: 24
   prop. index: 1
        SCF Energy:     -948.0177668684
# -----------------------------------------------------------
$ DFT_Energy
   description: The DFT energy
   geom. index: 24
   prop. index: 1
   Number of Alpha Electrons                 46.9999713780 
   Number of Beta  Electrons                 46.9999713780 
   Total number of  Electrons                93.9999427560 
   Exchange energy                          -94.6317734019 
   Correlation energy                        -3.2304851884 
   Correlation energy NL                      0.0000000000 
   Exchange-Correlation energy              -97.8622585903 
   Embedding correction                       0.0000000000 
   Total DFT Energy (No VdW correction)    -948.0177668684 
# -----------------------------------------------------------
$ VdW_Correction
   description: The Van der Waals Correction
   geom. index: 24
   prop. index: 1
        Van der Waals Correction:       -0.0067799140
# -----------------------------------------------------------
$ PAL_Flags
   description: The PAL Flags
   geom. index: 25
   prop. index: 1
        Diskflag:     2
# -----------------------------------------------------------
$ SCF_Energy
   description: The SCF energy
   geom. index: 25
   prop. index: 1
        SCF Energy:     -948.0178736284
# -----------------------------------------------------------
$ DFT_Energy
   description: The DFT energy
   geom. index: 25
   prop. index: 1
   Number of Alpha Electrons                 46.9999777038 
   Number of Beta  Electrons                 46.9999777038 
   Total number of  Electrons                93.9999554076 
   Exchange energy                          -94.6283915540 
   Correlation energy                        -3.2303312892 
   Correlation energy NL                      0.0000000000 
   Exchange-Correlation energy              -97.8587228432 
   Embedding correction                       0.0000000000 
   Total DFT Energy (No VdW correction)    -948.0178736284 
# -----------------------------------------------------------
$ VdW_Correction
   description: The Van der Waals Correction
   geom. index: 25
   prop. index: 1
        Van der Waals Correction:       -0.0067760708
# -----------------------------------------------------------
$ PAL_Flags
   description: The PAL Flags
   geom. index: 26
   prop. index: 1
        Diskflag:     2
# -----------------------------------------------------------
$ SCF_Energy
   description: The SCF energy
   geom. index: 26
   prop. index: 1
        SCF Energy:     -948.0179389495
# -----------------------------------------------------------
$ DFT_Energy
   description: The DFT energy
   geom. index: 26
   prop. index: 1
   Number of Alpha Electrons                 46.9999784422 
   Number of Beta  Electrons                 46.9999784422 
   Total number of  Electrons                93.9999568845 
   Exchange energy                          -94.6262272931 
   Correlation energy                        -3.2302026895 
   Correlation energy NL                      0.0000000000 
   Exchange-Correlation energy              -97.8564299825 
   Embedding correction                       0.0000000000 
   Total DFT Energy (No VdW correction)    -948.0179389495 
# -----------------------------------------------------------
$ VdW_Correction
   description: The Van der Waals Correction
   geom. index: 26
   prop. index: 1
        Van der Waals Correction:       -0.0067759336
# -----------------------------------------------------------
$ PAL_Flags
   description: The PAL Flags
   geom. index: 27
   prop. index: 1
        Diskflag:     2
# -----------------------------------------------------------
$ SCF_Energy
   description: The SCF energy
   geom. index: 27
   prop. index: 1
        SCF Energy:     -948.0179576658
# -----------------------------------------------------------
$ DFT_Energy
   description: The DFT energy
   geom. index: 27
   prop. index: 1
   Number of Alpha Electrons                 46.9999799706 
   Number of Beta  Electrons                 46.9999799706 
   Total number of  Electrons                93.9999599411 
   Exchange energy                          -94.6266593333 
   Correlation energy                        -3.2302486872 
   Correlation energy NL                      0.0000000000 
   Exchange-Correlation energy              -97.8569080205 
   Embedding correction                       0.0000000000 
   Total DFT Energy (No VdW correction)    -948.0179576658 
# -----------------------------------------------------------
$ VdW_Correction
   description: The Van der Waals Correction
   geom. index: 27
   prop. index: 1
        Van der Waals Correction:       -0.0067767318
# -----------------------------------------------------------
$ PAL_Flags
   description: The PAL Flags
   geom. index: 28
   prop. index: 1
        Diskflag:     2
# -----------------------------------------------------------
$ SCF_Energy
   description: The SCF energy
   geom. index: 28
   prop. index: 1
        SCF Energy:     -948.0179647231
# -----------------------------------------------------------
$ DFT_Energy
   description: The DFT energy
   geom. index: 28
   prop. index: 1
   Number of Alpha Electrons                 46.9999803045 
   Number of Beta  Electrons                 46.9999803045 
   Total number of  Electrons                93.9999606089 
   Exchange energy                          -94.6275935696 
   Correlation energy                        -3.2302723389 
   Correlation energy NL                      0.0000000000 
   Exchange-Correlation energy              -97.8578659085 
   Embedding correction                       0.0000000000 
   Total DFT Energy (No VdW correction)    -948.0179647231 
# -----------------------------------------------------------
$ VdW_Correction
   description: The Van der Waals Correction
   geom. index: 28
   prop. index: 1
        Van der Waals Correction:       -0.0067770189
# -----------------------------------------------------------
$ PAL_Flags
   description: The PAL Flags
   geom. index: 29
   prop. index: 1
        Diskflag:     2
# -----------------------------------------------------------
$ SCF_Energy
   description: The SCF energy
   geom. index: 29
   prop. index: 1
        SCF Energy:     -948.0179678506
# -----------------------------------------------------------
$ DFT_Energy
   description: The DFT energy
   geom. index: 29
   prop. index: 1
   Number of Alpha Electrons                 46.9999803586 
   Number of Beta  Electrons                 46.9999803586 
   Total number of  Electrons                93.9999607172 
   Exchange energy                          -94.6278929310 
   Correlation energy                        -3.2302962031 
   Correlation energy NL                      0.0000000000 
   Exchange-Correlation energy              -97.8581891341 
   Embedding correction                       0.0000000000 
   Total DFT Energy (No VdW correction)    -948.0179678506 
# -----------------------------------------------------------
$ VdW_Correction
   description: The Van der Waals Correction
   geom. index: 29
   prop. index: 1
        Van der Waals Correction:       -0.0067772267
# -----------------------------------------------------------
$ PAL_Flags
   description: The PAL Flags
   geom. index: 30
   prop. index: 1
        Diskflag:     2
# -----------------------------------------------------------
$ SCF_Energy
   description: The SCF energy
   geom. index: 30
   prop. index: 1
        SCF Energy:     -948.0179674996
# -----------------------------------------------------------
$ DFT_Energy
   description: The DFT energy
   geom. index: 30
   prop. index: 1
   Number of Alpha Electrons                 46.9999803010 
   Number of Beta  Electrons                 46.9999803010 
   Total number of  Electrons                93.9999606020 
   Exchange energy                          -94.6279229780 
   Correlation energy                        -3.2302952428 
   Correlation energy NL                      0.0000000000 
   Exchange-Correlation energy              -97.8582182209 
   Embedding correction                       0.0000000000 
   Total DFT Energy (No VdW correction)    -948.0179674996 
# -----------------------------------------------------------
$ VdW_Correction
   description: The Van der Waals Correction
   geom. index: 30
   prop. index: 1
        Van der Waals Correction:       -0.0067772526
# -----------------------------------------------------------
$ SCF_Electric_Properties
   description: The SCF Calculated Electric Properties
   geom. index: 30
   prop. index: 1
       Filename                          : inp.scfp 
       Do Dipole Moment Calculation      : true 
       Do Quadrupole Moment Calculation  : false 
       Do Polarizability Calculation     : false 
** Dipole moment part of electric properties **
        Magnitude of dipole moment (Debye) :        2.9464033372
        Electronic Contribution:
                  0    
      0      10.742211
      1       8.151244
      2      -1.058953
        Nuclear Contribution:
                  0    
      0     -11.225978
      1      -8.840419
      2       1.855639
        Total Dipole moment:
                  0    
      0      -0.483767
      1      -0.689175
      2       0.796685
# -------------------------------------------------------------
----------------------- !GEOMETRIES! ------------------------
# -------------------------------------------------------------
------------------------ !GEOMETRY! -------------------------
    Number of atoms:    17 
    Geometry Index:     1 
    Coordinates:
               0 C      0.023000000000    0.176200000000    0.240500000000
               1 C      1.002800000000    1.101000000000   -0.128100000000
               2 C      0.390800000000   -1.108600000000    0.650900000000
               3 C      2.352000000000    0.738900000000   -0.059700000000
               4 C      2.714900000000   -0.560900000000    0.338500000000
               5 C      1.730600000000   -1.479400000000    0.688500000000
               6 H      0.712900000000    2.104000000000   -0.436900000000
               7 C      3.418100000000    1.735000000000   -0.335400000000
               8 H     -1.024700000000    0.454400000000    0.215900000000
               9 H     -0.378900000000   -1.822800000000    0.941000000000
              10 H      3.761600000000   -0.856900000000    0.380900000000
              11 H      2.009900000000   -2.485200000000    1.000900000000
              12 N      3.485400000000    2.604500000000   -1.295500000000
              13 O      4.705900000000    3.295200000000   -1.110300000000
              14 O      4.372800000000    1.698900000000    0.614300000000
              15 S      5.374500000000    2.901900000000    0.307800000000
              16 O      6.722800000000    2.300800000000    0.057400000000
------------------------ !GEOMETRY! -------------------------
    Number of atoms:    17 
    Geometry Index:     2 
    Coordinates:
               0 C      0.012564237266    0.181453834040    0.247497491011
               1 C      1.006510256527    1.088330206859   -0.131301485267
               2 C      0.362450658673   -1.108886358135    0.656558639901
               3 C      2.355686541134    0.705104891736   -0.071443503668
               4 C      2.706016527223   -0.596271498870    0.324430880698
               5 C      1.705959476410   -1.500842013293    0.681400731698
               6 H      0.734818116141    2.100191361624   -0.435649576878
               7 C      3.420066006718    1.695346687020   -0.343643793778
               8 H     -1.036852615124    0.482713552682    0.234217198121
               9 H     -0.418667427812   -1.811747560699    0.957068984841
              10 H      3.754521775550   -0.901864166988    0.359139692438
              11 H      1.974863478407   -2.511938408043    0.992381955380
              12 N      3.474891846601    2.556771085889   -1.302310221517
              13 O      4.674321778780    3.295618118972   -1.138233331669
              14 O      4.397420587172    1.693170337999    0.619159117072
              15 S      5.454719764701    2.991614763349    0.345653330470
              16 O      6.795108991635    2.438235165858    0.075773891146
------------------------ !GEOMETRY! -------------------------
    Number of atoms:    17 
    Geometry Index:     3 
    Coordinates:
               0 C      0.022464113378    0.176739181426    0.222707082037
               1 C      1.005268956830    1.102808203591   -0.089482909646
               2 C      0.365273595024   -1.128425077706    0.604221039751
               3 C      2.342035064199    0.723891436659    0.007530418593
               4 C      2.685059603147   -0.583635674563    0.392082044197
               5 C      1.695238972115   -1.508892014534    0.678245292940
               6 H      0.751740109778    2.126861662493   -0.380245861201
               7 C      3.408760918897    1.702708061294   -0.242453177299
               8 H     -1.017283577762    0.477685162516    0.175100349283
               9 H     -0.405967288071   -1.851056849615    0.847533123099
              10 H      3.729646503871   -0.870992657482    0.452971625441
              11 H      1.966582366429   -2.532976203388    0.963740077633
              12 N      3.453437470639    2.529934391281   -1.257119998859
              13 O      4.608536938414    3.288274955599   -1.244515089412
              14 O      4.407666249402    1.729284681911    0.681399191008
              15 S      5.519237141434    3.021020317870    0.259322973363
              16 O      6.836702862278    2.393770422648   -0.000336180926
------------------------ !GEOMETRY! -------------------------
    Number of atoms:    17 
    Geometry Index:     4 
    Coordinates:
               0 C      0.019608163048    0.178284815899    0.205436053460
               1 C      1.030388476813    1.081998591993   -0.120486250388
               2 C      0.329331427963   -1.121868498608    0.612380068755
               3 C      2.368865792965    0.684392770029   -0.018064642066
               4 C      2.687723850605   -0.621636080150    0.379274190480
               5 C      1.666466093581   -1.523635395135    0.681814793761
               6 H      0.809617133287    2.109425654869   -0.421113640619
               7 C      3.432250778395    1.658730033693   -0.233005426145
               8 H     -1.023268216023    0.503857118350    0.159654112072
               9 H     -0.468092039739   -1.824271631603    0.882144011918
              10 H      3.736187146329   -0.911482489710    0.446498147027
              11 H      1.916876210448   -2.543688587764    0.987443780499
              12 N      3.438495154506    2.488150404269   -1.183369696976
              13 O      4.533258708462    3.317043188007   -1.148367876668
              14 O      4.453334200646    1.716406311871    0.657260730986
              15 S      5.578836490752    3.065469423621    0.253413821132
              16 O      6.864520627961    2.539824370369   -0.070212177230
------------------------ !GEOMETRY! -------------------------
    Number of atoms:    17 
    Geometry Index:     5 
    Coordinates:
               0 C     -0.009101934629    0.174635369756    0.231245579259
               1 C      1.012972190498    1.074130423050   -0.133654572253
               2 C      0.312899716362   -1.119920660310    0.641132377363
               3 C      2.373716655690    0.678362654251   -0.060717602391
               4 C      2.705075198497   -0.623956193976    0.340448845791
               5 C      1.674024674399   -1.523777731167    0.673715255245
               6 H      0.781404004184    2.099987199851   -0.431498877353
               7 C      3.432957783525    1.660282319807   -0.298237233805
               8 H     -1.069015466225    0.503071825782    0.217457656478
               9 H     -0.491162597063   -1.818860725807    0.941921445917
              10 H      3.767910162006   -0.915452006935    0.384137839823
              11 H      1.931352908755   -2.539346500307    0.979108087071
              12 N      3.433321307368    2.463454500081   -1.283090667082
              13 O      4.540011041287    3.317651921192   -1.151334719202
              14 O      4.439556098185    1.741894432909    0.661161297638
              15 S      5.571297554257    3.090944119392    0.320127916391
              16 O      6.967180702905    2.533899052432    0.038777371110
------------------------ !GEOMETRY! -------------------------
    Number of atoms:    17 
    Geometry Index:     6 
    Coordinates:
               0 C      0.003761084878    0.167000148240    0.223382990993
               1 C      0.992157644634    1.098993405192   -0.101546370353
               2 C      0.358889970542   -1.131876843051    0.612689927587
               3 C      2.344613852215    0.730545208151   -0.006822017445
               4 C      2.696541423218   -0.572922567256    0.390626013377
               5 C      1.704565499104   -1.504168383497    0.679919221119
               6 H      0.728985580995    2.118680556196   -0.394547229817
               7 C      3.418179766034    1.714997985695   -0.256947377253
               8 H     -1.047856520255    0.458454376802    0.185429977416
               9 H     -0.415572893212   -1.855663132616    0.868619398920
              10 H      3.752451878474   -0.852224349596    0.447881036410
              11 H      1.982396851975   -2.523077276445    0.966202971718
              12 N      3.462392130232    2.526607110528   -1.316640807126
              13 O      4.615634517134    3.327899450455   -1.211787268094
              14 O      4.399467902229    1.744352731596    0.713278240812
              15 S      5.542982464860    3.011492654434    0.281729101115
              16 O      6.834808846943    2.337908925173   -0.010767809377
------------------------ !GEOMETRY! -------------------------
    Number of atoms:    17 
    Geometry Index:     7 
    Coordinates:
               0 C      0.030912600201    0.179619301176    0.200145002720
               1 C      1.034264439392    1.082975574693   -0.121901014199
               2 C      0.350148543510   -1.118045866308    0.614444418470
               3 C      2.367964885489    0.689021536318   -0.022986282081
               4 C      2.690859174346   -0.617724137162    0.381935022512
               5 C      1.677009774243   -1.515102376005    0.688630707068
               6 H      0.800813700575    2.106585216793   -0.423467389769
               7 C      3.439264064028    1.668861411972   -0.241101711671
               8 H     -1.008247580430    0.494031996977    0.153820368118
               9 H     -0.444644364854   -1.813485580534    0.886322721459
              10 H      3.735490702195   -0.907313610418    0.455649277102
              11 H      1.928533829417   -2.531429877251    1.002328955441
              12 N      3.457519681842    2.508690086844   -1.205947683833
              13 O      4.511856769889    3.363942347127   -1.149313181408
              14 O      4.430781360488    1.716848167352    0.653356214009
              15 S      5.551602467593    3.032056618390    0.271703220065
              16 O      6.820269952077    2.457469190035   -0.072918644003
------------------------ !GEOMETRY! -------------------------
    Number of atoms:    17 
    Geometry Index:     8 
    Coordinates:
               0 C      0.015704920418    0.172867200218    0.208121189256
               1 C      1.021322394232    1.087147858382   -0.104268763402
               2 C      0.345430195086   -1.128765324237    0.601642720681
               3 C      2.368131132030    0.702677248255   -0.001025758334
               4 C      2.701693262946   -0.597938040988    0.402900208676
               5 C      1.687309197057   -1.515472347314    0.686667462177
               6 H      0.781439500142    2.114092350181   -0.396791417219
               7 C      3.418109540269    1.693951487706   -0.264859165846
               8 H     -1.030054041499    0.486395115653    0.156279972065
               9 H     -0.441167977091   -1.845740496589    0.846575575882
              10 H      3.751325597844   -0.887423694111    0.480009072377
              11 H      1.946760771230   -2.536733017674    0.982902627780
              12 N      3.431456627547    2.497408235715   -1.249785838508
              13 O      4.538978037246    3.360581689728   -1.162078596909
              14 O      4.420143525629    1.781312993249    0.703424993962
              15 S      5.578442924580    3.049583554904    0.251367368095
              16 O      6.839374392331    2.363055186921   -0.070381650731
------------------------ !GEOMETRY! -------------------------
    Number of atoms:    17 
    Geometry Index:     9 
    Coordinates:
               0 C      0.003250854782    0.162185207673    0.210508287668
               1 C      0.995770310384    1.097415438243   -0.098595408754
               2 C      0.352528275564   -1.135241575766    0.602322365583
               3 C      2.347100163673    0.731623162840    0.010552021122
               4 C      2.699218945083   -0.568796750546    0.411171248606
               5 C      1.701732852568   -1.503938295815    0.688532410109
               6 H      0.737230375721    2.115750981515   -0.397789183680
               7 C      3.406518461281    1.719538960960   -0.248674847460
               8 H     -1.048690452920    0.453148121718    0.156260320653
               9 H     -0.425981012248   -1.863694952714    0.846300527592
              10 H      3.755562753883   -0.846829839933    0.482164964646
              11 H      1.976936787450   -2.522133738776    0.979044293630
              12 N      3.453533513716    2.519805971029   -1.285884226139
              13 O      4.568495700481    3.357197527514   -1.158015353602
              14 O      4.398653896795    1.756828167002    0.667387373808
              15 S      5.580545332577    3.000819327361    0.267112480746
              16 O      6.871993241211    2.323322287695   -0.061697274528
------------------------ !GEOMETRY! -------------------------
    Number of atoms:    17 
    Geometry Index:     10 
    Coordinates:
               0 C      0.010034570373    0.167890267279    0.206433376002
               1 C      1.014477507261    1.090704507202   -0.115525478798
               2 C      0.347409903536   -1.127156198521    0.609595870706
               3 C      2.367457716219    0.715333159032   -0.015268212303
               4 C      2.712809428717   -0.588746160625    0.382250137100
               5 C      1.701135675780   -1.507981487341    0.678057668149
               6 H      0.764721927599    2.112210274382   -0.411754291326
               7 C      3.423551983473    1.705150109542   -0.241642162709
               8 H     -1.048295412008    0.470866245449    0.169115530858
               9 H     -0.448038911418   -1.839264231614    0.878575479932
              10 H      3.772403976387   -0.866136290675    0.450232521989
              11 H      1.968423763217   -2.522997884070    0.979301339460
              12 N      3.468256332724    2.485285366767   -1.295904043947
              13 O      4.518891203807    3.362346729805   -1.152207641007
              14 O      4.403674160132    1.802566366089    0.738863717726
              15 S      5.586255815030    3.007755819141    0.284902135621
              16 O      6.811230359170    2.329173408157   -0.074325947453
------------------------ !GEOMETRY! -------------------------
    Number of atoms:    17 
    Geometry Index:     11 
    Coordinates:
               0 C      0.028412964388    0.169174501828    0.186446716467
               1 C      1.028675519634    1.091270097293   -0.101821281050
               2 C      0.362242169552   -1.131242008400    0.580396929884
               3 C      2.370613191531    0.716517494324    0.022657340902
               4 C      2.706213973809   -0.584016104900    0.428137216262
               5 C      1.697481327008   -1.506275936596    0.691181816785
               6 H      0.783882365602    2.114815546970   -0.398380848443
               7 C      3.419696901212    1.715839233140   -0.222800344149
               8 H     -1.016496446958    0.470341347862    0.117574531015
               9 H     -0.424052180686   -1.851033905659    0.808171470305
              10 H      3.753093285333   -0.863742837495    0.522886099419
              11 H      1.957500757452   -2.525394446666    0.989981823486
              12 N      3.435035192107    2.513384184576   -1.189506183002
              13 O      4.506890877214    3.387717954925   -1.158243560737
              14 O      4.418568101762    1.805260168822    0.737052051281
              15 S      5.581338264856    3.023816945387    0.208904944923
              16 O      6.765303736185    2.250567764591   -0.151938723347
------------------------ !GEOMETRY! -------------------------
    Number of atoms:    17 
    Geometry Index:     12 
    Coordinates:
               0 C      0.008914930377    0.157464535686    0.195521017732
               1 C      0.998063963321    1.097629073160   -0.092264642749
               2 C      0.359380618567   -1.139935991087    0.586838138968
               3 C      2.349446236264    0.735892695995    0.023340604974
               4 C      2.702309265827   -0.562467666362    0.425779900178
               5 C      1.704785900624   -1.500259301372    0.693480369139
               6 H      0.739177441835    2.117459076662   -0.390408220214
               7 C      3.399339182344    1.732897945280   -0.229843518870
               8 H     -1.039596566856    0.443318834374    0.123884075478
               9 H     -0.416733097308   -1.872739712069    0.815397397628
              10 H      3.756771519967   -0.832326908309    0.511240977333
              11 H      1.980185053420   -2.517336304383    0.988216015939
              12 N      3.450736504099    2.518092123245   -1.253423419424
              13 O      4.544471168268    3.384395250879   -1.135938880251
              14 O      4.388153558375    1.804355631230    0.705228178039
              15 S      5.608183554297    2.988110620881    0.236883129305
              16 O      6.840810766581    2.242450096189   -0.133231123206
------------------------ !GEOMETRY! -------------------------
    Number of atoms:    17 
    Geometry Index:     13 
    Coordinates:
               0 C      0.012934912182    0.160187697410    0.192385801064
               1 C      1.008523945378    1.096894897569   -0.098939333941
               2 C      0.361816457097   -1.137708078455    0.582063454516
               3 C      2.358038253028    0.736588054344    0.027378179498
               4 C      2.709331954185   -0.562207930449    0.430147545800
               5 C      1.710763728196   -1.500497402253    0.688096819507
               6 H      0.751442484752    2.116888832936   -0.394872853109
               7 C      3.409971353468    1.733608652081   -0.220927265287
               8 H     -1.043001697106    0.450482777422    0.131142905003
               9 H     -0.419424938686   -1.869125134448    0.808303163381
              10 H      3.764448975132   -0.831638730937    0.521189923174
              11 H      1.985082680132   -2.518364695341    0.979735808298
              12 N      3.450833260756    2.512435812850   -1.253503328254
              13 O      4.533360834109    3.381876903528   -1.141042821145
              14 O      4.387256162299    1.823634399348    0.735440248209
              15 S      5.602581416744    2.991264201199    0.234709265157
              16 O      6.790440218335    2.212679743196   -0.150607511871
------------------------ !GEOMETRY! -------------------------
    Number of atoms:    17 
    Geometry Index:     14 
    Coordinates:
               0 C      0.013925881535    0.157178159567    0.185550601244
               1 C      1.005628205000    1.099579021195   -0.092771030526
               2 C      0.363965787632   -1.140053846797    0.575137500151
               3 C      2.357183107225    0.742565422052    0.038371532677
               4 C      2.711546278796   -0.555862562845    0.440712132666
               5 C      1.712102375073   -1.496463729538    0.693755324444
               6 H      0.746276433562    2.120339812106   -0.386305057976
               7 C      3.407291864708    1.740315614718   -0.211212973991
               8 H     -1.036711987773    0.439628497308    0.104956104754
               9 H     -0.415752956858   -1.876385187911    0.790456925801
              10 H      3.769092126171   -0.822454877883    0.534093411437
              11 H      1.987355862061   -2.513353541143    0.986363355631
              12 N      3.449443036063    2.514597021267   -1.240019462288
              13 O      4.532687506600    3.387135128417   -1.128883742459
              14 O      4.379751483266    1.840408865428    0.752019158242
              15 S      5.614720309377    2.977407180220    0.221180238200
              16 O      6.775894687563    2.182419023840   -0.192704018008
------------------------ !GEOMETRY! -------------------------
    Number of atoms:    17 
    Geometry Index:     15 
    Coordinates:
               0 C      0.018916002311    0.148324153730    0.164729319360
               1 C      1.003925467313    1.104229324334   -0.087127480268
               2 C      0.377061938707   -1.148419916231    0.548180826738
               3 C      2.356497112235    0.761609216684    0.067292479385
               4 C      2.718205905099   -0.533298842490    0.472392012451
               5 C      1.725837010273   -1.488197325094    0.696650444586
               6 H      0.738218297131    2.122805623247   -0.380395580151
               7 C      3.398687612569    1.767489858130   -0.174069004210
               8 H     -1.037475298447    0.420768216494    0.071347084308
               9 H     -0.400203581972   -1.895865511633    0.739816134469
              10 H      3.771781685058   -0.783431033850    0.594855882346
              11 H      2.005955922206   -2.503158948788    0.988636422550
              12 N      3.446151955422    2.524078500834   -1.206678276006
              13 O      4.532537063430    3.398273204929   -1.102385626185
              14 O      4.361214437906    1.889075704084    0.789163250104
              15 S      5.638442467184    2.942301508261    0.185325940469
              16 O      6.718646003576    2.070416267359   -0.297033829945
------------------------ !GEOMETRY! -------------------------
    Number of atoms:    17 
    Geometry Index:     16 
    Coordinates:
               0 C      0.018242007191    0.141551314689    0.153858900781
               1 C      0.995923217247    1.111470031629   -0.076333015376
               2 C      0.385171937516   -1.152104547295    0.536837292179
               3 C      2.350215578383    0.784244572247    0.096246160919
               4 C      2.722755718886   -0.509070134166    0.499061877505
               5 C      1.737082142827   -1.476406675993    0.705049731278
               6 H      0.723329262986    2.125808821502   -0.373937794067
               7 C      3.390958394424    1.793969139009   -0.146019980071
               8 H     -1.032483732912    0.395390454212    0.029592980121
               9 H     -0.383910887572   -1.912034659417    0.703674006537
              10 H      3.787801226876   -0.753855419746    0.616917738848
              11 H      2.027796166441   -2.491626705847    0.989188384307
              12 N      3.446771973893    2.535074344414   -1.192534809047
              13 O      4.541102534351    3.403356189383   -1.090102027986
              14 O      4.348592989845    1.923613674110    0.815940454009
              15 S      5.654676650436    2.903791097408    0.174561178905
              16 O      6.660374819182    1.973828503860   -0.371301078841
------------------------ !GEOMETRY! -------------------------
    Number of atoms:    17 
    Geometry Index:     17 
    Coordinates:
               0 C      0.017311182231    0.135964626979    0.145455552947
               1 C      0.989790996516    1.113111443230   -0.075120108255
               2 C      0.392741142430   -1.158752153941    0.522824120035
               3 C      2.344528596341    0.793773320071    0.105660781570
               4 C      2.719715767656   -0.496789496570    0.512765447260
               5 C      1.742862927749   -1.473346960968    0.703924644943
               6 H      0.710425211924    2.129001609940   -0.368636117667
               7 C      3.385712098390    1.802807705076   -0.135535371566
               8 H     -1.040647625150    0.387327648743    0.026405882941
               9 H     -0.370754917947   -1.925086193752    0.680465330183
              10 H      3.776409307707   -0.728532047273    0.652930979320
              11 H      2.036994054459   -2.486435592626    0.990539738289
              12 N      3.449384535021    2.542881632934   -1.188833283261
              13 O      4.549729013607    3.405001291133   -1.081147093950
              14 O      4.350532174188    1.928442422082    0.824366579347
              15 S      5.669170983729    2.882898054232    0.166339427922
              16 O      6.650494551150    1.944732690712   -0.411706510059
------------------------ !GEOMETRY! -------------------------
    Number of atoms:    17 
    Geometry Index:     18 
    Coordinates:
               0 C      0.017258499852    0.134748018730    0.141511614642
               1 C      0.990736837348    1.111283028092   -0.079840641865
               2 C      0.390121169676   -1.157988560286    0.525536839553
               3 C      2.343641785520    0.793888260380    0.107110216164
               4 C      2.719386254131   -0.497748153666    0.512396040106
               5 C      1.742497410830   -1.474175179860    0.703336384136
               6 H      0.714077180315    2.124897836080   -0.379857508904
               7 C      3.383440461924    1.804034385615   -0.128138193823
               8 H     -1.041519428274    0.386533345694    0.021758139391
               9 H     -0.376066000224   -1.922322592860    0.690147745841
              10 H      3.776398013722   -0.730133980271    0.652129226222
              11 H      2.036689919226   -2.487035923168    0.991502309250
              12 N      3.444196478518    2.550943744937   -1.178502685920
              13 O      4.545063987276    3.408231036175   -1.079713489530
              14 O      4.359951707712    1.917104409539    0.822782715010
              15 S      5.671942848633    2.884513163442    0.166055088873
              16 O      6.656582873815    1.950227161429   -0.417513799145
------------------------ !GEOMETRY! -------------------------
    Number of atoms:    17 
    Geometry Index:     19 
    Coordinates:
               0 C      0.017115815279    0.131887963723    0.126440779452
               1 C      0.992256310296    1.108093104558   -0.087166052083
               2 C      0.386732891305   -1.157799619849    0.523941311303
               3 C      2.343491300243    0.793753217481    0.117691292152
               4 C      2.715720612281   -0.497250317343    0.527021452880
               5 C      1.737361195802   -1.473338591387    0.712533717900
               6 H      0.719904850073    2.118252835381   -0.399496759905
               7 C      3.381566230802    1.805864615549   -0.111916464082
               8 H     -1.041856453076    0.383267740816   -0.004599473387
               9 H     -0.379675756974   -1.920850848392    0.687608430058
              10 H      3.773013094933   -0.731866901356    0.671706114263
              11 H      2.029790365845   -2.484745536202    1.008714577498
              12 N      3.421935636415    2.577870987143   -1.144773577754
              13 O      4.526720430564    3.420186023352   -1.063671512153
              14 O      4.395311615674    1.874741292442    0.805783243154
              15 S      5.685742569532    2.879732151438    0.163266984385
              16 O      6.669269291007    1.969201882646   -0.462384063680
------------------------ !GEOMETRY! -------------------------
    Number of atoms:    17 
    Geometry Index:     20 
    Coordinates:
               0 C      0.018398967198    0.119603780375    0.084621620188
               1 C      0.993277853406    1.102051084347   -0.108938394017
               2 C      0.383816765405   -1.160181749415    0.515791028917
               3 C      2.339125893298    0.803828560603    0.145557167869
               4 C      2.709832050137   -0.483788241660    0.568828548616
               5 C      1.733887177141   -1.465343065308    0.737225799657
               6 H      0.724382547624    2.103192754397   -0.448725791628
               7 C      3.374637762973    1.820036044866   -0.062214657762
               8 H     -1.036860502208    0.358062059101   -0.087218265908
               9 H     -0.383417991948   -1.924790142057    0.674952453622
              10 H      3.766046032316   -0.711696307903    0.736963708627
              11 H      2.027468145969   -2.471738930235    1.052025608991
              12 N      3.373674175497    2.660759529370   -1.041458658123
              13 O      4.498336472504    3.459041765409   -1.002370952783
              14 O      4.460227533719    1.790823516913    0.780953438306
              15 S      5.722673363932    2.826353798907    0.137917130221
              16 O      6.668893753038    1.970785542289   -0.613209784794
------------------------ !GEOMETRY! -------------------------
    Number of atoms:    17 
    Geometry Index:     21 
    Coordinates:
               0 C      0.031704229704    0.109737506124    0.032470967922
               1 C      1.003834195748    1.096566816295   -0.123835395899
               2 C      0.383973108680   -1.163833895621    0.494300338536
               3 C      2.343164611735    0.805899611924    0.182307604287
               4 C      2.702385013824   -0.477142745527    0.629019934834
               5 C      1.721912717695   -1.458607748805    0.774856457018
               6 H      0.743420249157    2.093768600635   -0.483650916241
               7 C      3.378490483706    1.822160522415   -0.009908080322
               8 H     -1.012199436784    0.339450434149   -0.193785728867
               9 H     -0.384384657521   -1.930141084865    0.630623230199
              10 H      3.752686945669   -0.700867822490    0.835037294118
              11 H      2.005233193690   -2.458751987267    1.116186352241
              12 N      3.319980939467    2.737252158332   -0.920106341611
              13 O      4.462020945531    3.506872701289   -0.904590967427
              14 O      4.532138705251    1.709859003749    0.731478484885
              15 S      5.761439155791    2.786708748094    0.080633108890
              16 O      6.628599598657    1.978069181568   -0.800336342564
------------------------ !GEOMETRY! -------------------------
    Number of atoms:    17 
    Geometry Index:     22 
    Coordinates:
               0 C      0.041949769189    0.098012622540   -0.012567401779
               1 C      1.011734134317    1.090478090570   -0.143971459637
               2 C      0.388305443107   -1.170140122752    0.473207573381
               3 C      2.348014274899    0.809696195904    0.203215812570
               4 C      2.696934310332   -0.464014345977    0.682656129555
               5 C      1.714463880776   -1.448260406074    0.812974057050
               6 H      0.753515370701    2.081743744715   -0.522833343886
               7 C      3.386645591146    1.825811675771    0.022302836800
               8 H     -0.996956094022    0.316935922470   -0.281063458144
               9 H     -0.378195956325   -1.941646219651    0.583915001780
              10 H      3.739011335222   -0.678243264261    0.932260711549
              11 H      1.989864419021   -2.439179867763    1.182895322475
              12 N      3.281649249121    2.819840622432   -0.789996143333
              13 O      4.450691266999    3.560287936413   -0.800639911906
              14 O      4.580533167675    1.636699130793    0.678705157945
              15 S      5.791314318968    2.716309002409    0.029024319119
              16 O      6.574925518872    1.982669282462   -0.979385203541
------------------------ !GEOMETRY! -------------------------
    Number of atoms:    17 
    Geometry Index:     23 
    Coordinates:
               0 C      0.058452481852    0.092070131338   -0.053023615639
               1 C      1.032369015688    1.082019195482   -0.166976079603
               2 C      0.390544470903   -1.172215538213    0.454859783965
               3 C      2.357707902000    0.804895516460    0.220747338422
               4 C      2.686540497132   -0.458221651100    0.738618891750
               5 C      1.701471876045   -1.440630476246    0.852789320623
               6 H      0.783273374009    2.068921399084   -0.564344470496
               7 C      3.403522097668    1.816124036911    0.049832363070
               8 H     -0.964227454594    0.303113846341   -0.369228186667
               9 H     -0.375291688037   -1.946137679645    0.537937450099
              10 H      3.717254957134   -0.667302721310    1.032360002204
              11 H      1.966779706200   -2.426521378751    1.245859188670
              12 N      3.259267344865    2.881989573912   -0.664181884997
              13 O      4.438949484962    3.605511545318   -0.670660856439
              14 O      4.624681684711    1.579589639183    0.630812124016
              15 S      5.805208961781    2.679172741795   -0.047311155342
              16 O      6.487895287680    1.994621819445   -1.157390213635
------------------------ !GEOMETRY! -------------------------
    Number of atoms:    17 
    Geometry Index:     24 
    Coordinates:
               0 C      0.069087270517    0.084352745670   -0.081314328585
               1 C      1.046029073985    1.071928664299   -0.190621511693
               2 C      0.388176877711   -1.172910849449    0.449183071680
               3 C      2.363996290706    0.799598774871    0.224185765291
               4 C      2.682344807969   -0.457008373346    0.766815499712
               5 C      1.692761926203   -1.436375315323    0.877516366481
               6 H      0.803258666427    2.054932236255   -0.603085802374
               7 C      3.412536387359    1.808122321156    0.059904283146
               8 H     -0.951291105643    0.293818612670   -0.416754057572
               9 H     -0.383685256523   -1.945235614499    0.528969365166
              10 H      3.704927354019   -0.662309093564    1.087902647891
              11 H      1.946841871099   -2.414935352334    1.292861601002
              12 N      3.248979249058    2.921152479084   -0.574031538893
              13 O      4.441948262990    3.636415269995   -0.585167987666
              14 O      4.650238568211    1.526912655450    0.574748639801
              15 S      5.817978154462    2.653005178873   -0.078739449890
              16 O      6.440271601451    2.035535660193   -1.261672563498
------------------------ !GEOMETRY! -------------------------
    Number of atoms:    17 
    Geometry Index:     25 
    Coordinates:
               0 C      0.073152338431    0.083144410955   -0.093040364740
               1 C      1.057693073185    1.062427773796   -0.211050381518
               2 C      0.382080956078   -1.169428619888    0.454307191739
               3 C      2.372161486494    0.787234229353    0.215202879396
               4 C      2.679319113839   -0.463616826067    0.777006628070
               5 C      1.682371943616   -1.435176855985    0.894934192427
               6 H      0.826756719384    2.039475892616   -0.640064721808
               7 C      3.421317375144    1.795455491151    0.056532099913
               8 H     -0.945154526163    0.295205469737   -0.435853529848
               9 H     -0.393609112970   -1.936888658339    0.535871214743
              10 H      3.698534144461   -0.671136424698    1.109790578655
              11 H      1.927480041770   -2.409322143020    1.325743840987
              12 N      3.244896308529    2.937008837569   -0.522387444186
              13 O      4.432627599093    3.655686372176   -0.526918612460
              14 O      4.669720882816    1.492706181222    0.534185715997
              15 S      5.822860405900    2.649083120552   -0.090070535277
              16 O      6.422191250393    2.085141748868   -1.313488752090
------------------------ !GEOMETRY! -------------------------
    Number of atoms:    17 
    Geometry Index:     26 
    Coordinates:
               0 C      0.072797694307    0.084996576170   -0.089931126130
               1 C      1.063335101674    1.056246248650   -0.222795572323
               2 C      0.376892486991   -1.164867668526    0.464930071177
               3 C      2.376432546869    0.777326181635    0.200415508511
               4 C      2.681541553808   -0.472273044047    0.766177530600
               5 C      1.680006265683   -1.437295382565    0.895820659053
               6 H      0.836613662521    2.032076576744   -0.657538070033
               7 C      3.423982573674    1.787793648209    0.043789104914
               8 H     -0.945524530707    0.301741215891   -0.426378184947
               9 H     -0.404498473430   -1.926007601871    0.559922130000
              10 H      3.701463037007   -0.683328556298    1.095748959120
              11 H      1.922047158895   -2.410794929352    1.331001680640
              12 N      3.245433234291    2.933129315929   -0.528343728703
              13 O      4.427371271606    3.662271234529   -0.512590430636
              14 O      4.670436802126    1.488164826986    0.530248675496
              15 S      5.821305721473    2.659232161975   -0.075609285501
              16 O      6.424763893211    2.108589195941   -1.304167921239
------------------------ !GEOMETRY! -------------------------
    Number of atoms:    17 
    Geometry Index:     27 
    Coordinates:
               0 C      0.071804185925    0.086339436712   -0.085358426044
               1 C      1.063277869814    1.054056451425   -0.227324926421
               2 C      0.375366014718   -1.162578557455    0.472371594097
               3 C      2.378278030473    0.772450566507    0.189016753180
               4 C      2.683825533470   -0.477615642070    0.753123000362
               5 C      1.680022380573   -1.438877932455    0.892294082988
               6 H      0.836486626152    2.030184832967   -0.662495992101
               7 C      3.424023036323    1.784887012958    0.034616639015
               8 H     -0.948789238077    0.306679564069   -0.412372045074
               9 H     -0.407682557834   -1.919753674466    0.578192083981
              10 H      3.706006525120   -0.691627597377    1.075261127672
              11 H      1.920992481493   -2.411671085245    1.329307708307
              12 N      3.248755017310    2.926362845601   -0.546857834144
              13 O      4.424403729919    3.663066147083   -0.515040921256
              14 O      4.666083797727    1.493849348324    0.539288919883
              15 S      5.818279847097    2.666940666510   -0.060472915912
              16 O      6.433266719798    2.114307616913   -1.282848848532
------------------------ !GEOMETRY! -------------------------
    Number of atoms:    17 
    Geometry Index:     28 
    Coordinates:
               0 C      0.070783355090    0.086831527377   -0.084232189202
               1 C      1.063213368539    1.053337871610   -0.229130611046
               2 C      0.374739150157   -1.161782094234    0.474929278093
               3 C      2.378615271141    0.771704725291    0.186488866005
               4 C      2.684254675538   -0.478621869745    0.749721597533
               5 C      1.680673026851   -1.439477415834    0.890646952553
               6 H      0.836659062795    2.029125694028   -0.664907418684
               7 C      3.423740587317    1.784851531631    0.033143799204
               8 H     -0.949139780133    0.307370653374   -0.410379967981
               9 H     -0.408498850109   -1.917628328831    0.584798862098
              10 H      3.705542745216   -0.692589398394    1.071241714049
              11 H      1.922719687149   -2.412708583172    1.327253690448
              12 N      3.249463428086    2.925130752653   -0.550375539762
              13 O      4.424769887609    3.662909190366   -0.514219693121
              14 O      4.664631505965    1.495693952900    0.541646869534
              15 S      5.818033667389    2.667777546156   -0.057327643081
              16 O      6.434199211400    2.115074244824   -1.278598566640
------------------------ !GEOMETRY! -------------------------
    Number of atoms:    17 
    Geometry Index:     29 
    Coordinates:
               0 C      0.071394665909    0.086164218976   -0.085777394396
               1 C      1.063338611678    1.053087829049   -0.230133779308
               2 C      0.375184749045   -1.161911139127    0.474747915447
               3 C      2.378454183434    0.772091953909    0.186804546956
               4 C      2.684109683818   -0.478270283631    0.749945460314
               5 C      1.680471711321   -1.439112230701    0.891070233574
               6 H      0.836091952539    2.029097091795   -0.665604440144
               7 C      3.423628704103    1.785358211205    0.034458427726
               8 H     -0.948815274672    0.306546285956   -0.412111453437
               9 H     -0.408144306130   -1.917391128752    0.585870200904
              10 H      3.705956892947   -0.692471802825    1.070637135542
              11 H      1.922234478183   -2.411914840058    1.328410245959
              12 N      3.249393707628    2.926287142989   -0.547665383772
              13 O      4.425605770935    3.663036006131   -0.512165049118
              14 O      4.664816099064    1.495080910915    0.541643089740
              15 S      5.818213897002    2.666623692758   -0.058484502687
              16 O      6.432464473196    2.114698081411   -1.280945253301
------------------------ !GEOMETRY! -------------------------
    Number of atoms:    17 
    Geometry Index:     30 
    Coordinates:
               0 C      0.071461107389    0.085974459419   -0.086233559243
               1 C      1.063147656180    1.053163553470   -0.230254795182
               2 C      0.375315852600   -1.161920944556    0.474645477603
               3 C      2.378404528636    0.772313104542    0.187070530848
               4 C      2.684182955277   -0.478056572398    0.750167647777
               5 C      1.680562920637   -1.438975390297    0.891223170218
               6 H      0.835875737771    2.029006303728   -0.665919326673
               7 C      3.423669087514    1.785658600103    0.035108673285
               8 H     -0.948655189775    0.306068882946   -0.413112059551
               9 H     -0.407805828445   -1.917430234499    0.585771139456
              10 H      3.705905921475   -0.692068087579    1.070965574388
              11 H      1.922157922659   -2.411568748757    1.328807346399
              12 N      3.249191713386    2.927028143519   -0.545977897858
              13 O      4.425767053363    3.663149278175   -0.511610090962
              14 O      4.665090163612    1.494541138512    0.541175716137
              15 S      5.818363258900    2.665946753693   -0.059061829821
              16 O      6.431765138822    2.114169759979   -1.282065716821
