 28
 Energy -1158.6511921807  Dipole 2.232871  ZPE 0.198586  G(298.15) 92.43  Edisp -21.97  Gsolv(benzene) -10.43
 C    1.94470462   2.88031963  -2.32487520  
 C    1.32317977   2.17170492  -1.29825413  
 C    1.18457449   3.55949979  -3.28258563  
 C   -0.07985155   2.14158713  -1.22981890  
 C   -0.84501199   2.83744994  -2.17663567  
 C   -0.21042639   3.53605400  -3.20304187  
 H    1.91166222   1.66202464  -0.53063250  
 C   -0.48369379   0.49961158   0.49537531  
 H    3.03642192   2.90480778  -2.37346367  
 H    1.67994620   4.11262532  -4.08429480  
 H   -1.93417561   2.81432668  -2.09647454  
 H   -0.81158281   4.07015586  -3.94322762  
 N   -0.75401090   1.46055521  -0.20468419  
 O    2.52464181   1.33234659   1.92771701  
 N   -0.27099518  -0.36186828   1.35129759  
 S    1.71260298   0.81872882   3.05568905  
 O    2.19727672  -0.38290652   3.77388520  
 C   -0.66380676  -1.71590100   1.38187149  
 C   -0.10749504  -2.54725548   2.36425654  
 C   -1.60251409  -2.23627554   0.47513709  
 C   -0.48585643  -3.88832947   2.43168753  
 C   -1.97284069  -3.57715305   0.55340747  
 C   -1.41735333  -4.40960167   1.53050405  
 H    0.62378077  -2.13368049   3.06202626  
 H   -2.03905898  -1.58230604  -0.28521419  
 H   -0.04540404  -4.53088768   3.19829550  
 H   -2.70357107  -3.97513998  -0.15564810  
 H   -1.71114285  -5.46049268   1.58770091  
