17
Coordinates from ORCA-job orca
  C   -0.10523728470636      0.08130209645209     -0.16209644692357
  C   0.68630572804808      1.20984596820603     -0.32088335967306
  C   0.43016582303956     -1.08306242274836      0.38581453327483
  C   2.03364004980862      1.16840514796137      0.07343095180546
  C   2.57554443166024     -0.00414538999703      0.62668946049174
  C   1.76711823351614     -1.12145004785429      0.77815329786689
  H   0.27774721611813      2.12073110101441     -0.74615741204277
  C   2.85996415480977      2.30796104302911     -0.08007704427098
  H   -1.14680970917126      0.11138106298992     -0.46745449895873
  H   -0.19584093971961     -1.96199090701652      0.50753355435668
  H   3.61739966582297     -0.01899758042712      0.92958730236028
  H   2.18416170820917     -2.02821571973429      1.20578618857572
  N   3.54536928197144      3.23400867620138     -0.21678839502264
  O   4.31107603599182      4.17586534889526     -0.32229637224881
  O   5.53450414008441      2.05535393263508      1.52136006063913
  S   6.40239426008841      3.12043437028518      0.97308790592780
  O   7.23109720442821      2.74907332010768     -0.18828972615801
