14
Coordinates from ORCA-job Product/Product E -400.031807091580
  C       1.806997     -0.419592      0.362265
  C       2.922676      0.352003      0.030274
  C       1.949608     -1.779650      0.662171
  C       4.193171     -0.242406     -0.001790
  C       4.343102     -1.607584      0.298593
  C       3.219814     -2.368147      0.628522
  H       2.828883      1.405482     -0.204694
  C       6.472869      0.673489     -0.531235
  H       0.825828      0.042593      0.386512
  H       1.080461     -2.375178      0.919770
  H       5.329927     -2.057214      0.271485
  H       3.338470     -3.421525      0.859683
  N       5.292558      0.545181     -0.335681
  O       7.629234      0.923148     -0.754876
14
Coordinates from ORCA-job Product/Product E -400.034529909635
  C       1.817652     -0.421791      0.361595
  C       2.925358      0.348445      0.030756
  C       1.963181     -1.773465      0.658737
  C       4.187458     -0.241043     -0.001799
  C       4.342586     -1.595647      0.295476
  C       3.227649     -2.355149      0.624306
  H       2.828482      1.401214     -0.203559
  C       6.452838      0.658122     -0.524892
  H       0.836723      0.037637      0.386465
  H       1.096809     -2.370564      0.916208
  H       5.329955     -2.040566      0.267530
  H       3.349399     -3.406789      0.855225
  N       5.285694      0.548380     -0.335703
  O       7.589816      0.881815     -0.739344
14
Coordinates from ORCA-job Product/Product E -400.034704531730
  C       1.817600     -0.423436      0.361975
  C       2.921970      0.349583      0.031270
  C       1.967185     -1.773090      0.657933
  C       4.183416     -0.235990     -0.002093
  C       4.343302     -1.587926      0.293750
  C       3.231806     -2.350273      0.622584
  H       2.820998      1.402173     -0.202394
  C       6.451583      0.651181     -0.523398
  H       0.835206      0.033270      0.387479
  H       1.102572     -2.373001      0.915472
  H       5.332244     -2.029527      0.264936
  H       3.356834     -3.401816      0.853119
  N       5.281744      0.556594     -0.336989
  O       7.587140      0.852858     -0.732645
14
Coordinates from ORCA-job Product/Product E -400.034843263366
  C       1.815705     -0.425228      0.362648
  C       2.916078      0.352890      0.031436
  C       1.971539     -1.773716      0.657372
  C       4.178659     -0.227233     -0.003406
  C       4.345496     -1.577647      0.291051
  C       3.238018     -2.345059      0.620492
  H       2.808948      1.405122     -0.201197
  C       6.449748      0.640683     -0.520843
  H       0.831281      0.027308      0.389351
  H       1.109708     -2.377671      0.915332
  H       5.336527     -2.014641      0.260934
  H       3.367880     -3.396302      0.850412
  N       5.275344      0.571215     -0.339393
  O       7.588670      0.810879     -0.723188
14
Coordinates from ORCA-job Product/Product E -400.035156202729
  C       1.809996     -0.429723      0.364366
  C       2.898751      0.364415      0.031625
  C       1.984940     -1.775812      0.655670
  C       4.166648     -0.199019     -0.007738
  C       4.354081     -1.546650      0.282906
  C       3.258300     -2.329893      0.614128
  H       2.773365      1.415267     -0.197999
  C       6.439317      0.604763     -0.511474
  H       0.819636      0.009825      0.394599
  H       1.131884     -2.391921      0.914815
  H       5.351011     -1.970173      0.248878
  H       3.402829     -3.379916      0.841812
  N       5.255178      0.618981     -0.347058
  O       7.587664      0.680457     -0.693529
14
Coordinates from ORCA-job Product/Product E -400.035324180026
  C       1.805991     -0.432551      0.365307
  C       2.886147      0.374281      0.032114
  C       1.995710     -1.777519      0.653797
  C       4.159934     -0.175622     -0.010725
  C       4.362235     -1.522376      0.277395
  C       3.275316     -2.318153      0.609273
  H       2.747489      1.423915     -0.195220
  C       6.426479      0.572541     -0.503177
  H       0.811115     -0.003520      0.397782
  H       1.149704     -2.403196      0.913036
  H       5.363226     -1.936444      0.240826
  H       3.431266     -3.366986      0.834657
  N       5.239475      0.659566     -0.353022
  O       7.579513      0.576664     -0.671042
14
Coordinates from ORCA-job Product/Product E -400.035396614466
  C       1.805056     -0.432544      0.365296
  C       2.885125      0.375090      0.031999
  C       1.995614     -1.778180      0.653826
  C       4.161173     -0.173145     -0.011351
  C       4.363101     -1.521144      0.277249
  C       3.276502     -2.317954      0.609071
  H       2.746727      1.424782     -0.195207
  C       6.424876      0.567970     -0.501958
  H       0.809931     -0.004382      0.398045
  H       1.150274     -2.404534      0.913080
  H       5.363830     -1.936046      0.241078
  H       3.433349     -3.366566      0.834113
  N       5.237773      0.666312     -0.353629
  O       7.580269      0.570941     -0.670612
14
Coordinates from ORCA-job Product/Product E -400.035425992162
  C       1.805202     -0.431913      0.364930
  C       2.887062      0.373522      0.032226
  C       1.993288     -1.778372      0.654013
  C       4.163901     -0.175802     -0.010621
  C       4.362178     -1.524838      0.278639
  C       3.274013     -2.319971      0.609929
  H       2.752438      1.423608     -0.195608
  C       6.425800      0.569040     -0.502545
  H       0.810757     -0.002356      0.397074
  H       1.147045     -2.403458      0.912936
  H       5.361730     -1.942805      0.243542
  H       3.429426     -3.368674      0.835023
  N       5.238906      0.664228     -0.352403
  O       7.581854      0.588392     -0.676137
14
Coordinates from ORCA-job Product/Product E -400.035430275349
  C       1.805377     -0.431806      0.364785
  C       2.887480      0.373085      0.032443
  C       1.993037     -1.778331      0.653834
  C       4.164385     -0.176256     -0.010264
  C       4.362039     -1.525160      0.279024
  C       3.273622     -2.320015      0.610014
  H       2.753973      1.423312     -0.195541
  C       6.425729      0.568035     -0.502533
  H       0.810999     -0.002065      0.396703
  H       1.146657     -2.403318      0.912537
  H       5.361351     -1.943804      0.244330
  H       3.428940     -3.368738      0.835118
  N       5.238855      0.664063     -0.351763
  O       7.581155      0.591597     -0.677686
14
Coordinates from ORCA-job Product/Product E -400.035431367498
  C       1.805474     -0.431802      0.364652
  C       2.887615      0.372864      0.032649
  C       1.993007     -1.778294      0.653636
  C       4.164436     -0.176469     -0.009864
  C       4.361961     -1.525150      0.279337
  C       3.273407     -2.319915      0.610042
  H       2.754685      1.423176     -0.195373
  C       6.425882      0.567407     -0.502668
  H       0.811084     -0.002030      0.396395
  H       1.146552     -2.403300      0.912111
  H       5.361187     -1.944045      0.244916
  H       3.428743     -3.368665      0.835132
  N       5.238936      0.663884     -0.351116
  O       7.580632      0.592939     -0.678849
14
Coordinates from ORCA-job Product/Product E -400.035431414415
  C       1.805453     -0.431827      0.364603
  C       2.887542      0.372917      0.032718
  C       1.993070     -1.778312      0.653534
  C       4.164350     -0.176375     -0.009717
  C       4.362009     -1.524995      0.279439
  C       3.273452     -2.319842      0.610032
  H       2.754608      1.423239     -0.195266
  C       6.425883      0.567226     -0.502754
  H       0.811025     -0.002131      0.396297
  H       1.146625     -2.403381      0.911913
  H       5.361258     -1.943835      0.245098
  H       3.428863     -3.368593      0.835099
  N       5.238950      0.664052     -0.350830
  O       7.580511      0.592458     -0.679166
