19
Coordinates from ORCA-job mol
  C   -0.07291585154557      0.03207148550814     -0.17272138655029
  C   0.67347363853675      1.18595373445240     -0.33579683499758
  C   0.52830005319853     -1.07863119370170      0.40735073012923
  C   2.01463995178048      1.21714489345981      0.08356559608393
  C   2.60231915958218      0.08025705130969      0.66816566770431
  C   1.85296900044194     -1.07193079723594      0.82897923585570
  H   0.22927750744720      2.06719094469001     -0.78552313331874
  C   2.78853884154331      2.38924741613448     -0.07415204988729
  H   -1.10863210762726     -0.01935211769647     -0.48647492371033
  N   -0.26975912304611     -2.30955352380572      0.58218239863616
  H   3.63745711626869      0.12241631265637      0.98876491679750
  H   2.27959052919282     -1.96197786109742      1.27601540338564
  N   3.49408729836145      3.30767455325529     -0.16819942405115
  O   4.25357230666575      4.24415457332206     -0.24456617143348
  O   5.46075372681414      1.94511441216771      1.46831506293860
  S   6.42040403808764      2.93851023281271      0.94121073046519
  O   7.16435609079892      2.56350857747627     -0.27025523267713
  O   -1.43391312434620     -2.28452142020827      0.20434680684865
  O   0.28565094784531     -3.27283727349940      1.09337260778108
