19
Coordinates from ORCA-job mol
  C   -0.07125462110488      0.03664629670123     -0.16805241696399
  C   0.69516498605403      1.17772114165416     -0.32718453097051
  C   0.51126044010461     -1.08756146371972      0.40710570543195
  C   2.03698815107472      1.18055725446131      0.09189668177169
  C   2.60557261860833      0.03168527231502      0.67052310540432
  C   1.83673747221206     -1.10800087174738      0.82757038737053
  H   0.26604400251911      2.06849855164207     -0.77260608142768
  C   2.82952240153102      2.34052288557613     -0.06046342470780
  H   -1.10752843975579      0.01213712756255     -0.48307442063717
  N   -0.30665177424436     -2.30112333837736      0.57825610360638
  H   3.64157132070532      0.04906252053680      0.99055151048360
  H   2.25387204827254     -2.00427064495257      1.27083272071008
  N   3.50063267029170      3.28010147757617     -0.17975701411760
  O   4.24283934837680      4.23279296292799     -0.27334571481770
  O   5.50927229779357      2.01766385672580      1.48228274487130
  S   6.42213709638009      3.04266090625904      0.93304016762934
  O   7.17933238897944      2.66457516851257     -0.27215579482080
  O   -1.47415349411212     -2.25735173027162      0.20806904743639
  O   0.22881108631379     -3.28187737338218      1.08109122374765
