 $CONTRL SCFTYP=rhf RUNTYP=hessian d5=.t. dfttyp=pbe0
! mplevl=2
 maxit=100 icut=20 inttyp=hondo itol=30 gencon=.f. wide=1                                
 mult=1 icharg=0 exetyp=run fstint=.t. nzvar=0 $END                            
 $SYSTEM TIMLIM=100000 mwords=360 nojac=1  $END                                  
 $system mxbcst=-1 $end                                                         
 $p2p p2p=.t. dlb=.t. $end                                                      
 $smp                                                                           
  mkl64=21 smppar=1 mklnp=18 np=36 httnp=1 dianp=1                              
  pts=0x101                                                                     
 $end                                                                           
 $mpi mxgsum=0x40000 mnpdot=1d9 $end                                            
 $MOORTH nostf=1 nozero=1 syms=1 symden=1 symvec=1 tole=0 tolz=0 $end           
 $BASIS GBASIS=apvtzs extfil=.t. $END                                          
 $GUESS GUESS=huckel                                                            
 $END                                                                           
! $RIMP2 AUXBAS=cc-pvdz/C VERBOSE=.T. $END
! $MP2 method=1 $END
 $MP2GRD dblbf=0 fused=0 asysnc=1 tol1=1d-12 tol2=1d-12 $END
 $FORCE NVIB=2 VIBSIZ=0.005 $END
 $trans mptran=2 dirtrf=.t. mode=112 cuttrf=1d-20 $end
 $DATA
 C7NH5SO3
C1
CARBON          6.0     -2.489540568        -0.518121403         0.134876111
CARBON          6.0     -1.558773766         0.490228003        -0.128702892
CARBON          6.0     -2.051400107        -1.819216666         0.420736281
CARBON          6.0     -0.193097935         0.175172389        -0.074634077
CARBON          6.0      0.256580349        -1.136543715         0.149558745
CARBON          6.0     -0.682703365        -2.129593422         0.426308702
HYDROGEN        1.0     -1.874585660         1.496962552        -0.374444992
CARBON          6.0      0.913040255         1.327198685        -0.013258334
HYDROGEN        1.0     -3.550254522        -0.293815304         0.112667436
HYDROGEN        1.0     -2.778340010        -2.597999812         0.625404017
HYDROGEN        1.0      1.317642985        -1.355411641         0.120504452
HYDROGEN        1.0     -0.353014606        -3.141006833         0.635478831
NITROGEN        7.0      0.920213386         1.268417258        -1.291952147
OXYGEN          8.0      2.624517368         2.528334164        -1.548820782
OXYGEN          8.0      1.500066359         1.828974020         0.990800620
SULFUR         16.0      3.514976434         2.577849021        -0.160390049
OXYGEN          8.0      4.484673403         1.298572705        -0.024131921
 $END

