# t,fs[$1]    pos,AA[$2] , sigma =  0.0500 Angstroems;  E = 270.914 wvn  UpdTime = 10.000 fs 
           0.000    -0.4842771383
          10.000    -0.4592933308
          20.000    -0.4525558615
          30.000    -0.4750931022
          40.000    -0.4754024368
          50.000    -0.5193199372
          60.000    -0.5470562558
          70.000    -0.5169812743
          80.000    -0.5323489820
          90.000    -0.4601946804
         100.000    -0.4455713297
         110.000    -0.4211654648
         120.000    -0.4427916846
         130.000    -0.4776395462
         140.000    -0.5067184921
         150.000    -0.5588108518
         160.000    -0.5195040635
         170.000    -0.5649988527
         180.000    -0.5327869875
         190.000    -0.5309673629
         200.000    -0.5002938133
         210.000    -0.4782606340
         220.000    -0.4183836407
         230.000    -0.4113294163
         240.000    -0.4048937707
         250.000    -0.4325468388
         260.000    -0.4330321789
         270.000    -0.4265483100
         280.000    -0.3529051689
         290.000    -0.4045909660
         300.000    -0.3894131247
         310.000    -0.3708487672
         320.000    -0.3547742298
         330.000    -0.3608636878
         340.000    -0.3658474242
         350.000    -0.3685989285
         360.000    -0.3414893118
         370.000    -0.3455033908
         380.000    -0.3460029325
         390.000    -0.4461948602
         400.000    -0.4547372649
         410.000    -0.4365183388
         420.000    -0.4899234450
         430.000    -0.4966184569
         440.000    -0.5363303236
         450.000    -0.5924314832
         460.000    -0.6278862318
         470.000    -0.6069043412
         480.000    -0.5820904100
         490.000    -0.5831127880
         500.000    -0.5410614712
         510.000    -0.5825752215
         520.000    -0.6300285435
         530.000    -0.6004046730
         540.000    -0.5667681004
         550.000    -0.5331433180
         560.000    -0.4823104542
         570.000    -0.4431692585
         580.000    -0.3927929775
         590.000    -0.3299798970
         600.000    -0.3300322252
         610.000    -0.4199493596
         620.000    -0.4243212937
         630.000    -0.4078144726
         640.000    -0.4008166716
         650.000    -0.3322800953
         660.000    -0.3412394731
         670.000    -0.3409912920
         680.000    -0.3301325063
         690.000    -0.3355027757
         700.000    -0.3432260525
         710.000    -0.3451240873
         720.000    -0.3329141354
         730.000    -0.3459865817
         740.000    -0.3779661876
         750.000    -0.4537281840
         760.000    -0.5481021882
         770.000    -0.5609225601
         780.000    -0.5437780509
         790.000    -0.5600848219
         800.000    -0.5365495342
         810.000    -0.5146360760
         820.000    -0.5200489128
         830.000    -0.5226693652
         840.000    -0.5013074423
         850.000    -0.4724094951
         860.000    -0.5009742076
         870.000    -0.5981666068
         880.000    -0.6589778774
         890.000    -0.5967829661
         900.000    -0.6630704831
         910.000    -0.5836265497
         920.000    -0.6120892636
         930.000    -0.5461732219
         940.000    -0.4922016729
         950.000    -0.4616506164
         960.000    -0.4168719475
         970.000    -0.4521426157
         980.000    -0.4101473292
         990.000    -0.4818565902
        1000.000    -0.4728214776
        1010.000    -0.3923760975
        1020.000    -0.4542519301
        1030.000    -0.4254009967
        1040.000    -0.4151372252
        1050.000    -0.4078824390
        1060.000    -0.4343682698
        1070.000    -0.4253467647
        1080.000    -0.3844815423
        1090.000    -0.3798307314
        1100.000    -0.4228787812
        1110.000    -0.4072419484
        1120.000    -0.4777831718
        1130.000    -0.6015902060
        1140.000    -0.6063840550
        1150.000    -0.6746430638
        1160.000    -0.6125824855
        1170.000    -0.6097605224
        1180.000    -0.6045651236
        1190.000    -0.5057781202
        1200.000    -0.5583874932
        1210.000    -0.5072185425
        1220.000    -0.6107999426
        1230.000    -0.6208352598
        1240.000    -0.6315710638
        1250.000    -0.6823024610
        1260.000    -0.6402273206
        1270.000    -0.6158980896
        1280.000    -0.6035385941
        1290.000    -0.6180222076
        1300.000    -0.5709171914
        1310.000    -0.5124886925
        1320.000    -0.5460549135
        1330.000    -0.5257916160
        1340.000    -0.5577873440
        1350.000    -0.5076864077
        1360.000    -0.5806313630
        1370.000    -0.5946855078
        1380.000    -0.5598124716
        1390.000    -0.4727238490
        1400.000    -0.4992379020
        1410.000    -0.4923984628
        1420.000    -0.5328403016
        1430.000    -0.4747868555
        1440.000    -0.4974630396
        1450.000    -0.4457679346
        1460.000    -0.4077722046
        1470.000    -0.2927819080
        1480.000    -0.2894454370
        1490.000    -0.3062920877
        1500.000    -0.2722296274
        1510.000    -0.2667671771
        1520.000    -0.2509479844
        1530.000    -0.2803798758
        1540.000    -0.2985687777
        1550.000    -0.2406590536
        1560.000    -0.2822007308
        1570.000    -0.2338165334
        1580.000    -0.2830049779
        1590.000    -0.2799143279
        1600.000    -0.3203546883
        1610.000    -0.3675317064
        1620.000    -0.3333393251
        1630.000    -0.3573291979
        1640.000    -0.3368836461
        1650.000    -0.3316511077
        1660.000    -0.3549330361
        1670.000    -0.3339121303
        1680.000    -0.3633323211
        1690.000    -0.3599971177
        1700.000    -0.4741519880
        1710.000    -0.5381050051
        1720.000    -0.5462489680
        1730.000    -0.5453454823
        1740.000    -0.5438289101
        1750.000    -0.5436399021
        1760.000    -0.5431182196
        1770.000    -0.5513039676
        1780.000    -0.5978549746
        1790.000    -0.6887592939
        1800.000    -0.6591495241
        1810.000    -0.6765176997
        1820.000    -0.6788950625
        1830.000    -0.6998665521
        1840.000    -0.6133443304
        1850.000    -0.6601301224
        1860.000    -0.6744797067
        1870.000    -0.6368771021
        1880.000    -0.6169079897
        1890.000    -0.6065542734
        1900.000    -0.5976633331
        1910.000    -0.6620350171
        1920.000    -0.6819950810
        1930.000    -0.6978030417
        1940.000    -0.6776312068
        1950.000    -0.6926250190
        1960.000    -0.5884719488
        1970.000    -0.4497754707
        1980.000    -0.4882128203
        1990.000    -0.3901027409
        2000.000    -0.5000958342
        2010.000    -0.4757584942
        2020.000    -0.5582700354
        2030.000    -0.4818932932
        2040.000    -0.4991548962
        2050.000    -0.4781854889
        2060.000    -0.4225208985
        2070.000    -0.3773017973
        2080.000    -0.3516830067
        2090.000    -0.3195747891
        2100.000    -0.2535349436
        2110.000    -0.2428806640
        2120.000    -0.2649710266
        2130.000    -0.2504445576
        2140.000    -0.2689139776
        2150.000    -0.1892553255
        2160.000    -0.2388297848
        2170.000    -0.2688588927
        2180.000    -0.2614466816
        2190.000    -0.2818268005
        2200.000    -0.2756946897
        2210.000    -0.2159306680
        2220.000    -0.2043313041
        2230.000    -0.1902463562
        2240.000    -0.2406099759
        2250.000    -0.3232031802
        2260.000    -0.3842212145
        2270.000    -0.4227783452
        2280.000    -0.3960798004
        2290.000    -0.3990160547
        2300.000    -0.4492699253
        2310.000    -0.4835681254
        2320.000    -0.4445288950
        2330.000    -0.3746457574
        2340.000    -0.3022885584
        2350.000    -0.2331384415
        2360.000    -0.1445844734
        2370.000    -0.1455684147
        2380.000    -0.1466704793
        2390.000    -0.0597774677
        2400.000     0.1866510097
        2410.000     0.4169117089
        2420.000     0.4865321586
        2430.000     0.4455517825
        2440.000     0.3717075236
        2450.000     0.4491023260
        2460.000     0.5678759591
        2470.000     0.6010724326
        2480.000     0.5955456165
        2490.000     0.5916783578
        2500.000     0.5689688904
        2510.000     0.5300567133
        2520.000     0.5662481812
        2530.000     0.6167979998
        2540.000     0.5703875865
        2550.000     0.5414682194
        2560.000     0.5216364798
        2570.000     0.4990957048
        2580.000     0.4567258606
        2590.000     0.3684868363
        2600.000     0.3465174456
        2610.000     0.3584909260
        2620.000     0.3713329879
        2630.000     0.4279657904
        2640.000     0.4634812048
        2650.000     0.4730956738
        2660.000     0.4900593191
        2670.000     0.5103453243
        2680.000     0.5387387423
        2690.000     0.5399674093
        2700.000     0.5434515493
        2710.000     0.5573393706
        2720.000     0.5685511155
        2730.000     0.5974909549
        2740.000     0.6119666435
        2750.000     0.6195003226
        2760.000     0.6185654746
        2770.000     0.6049851825
        2780.000     0.6024694759
        2790.000     0.5960776969
        2800.000     0.5614864151
        2810.000     0.5141558660
        2820.000     0.4395196909
        2830.000     0.4279112924
        2840.000     0.4719695265
        2850.000     0.4487416175
        2860.000     0.4069421055
        2870.000     0.4246123539
        2880.000     0.4177728413
        2890.000     0.4556619553
        2900.000     0.4391224828
        2910.000     0.3483782065
        2920.000     0.3346526090
        2930.000     0.4079878084
        2940.000     0.4976773691
        2950.000     0.5252554293
        2960.000     0.5189254332
        2970.000     0.5004701632
        2980.000     0.5037401121
        2990.000     0.5865467025
        3000.000     0.6421270091
        3010.000     0.6302434804
        3020.000     0.6075038282
        3030.000     0.6517370896
        3040.000     0.6186920860
        3050.000     0.6186796904
        3060.000     0.6424377207
        3070.000     0.5737251468
        3080.000     0.5975565026
        3090.000     0.5677438946
        3100.000     0.4914881317
        3110.000     0.4865758432
        3120.000     0.4313398380
        3130.000     0.3872895854
        3140.000     0.3556170784
        3150.000     0.3432884265
        3160.000     0.3762676242
        3170.000     0.3056758883
        3180.000     0.2389386294
        3190.000     0.2979061943
        3200.000     0.3001847977
        3210.000     0.2552133057
        3220.000     0.2896359157
        3230.000     0.3663261505
        3240.000     0.3874091862
        3250.000     0.3932944430
        3260.000     0.3817143435
        3270.000     0.2884596676
        3280.000     0.2767282193
        3290.000     0.3212745504
        3300.000     0.2869649299
        3310.000     0.2769592293
        3320.000     0.2265840088
        3330.000     0.2022929282
        3340.000     0.3102399996
        3350.000     0.3823075008
        3360.000     0.4511956884
        3370.000     0.5444870018
        3380.000     0.5362609735
        3390.000     0.5123295652
        3400.000     0.5571163954
        3410.000     0.6064805695
        3420.000     0.6203331276
        3430.000     0.6554745271
        3440.000     0.6377235591
        3450.000     0.6475486789
        3460.000     0.6196704247
        3470.000     0.6491041441
        3480.000     0.6656468209
        3490.000     0.5973604682
        3500.000     0.5749528428
        3510.000     0.5261097050
        3520.000     0.4718842355
        3530.000     0.4549635837
        3540.000     0.3955261020
        3550.000     0.3378279266
        3560.000     0.3616522154
        3570.000     0.3005770681
        3580.000     0.2582063023
        3590.000     0.2157344584
        3600.000     0.1992896579
        3610.000     0.2624402112
        3620.000     0.2770147866
        3630.000     0.2521117921
        3640.000     0.2925725293
        3650.000     0.3346598171
        3660.000     0.4106323566
        3670.000     0.4559804323
        3680.000     0.4212336173
        3690.000     0.4658481466
        3700.000     0.5150347460
        3710.000     0.5468829593
        3720.000     0.5300528217
        3730.000     0.5460101120
        3740.000     0.5621583027
        3750.000     0.6412290441
        3760.000     0.6778333777
        3770.000     0.6099197139
        3780.000     0.5816101968
        3790.000     0.5723515263
        3800.000     0.5866758005
        3810.000     0.4998757680
        3820.000     0.4243091795
        3830.000     0.3752570535
        3840.000     0.3702485701
        3850.000     0.4440768655
        3860.000     0.4727877877
        3870.000     0.4261956167
        3880.000     0.4039233838
        3890.000     0.3559260595
        3900.000     0.3269636987
        3910.000     0.3742352347
        3920.000     0.3945085923
        3930.000     0.3714335143
        3940.000     0.3292962888
        3950.000     0.2479431183
        3960.000     0.2606740111
        3970.000     0.3786747919
        3980.000     0.3714638980
        3990.000     0.3112813064
        4000.000     0.2693434963
        4010.000     0.2765249691
        4020.000     0.3719534973
        4030.000     0.4894119412
        4040.000     0.4709562018
        4050.000     0.4858362708
        4060.000     0.5195640480
        4070.000     0.4815659242
        4080.000     0.5398729912
        4090.000     0.5776933030
        4100.000     0.4779892160
        4110.000     0.4789796768
        4120.000     0.5290310878
        4130.000     0.5321726267
        4140.000     0.6871279686
        4150.000     0.6584083650
        4160.000     0.6203840793
        4170.000     0.6855030074
        4180.000     0.6265733376
        4190.000     0.6631903677
        4200.000     0.6395258249
        4210.000     0.6445130660
        4220.000     0.5635423636
        4230.000     0.5452820997
        4240.000     0.6023820230
        4250.000     0.5260509475
        4260.000     0.5571332028
        4270.000     0.5339273449
        4280.000     0.4393440268
        4290.000     0.4374615848
        4300.000     0.4811274009
        4310.000     0.4474225028
        4320.000     0.4194678358
        4330.000     0.3533932767
        4340.000     0.3020313768
        4350.000     0.3499294248
        4360.000     0.3830532379
        4370.000     0.3889179315
        4380.000     0.3425024245
        4390.000     0.1493291914
        4400.000     0.1572889551
        4410.000     0.2909039541
        4420.000     0.2881773214
        4430.000     0.2262467370
        4440.000     0.1878991900
        4450.000     0.2222601961
        4460.000     0.2697159701
        4470.000     0.1791843053
        4480.000     0.0930001694
        4490.000     0.1546959391
        4500.000     0.2067140415
        4510.000     0.1765166465
        4520.000     0.1108866927
        4530.000     0.1129582206
        4540.000     0.1804526371
        4550.000     0.2419307941
        4560.000     0.2659430022
        4570.000     0.2566634846
        4580.000     0.1354445403
        4590.000     0.0900293814
        4600.000     0.1297343959
        4610.000     0.2392159176
        4620.000     0.3193912499
        4630.000     0.2961658357
        4640.000     0.2370367367
        4650.000     0.1864076245
        4660.000     0.1886040040
        4670.000     0.3035922704
        4680.000     0.4410977354
        4690.000     0.4280507289
        4700.000     0.4706111059
        4710.000     0.4741332659
        4720.000     0.4626716014
        4730.000     0.5828897738
        4740.000     0.5737856242
        4750.000     0.6363152522
        4760.000     0.7040553273
        4770.000     0.6167355938
        4780.000     0.6887189010
        4790.000     0.6638793722
        4800.000     0.6627275310
        4810.000     0.6609877717
        4820.000     0.6325127866
        4830.000     0.6429523692
        4840.000     0.5462529755
        4850.000     0.5991213184
        4860.000     0.5345214912
        4870.000     0.4470443336
        4880.000     0.4595594497
        4890.000     0.4365878491
        4900.000     0.5044832020
        4910.000     0.5361617486
        4920.000     0.5115206521
        4930.000     0.4814375104
        4940.000     0.4578854947
        4950.000     0.4736278239
        4960.000     0.4135722124
        4970.000     0.3953305306
        4980.000     0.3979616402
        4990.000     0.4345287971
