3
Coordinates from ORCA-job mol
  S   0.00000000000000     -0.00000000001079      0.38926572406614
  O   0.00000000000000      1.25595190045788     -0.37621686203862
  O   0.00000000000000     -1.25595190044709     -0.37621686202753
