17
Coordinates from ORCA-job Intermediate_scan/Intermediate_scan
  C   0.84629004254115      0.61864605840802      0.25179975157272
  C   2.05718059102926      0.70984565039574     -0.61037220674749
  C   0.64271657133389     -0.50356531072267      0.95429266344196
  C   3.09707227468867     -0.34719352637337     -0.62546584712853
  C   2.70912561300897     -1.53035664652885      0.05671473015192
  C   1.59761598986432     -1.57849755789814      0.85661555266978
  H   1.73449901411852      0.76498906840099     -1.66516322706452
  C   2.89912572179528      1.96034653702944     -0.39369039025211
  H   0.13433198506079      1.43694305016529      0.24930005001067
  H   -0.23251027021578     -0.63133600828398      1.57927713846433
  H   3.36442041058422     -2.39571468215642      0.03531198725092
  H   1.41332279820080     -2.46291430536134      1.46124638073060
  N   3.07582039464832      2.88039030049848     -1.25064768116037
  O   3.93185923013642      3.84899905091514     -0.65279789813298
  O   3.51153138168623      2.09170684452975      0.80965029748171
  S   4.68115860771697      3.28778883443847      0.69224328347274
  O   5.91084164380165      2.64692164254341      0.32238641523861
