14
Coordinates from ORCA-job orca E -399.562210430843
  C      -0.082735     -0.070642      0.352380
  C       0.782473      1.021935      0.417554
  C       0.421197     -1.376237      0.406103
  C       2.173885      0.813079      0.538038
  C       2.676680     -0.505698      0.592333
  C       1.800258     -1.588890      0.526010
  H       0.397050      2.034356      0.376356
  C       3.065623      1.920910      0.603643
  H      -1.150542      0.096505      0.259821
  H      -0.255928     -2.222203      0.354837
  H       3.745041     -0.664438      0.685138
  H       2.193632     -2.598933      0.567751
  N       3.814846      2.824037      0.649439
  O       4.614819      3.784519      0.696598
14
Coordinates from ORCA-job orca E -399.564587555529
  C      -0.072775     -0.065354      0.353231
  C       0.788017      1.022593      0.417681
  C       0.429237     -1.365928      0.406881
  C       2.173259      0.810680      0.537322
  C       2.676871     -0.501746      0.591822
  C       1.802918     -1.578922      0.526090
  H       0.403276      2.036422      0.376446
  C       3.060586      1.913883      0.602956
  H      -1.141329      0.102594      0.260668
  H      -0.248907     -2.212255      0.356014
  H       3.746313     -0.660502      0.684718
  H       2.196143     -2.589959      0.568234
  N       3.801616      2.808924      0.648620
  O       4.581074      3.747867      0.695317
14
Coordinates from ORCA-job orca E -399.564762384700
  C      -0.070010     -0.064375      0.353485
  C       0.789929      1.022540      0.417799
  C       0.430833     -1.363640      0.407110
  C       2.173818      0.809876      0.537357
  C       2.676964     -0.501381      0.591731
  C       1.802869     -1.576786      0.526071
  H       0.405750      2.036683      0.376472
  C       3.060398      1.912729      0.602796
  H      -1.138851      0.104068      0.260798
  H      -0.247840     -2.209870      0.356310
  H       3.746452     -0.660534      0.684495
  H       2.195654     -2.588388      0.568231
  N       3.800469      2.808534      0.648402
  O       4.569864      3.738845      0.694944
14
Coordinates from ORCA-job orca E -399.564766432721
  C      -0.070274     -0.064619      0.353478
  C       0.790020      1.022408      0.417729
  C       0.430299     -1.364181      0.407118
  C       2.174236      0.809781      0.537245
  C       2.676997     -0.501908      0.591664
  C       1.802501     -1.577385      0.526063
  H       0.406044      2.036586      0.376411
  C       3.061016      1.912999      0.602713
  H      -1.139063      0.104061      0.260841
  H      -0.248487     -2.210278      0.356393
  H       3.746415     -0.661267      0.684407
  H       2.195131     -2.589026      0.568260
  N       3.801065      2.809615      0.648400
  O       4.570399      3.741514      0.695279
14
Coordinates from ORCA-job orca E -399.564766920877
  C      -0.070163     -0.064575      0.353502
  C       0.790337      1.022347      0.417687
  C       0.430107     -1.364277      0.407166
  C       2.174619      0.809573      0.537186
  C       2.677071     -0.502278      0.591606
  C       1.802306     -1.577605      0.526067
  H       0.406609      2.036609      0.376352
  C       3.061424      1.912895      0.602614
  H      -1.138912      0.104388      0.260892
  H      -0.248824     -2.210243      0.356497
  H       3.746454     -0.661835      0.684308
  H       2.194790     -2.589304      0.568282
  N       3.801059      2.809978      0.648329
  O       4.569424      3.742627      0.695513
