17
Coordinates from ORCA-job mol E -947.593821010780
  C       0.023000      0.176200      0.240500
  C       1.002800      1.101000     -0.128100
  C       0.390800     -1.108600      0.650900
  C       2.352000      0.738900     -0.059700
  C       2.714900     -0.560900      0.338500
  C       1.730600     -1.479400      0.688500
  H       0.712900      2.104000     -0.436900
  C       3.418100      1.735000     -0.335400
  H      -1.024700      0.454400      0.215900
  H      -0.378900     -1.822800      0.941000
  H       3.761600     -0.856900      0.380900
  H       2.009900     -2.485200      1.000900
  N       3.485400      2.604500     -1.295500
  O       4.705900      3.295200     -1.110300
  O       4.372800      1.698900      0.614300
  S       5.374500      2.901900      0.307800
  O       6.722800      2.300800      0.057400
17
Coordinates from ORCA-job mol E -947.653002999004
  C       0.001656      0.164667      0.231123
  C       0.987682      1.089097     -0.123862
  C       0.363517     -1.122724      0.641332
  C       2.338505      0.726193     -0.044913
  C       2.698920     -0.572576      0.352988
  C       1.708772     -1.493514      0.691336
  H       0.705869      2.091224     -0.433226
  C       3.397958      1.716892     -0.312722
  H      -1.044913      0.446135      0.195276
  H      -0.407600     -1.836147      0.920500
  H       3.743840     -0.863072      0.402807
  H       1.985878     -2.497164      1.002100
  N       3.447906      2.582419     -1.279690
  O       4.690799      3.325988     -1.135175
  O       4.410218      1.709803      0.631023
  S       5.484000      2.975503      0.324692
  O       6.861394      2.354277      0.007112
17
Coordinates from ORCA-job mol E -947.678477996698
  C      -0.006972      0.156684      0.202413
  C       0.988366      1.083567     -0.116742
  C       0.342869     -1.134296      0.615196
  C       2.339388      0.719251     -0.008128
  C       2.691618     -0.579817      0.394927
  C       1.691082     -1.503591      0.702218
  H       0.721018      2.086355     -0.430455
  C       3.388940      1.705314     -0.262967
  H      -1.051332      0.440973      0.136076
  H      -0.433505     -1.849259      0.867777
  H       3.735142     -0.862078      0.469414
  H       1.961375     -2.506493      1.014471
  N       3.400112      2.570141     -1.231398
  O       4.625546      3.381199     -1.141900
  O       4.440706      1.700842      0.664136
  S       5.580093      3.015820      0.318276
  O       6.959954      2.372388     -0.122614
17
Coordinates from ORCA-job mol E -947.687136903821
  C      -0.006671      0.145477      0.157156
  C       0.994505      1.080468     -0.112923
  C       0.333059     -1.146040      0.577759
  C       2.344251      0.722200      0.042605
  C       2.687275     -0.575495      0.459366
  C       1.679731     -1.505872      0.722433
  H       0.739696      2.083197     -0.435687
  C       3.389733      1.712004     -0.199960
  H      -1.048462      0.425491      0.045693
  H      -0.447652     -1.867883      0.793177
  H       3.729830     -0.846408      0.574208
  H       1.943628     -2.508017      1.041830
  N       3.357124      2.590462     -1.153567
  O       4.544074      3.454420     -1.105011
  O       4.472084      1.684638      0.695652
  S       5.668546      3.011896      0.286730
  O       6.993647      2.336461     -0.318761
17
Coordinates from ORCA-job mol E -947.690673914913
  C      -0.001342      0.129718      0.105769
  C       0.996040      1.079257     -0.121052
  C       0.338717     -1.157091      0.541416
  C       2.343812      0.738254      0.087003
  C       2.686550     -0.552905      0.522882
  C       1.682405     -1.496386      0.746016
  H       0.744936      2.078977     -0.455633
  C       3.386519      1.736336     -0.137844
  H      -1.041015      0.395513     -0.051025
  H      -0.439197     -1.890890      0.723494
  H       3.728175     -0.805080      0.681807
  H       1.947303     -2.493868      1.079104
  N       3.323347      2.644128     -1.060838
  O       4.480842      3.524813     -1.027455
  O       4.490967      1.665419      0.720105
  S       5.746892      2.963168      0.245317
  O       6.959450      2.237636     -0.528366
17
Coordinates from ORCA-job mol E -947.692468034936
  C       0.008215      0.113321      0.050963
  C       1.000404      1.076783     -0.134819
  C       0.347009     -1.167298      0.506311
  C       2.343545      0.755095      0.130547
  C       2.683667     -0.528447      0.590400
  C       1.684015     -1.485068      0.774697
  H       0.752057      2.071798     -0.485026
  C       3.387250      1.759443     -0.078000
  H      -1.027121      0.362975     -0.154397
  H      -0.427138     -1.912939      0.654300
  H       3.721090     -0.763117      0.795686
  H       1.948144     -2.476995      1.124933
  N       3.293935      2.714634     -0.950171
  O       4.430583      3.593551     -0.923278
  O       4.519939      1.635053      0.725462
  S       5.816099      2.898262      0.187700
  O       6.892707      2.149950     -0.744610
17
Coordinates from ORCA-job mol E -947.693324427086
  C       0.022288      0.102114     -0.001998
  C       1.017417      1.064648     -0.171574
  C       0.348160     -1.168811      0.489379
  C       2.351531      0.753256      0.147267
  C       2.678753     -0.520601      0.642180
  C       1.675372     -1.476811      0.810517
  H       0.778415      2.053616     -0.544872
  C       3.397770      1.759430     -0.041152
  H      -1.006268      0.344942     -0.246115
  H      -0.428988     -1.913903      0.624304
  H       3.708742     -0.747017      0.889232
  H       1.929184     -2.460389      1.190774
  N       3.267174      2.786257     -0.823968
  O       4.387990      3.660894     -0.780092
  O       4.566663      1.572311      0.688959
  S       5.862768      2.842384      0.139998
  O       6.817428      2.144678     -0.942139
17
Coordinates from ORCA-job mol E -947.693710701254
  C       0.038215      0.090140     -0.054969
  C       1.034211      1.054322     -0.202136
  C       0.350216     -1.170946      0.470771
  C       2.357092      0.755145      0.171652
  C       2.670816     -0.509083      0.698767
  C       1.665143     -1.466536      0.847798
  H       0.805177      2.034819     -0.602904
  C       3.402824      1.763802      0.005472
  H      -0.980745      0.322555     -0.344906
  H      -0.428429     -1.917587      0.587205
  H       3.691934     -0.727791      0.985894
  H       1.908196     -2.442020      1.255081
  N       3.241414      2.856242     -0.678372
  O       4.368590      3.707821     -0.643459
  O       4.616850      1.506635      0.631836
  S       5.900649      2.784708      0.076192
  O       6.732249      2.154776     -1.133221
17
Coordinates from ORCA-job mol E -947.693887716648
  C       0.051138      0.080179     -0.094373
  C       1.046366      1.046751     -0.225513
  C       0.353163     -1.173151      0.456255
  C       2.359159      0.759719      0.192842
  C       2.662474     -0.495986      0.744626
  C       1.657563     -1.456923      0.875493
  H       0.824677      2.019046     -0.649759
  C       3.405168      1.768314      0.042908
  H      -0.959119      0.302246     -0.420576
  H      -0.424786     -1.922739      0.556856
  H       3.676107     -0.707958      1.061372
  H       1.893555     -2.426084      1.301488
  N       3.224683      2.909655     -0.551171
  O       4.369975      3.733181     -0.542664
  O       4.652801      1.457496      0.575568
  S       5.923152      2.737723      0.020660
  O       6.658324      2.165531     -1.273310
17
Coordinates from ORCA-job mol E -947.693982200757
  C       0.049159      0.078651     -0.095668
  C       1.047535      1.040373     -0.238688
  C       0.348163     -1.171156      0.464678
  C       2.360456      0.753394      0.180627
  C       2.660585     -0.499083      0.741173
  C       1.653084     -1.456055      0.881426
  H       0.827178      2.009694     -0.670310
  C       3.407176      1.761526      0.032995
  H      -0.961490      0.301729     -0.420127
  H      -0.432364     -1.916774      0.574626
  H       3.673777     -0.711745      1.058678
  H       1.887209     -2.422254      1.315087
  N       3.219688      2.918617     -0.526509
  O       4.372405      3.736939     -0.523650
  O       4.663679      1.437904      0.543146
  S       5.923375      2.735418      0.027624
  O       6.674784      2.199824     -1.274410
17
Coordinates from ORCA-job mol E -947.693988488590
  C       0.051216      0.076023     -0.105273
  C       1.052880      1.033545     -0.252322
  C       0.343389     -1.169285      0.468609
  C       2.363084      0.747587      0.176801
  C       2.656936     -0.501560      0.748214
  C       1.645746     -1.454211      0.893015
  H       0.837172      1.998712     -0.695371
  C       3.410471      1.755922      0.034074
  H      -0.957079      0.298963     -0.437127
  H      -0.440195     -1.911086      0.582648
  H       3.667707     -0.714297      1.073243
  H       1.875214     -2.416894      1.336933
  N       3.214555      2.930418     -0.483345
  O       4.371225      3.743849     -0.486839
  O       4.680156      1.412493      0.502931
  S       5.927607      2.726269      0.020443
  O       6.674314      2.240552     -1.305934
17
Coordinates from ORCA-job mol E -947.693995548973
  C       0.052420      0.075772     -0.107415
  C       1.053749      1.034110     -0.251172
  C       0.344011     -1.169726      0.466270
  C       2.362942      0.748783      0.181047
  C       2.656232     -0.500359      0.752837
  C       1.645403     -1.453896      0.894203
  H       0.838981      1.999027     -0.695209
  C       3.410281      1.757119      0.038204
  H      -0.954908      0.298013     -0.442609
  H      -0.439197     -1.912360      0.577273
  H       3.666542     -0.712729      1.079742
  H       1.874561     -2.416895      1.337619
  N       3.214325      2.931872     -0.478296
  O       4.370454      3.744468     -0.484204
  O       4.680875      1.411311      0.502618
  S       5.928680      2.722860      0.015774
  O       6.669050      2.239632     -1.315981
17
Coordinates from ORCA-job mol E -947.694003914757
  C       0.054867      0.075314     -0.111098
  C       1.054664      1.036408     -0.247028
  C       0.346726     -1.171148      0.460100
  C       2.362261      0.752518      0.190108
  C       2.655766     -0.497120      0.760749
  C       1.646506     -1.453303      0.894460
  H       0.840696      2.001839     -0.690339
  C       3.409076      1.761316      0.047060
  H      -0.950982      0.296120     -0.451560
  H      -0.434950     -1.916367      0.564128
  H       3.665245     -0.708139      1.091268
  H       1.875878     -2.417208      1.335799
  N       3.215087      2.934225     -0.473734
  O       4.369699      3.745002     -0.484497
  O       4.678937      1.414789      0.511854
  S       5.930552      2.715125      0.007218
  O       6.654373      2.227630     -1.333788
17
Coordinates from ORCA-job mol E -947.694007788344
  C       0.054905      0.075179     -0.111193
  C       1.054387      1.036693     -0.246773
  C       0.347268     -1.171368      0.459534
  C       2.362087      0.753106      0.190340
  C       2.656030     -0.496577      0.760617
  C       1.647140     -1.453187      0.893863
  H       0.840047      2.002316     -0.689511
  C       3.408615      1.762189      0.047739
  H      -0.951049      0.295799     -0.451472
  H      -0.434078     -1.916997      0.563172
  H       3.665494     -0.707290      1.091310
  H       1.876807     -2.417113      1.334992
  N       3.215554      2.934772     -0.473962
  O       4.370356      3.744829     -0.485959
  O       4.678151      1.416764      0.514971
  S       5.930792      2.713493      0.007484
  O       6.651891      2.224394     -1.334453
17
Coordinates from ORCA-job mol E -947.694016790483
  C       0.054026      0.075191     -0.109504
  C       1.052836      1.037349     -0.246050
  C       0.348079     -1.171643      0.459755
  C       2.361486      0.754040      0.188768
  C       2.656999     -0.495952      0.757470
  C       1.648849     -1.453185      0.891529
  H       0.837024      2.003467     -0.687046
  C       3.407370      1.763476      0.046647
  H      -0.952772      0.295712     -0.447353
  H      -0.432658     -1.917807      0.564234
  H       3.666929     -0.706325      1.086747
  H       1.879627     -2.417245      1.331754
  N       3.216909      2.934503     -0.479147
  O       4.372051      3.743479     -0.493224
  O       4.675895      1.422112      0.522398
  S       5.930625      2.711525      0.012036
  O       6.651124      2.218304     -1.328315
17
Coordinates from ORCA-job mol E -947.694018125164
  C       0.053677      0.075292     -0.108952
  C       1.052690      1.037062     -0.246516
  C       0.347642     -1.171452      0.460611
  C       2.361558      0.753518      0.187577
  C       2.657003     -0.496438      0.756436
  C       1.648610     -1.453293      0.891544
  H       0.836803      2.003110     -0.687613
  C       3.407504      1.762765      0.045279
  H      -0.953311      0.296028     -0.446112
  H      -0.433338     -1.917225      0.566074
  H       3.667066     -0.706984      1.085196
  H       1.879345     -2.417252      1.332014
  N       3.217028      2.934015     -0.479966
  O       4.371702      3.743388     -0.493637
  O       4.676318      1.421468      0.521076
  S       5.930565      2.712028      0.013650
  O       6.653537      2.220967     -1.325962
17
Coordinates from ORCA-job mol E -947.694018325172
  C       0.053471      0.075389     -0.108728
  C       1.052831      1.036600     -0.247192
  C       0.346957     -1.171179      0.461536
  C       2.361738      0.752768      0.186618
  C       2.656765     -0.497089      0.755988
  C       1.647946     -1.453388      0.892116
  H       0.837164      2.002447     -0.688820
  C       3.407823      1.761713      0.044035
  H      -0.953535      0.296333     -0.445710
  H      -0.434422     -1.916402      0.567900
  H       3.666884     -0.707868      1.084480
  H       1.878398     -2.417198      1.333073
  N       3.217077      2.933592     -0.479589
  O       4.370590      3.743610     -0.492799
  O       4.677438      1.419534      0.517898
  S       5.930804      2.712320      0.014739
  O       6.656471      2.225820     -1.324845
