17
Coordinates from ORCA-job Intermediate_scan/Intermediate_scan
  C   0.07620345879308      0.09413167230004     -0.07259183884394
  C   1.05371163247039      1.06576719735601     -0.21373541266587
  C   0.40183870309421     -1.15438166741797      0.45051707397116
  C   2.36561213834349      0.78339475623670      0.17000209859003
  C   2.69356618972219     -0.46372028717688      0.69685150616628
  C   1.70751843421314     -1.43132642675288      0.83520350056954
  H   0.80879310799777      2.04137459466186     -0.61450069640157
  C   3.40834511785850      1.80373261118715      0.00907334716870
  H   -0.94333107857147      0.31051054813048     -0.36834170144704
  H   -0.36604264126382     -1.91136538735322      0.55987576281387
  H   3.71352781783226     -0.67516082508150      0.99092099987061
  H   1.96209401388976     -2.40239354442231      1.24247505622224
  N   3.29585743012222      2.86851375047855     -0.68440482321293
  O   4.50320295529749      3.59813595840344     -0.54003136593535
  O   4.59700838256797      1.60926220629328      0.64679591216456
  S   5.72712522298531      2.66676629624981      0.02876388714275
  O   6.36937111464752      1.99375754690746     -1.06617230617304
