! wB97X-D3BJ def2-TZVP OptTS freq SlowConv tightSCF
!CPCM(Toluene)
%pal nprocs 28 end
%scf maxiter 200 end
%geom
Calc_Hess true
maxiter 200 # calculation of the exact Hessian
# before the first optimization step
end
*xyz 0 1
C       -2.451817983     -0.806591495     -0.442958329
C       -1.613633463      0.302308302     -0.554956315
C       -1.976182049     -1.999507789      0.117654030
C       -0.278636779      0.211184938     -0.101381994
C        0.200765722     -0.987407441      0.462253797
C       -0.653800695     -2.084412339      0.568933715
H       -1.978648556      1.227306060     -0.986921082
C        0.601009020      1.330785769     -0.208963314
H       -3.476790653     -0.741168383     -0.791393538
H       -2.633880960     -2.858078585      0.202085928
H        1.226204016     -1.026432947      0.804457465
H       -0.285005588     -3.006363650      1.004287625
N        0.941353034      2.425951579     -0.544482972
O        1.829290101      3.348666036     -0.527292615
O        2.419318689      0.922582621      0.924951428
S        3.563478237      2.084379183      0.631522482
O        4.566977906      1.656798141     -0.557796313
*
