17
Coordinates from ORCA-job orca E -948.706557373691
  C       1.313454      0.119052      1.713104
  C       2.156653      0.756292      0.801138
  C       0.484346     -0.932687      1.302966
  C       2.161501      0.328123     -0.537421
  C       1.337386     -0.725296     -0.958503
  C       0.500658     -1.352395     -0.032417
  C       3.790904      1.748376     -1.851788
  N       2.989396      0.952560     -1.468477
  O       6.868578      3.896521      0.174491
  O       4.597663      2.522891     -2.321809
  S       5.323967      4.189202     -0.166904
  O       4.301658      3.273255      0.682161
  H       2.807099      1.569998      1.101485
  H       1.305911      0.446666      2.747294
  H      -0.167911     -1.421687      2.018626
  H       1.361564     -1.037781     -1.995758
  H      -0.137326     -2.168191     -0.355285
17
Coordinates from ORCA-job orca E -948.754706070787
  C       1.332236      0.128315      1.700394
  C       2.170356      0.757359      0.788483
  C       0.501663     -0.914717      1.296923
  C       2.167658      0.328929     -0.540430
  C       1.343266     -0.714387     -0.955902
  C       0.511120     -1.333541     -0.030677
  C       3.790509      1.732826     -1.849403
  N       2.995393      0.947042     -1.476252
  O       6.741630      3.867052      0.186460
  O       4.577385      2.497582     -2.304278
  S       5.293851      4.136074     -0.123405
  O       4.334357      3.279993      0.669376
  H       2.824602      1.568947      1.085931
  H       1.329905      0.457274      2.733594
  H      -0.149660     -1.399636      2.015151
  H       1.362589     -1.027986     -1.992802
  H      -0.131359     -2.146227     -0.350261
17
Coordinates from ORCA-job orca E -948.764646467245
  C       1.347982      0.139084      1.689912
  C       2.183731      0.758107      0.772102
  C       0.511999     -0.899528      1.296411
  C       2.172224      0.323987     -0.550681
  C       1.343058     -0.714363     -0.956663
  C       0.513277     -1.323875     -0.026233
  C       3.795473      1.726274     -1.857934
  N       2.998507      0.935893     -1.494751
  O       6.630538      3.863048      0.190430
  O       4.572541      2.493763     -2.292494
  S       5.273499      4.083115     -0.057284
  O       4.374583      3.284636      0.664442
  H       2.843895      1.567195      1.065049
  H       1.352291      0.472901      2.721784
  H      -0.138479     -1.377675      2.020214
  H       1.355507     -1.032864     -1.992311
  H      -0.135126     -2.134799     -0.339089
17
Coordinates from ORCA-job orca E -948.767113571309
  C       1.335684      0.125800      1.695589
  C       2.169017      0.753113      0.780202
  C       0.504550     -0.915595      1.298087
  C       2.159631      0.326521     -0.546812
  C       1.334224     -0.715493     -0.955065
  C       0.507877     -1.333970     -0.026759
  C       3.760446      1.735260     -1.892577
  N       2.974294      0.944031     -1.500608
  O       6.709735      3.918745      0.186071
  O       4.620644      2.439487     -2.291430
  S       5.310232      4.125988     -0.066838
  O       4.379809      3.321189      0.680179
  H       2.824271      1.560557      1.079495
  H       1.339131      0.454598      2.729005
  H      -0.143170     -1.400226      2.019953
  H       1.345941     -1.028801     -1.992261
  H      -0.136816     -2.146305     -0.343329
17
Coordinates from ORCA-job orca E -948.767279462399
  C       1.338548      0.115309      1.697421
  C       2.177440      0.739572      0.784637
  C       0.494203     -0.913779      1.294336
  C       2.164990      0.317773     -0.543674
  C       1.325787     -0.711102     -0.958230
  C       0.490657     -1.323675     -0.033646
  C       3.831865      1.672165     -1.857450
  N       3.010767      0.908995     -1.485368
  O       6.709703      3.960056      0.137712
  O       4.572909      2.478317     -2.298226
  S       5.297186      4.151725     -0.062061
  O       4.388799      3.325942      0.694944
  H       2.833417      1.546847      1.087301
  H       1.343898      0.440608      2.731919
  H      -0.159471     -1.394136      2.013706
  H       1.338299     -1.023004     -1.995825
  H      -0.163496     -2.126716     -0.354591
17
Coordinates from ORCA-job orca E -948.766955200600
  C       1.356788      0.106033      1.692003
  C       2.183339      0.733462      0.770170
  C       0.502937     -0.918481      1.295603
  C       2.149101      0.318063     -0.557412
  C       1.300795     -0.704692     -0.968012
  C       0.477055     -1.320208     -0.035426
  C       3.825219      1.674079     -1.826123
  N       2.996019      0.908249     -1.492649
  O       6.671788      4.003700      0.152406
  O       4.648124      2.391353     -2.257991
  S       5.291057      4.168420     -0.063001
  O       4.397984      3.365279      0.683401
  H       2.843513      1.544911      1.068755
  H       1.377840      0.426559      2.727799
  H      -0.141246     -1.400954      2.022189
  H       1.299436     -1.011435     -2.007210
  H      -0.184251     -2.119438     -0.351600
17
Coordinates from ORCA-job orca E -948.768412445224
  C       1.334106      0.115372      1.691914
  C       2.170387      0.737642      0.775421
  C       0.494714     -0.920000      1.294743
  C       2.156204      0.310792     -0.550718
  C       1.321177     -0.723014     -0.960323
  C       0.491018     -1.335896     -0.031622
  C       3.789518      1.709523     -1.843944
  N       2.984262      0.919544     -1.494967
  O       6.725249      3.960600      0.149938
  O       4.599495      2.440708     -2.287289
  S       5.328114      4.174053     -0.058672
  O       4.417788      3.364782      0.695709
  H       2.827999      1.545981      1.075824
  H       1.341193      0.443805      2.725435
  H      -0.154685     -1.400995      2.017540
  H       1.329930     -1.035636     -1.997747
  H      -0.160968     -2.142361     -0.348341
17
Coordinates from ORCA-job orca E -948.768509614236
  C       1.333639      0.105695      1.693751
  C       2.169294      0.728991      0.777348
  C       0.488585     -0.923996      1.294440
  C       2.151802      0.307631     -0.550841
  C       1.311375     -0.721445     -0.961481
  C       0.480448     -1.334310     -0.033379
  C       3.809548      1.682333     -1.843504
  N       2.988179      0.904546     -1.497298
  O       6.739479      4.001469      0.135084
  O       4.601806      2.432376     -2.289515
  S       5.335203      4.203150     -0.053044
  O       4.434491      3.386917      0.707803
  H       2.826380      1.535102      1.079857
  H       1.343283      0.431110      2.728207
  H      -0.161624     -1.404807      2.016626
  H       1.318539     -1.032495     -1.999399
  H      -0.174926     -2.137367     -0.351753
17
Coordinates from ORCA-job orca E -948.768604921178
  C       1.322971      0.111569      1.689938
  C       2.163349      0.729369      0.774147
  C       0.483894     -0.924042      1.293555
  C       2.153415      0.300668     -0.551711
  C       1.319445     -0.735128     -0.958822
  C       0.486141     -1.344958     -0.030842
  C       3.784242      1.699651     -1.851296
  N       2.977254      0.905402     -1.504936
  O       6.764105      3.984424      0.129316
  O       4.574444      2.452308     -2.295851
  S       5.361715      4.213533     -0.036935
  O       4.459114      3.400285      0.723437
  H       2.821290      1.533922      1.077458
  H       1.327027      0.443388      2.722389
  H      -0.168761     -1.401879      2.015514
  H       1.330617     -1.051187     -1.995195
  H      -0.164763     -2.152426     -0.347265
17
Coordinates from ORCA-job orca E -948.768682581849
  C       1.319022      0.113705      1.685348
  C       2.157895      0.729430      0.766735
  C       0.481757     -0.925197      1.293428
  C       2.148600      0.296718     -0.557259
  C       1.317734     -0.743903     -0.959416
  C       0.486103     -1.352366     -0.029053
  C       3.770616      1.702979     -1.852971
  N       2.968217      0.899277     -1.515523
  O       6.782566      3.982145      0.122197
  O       4.563894      2.457264     -2.286585
  S       5.381454      4.230832     -0.021628
  O       4.478891      3.420465      0.741048
  H       2.817671      1.533185      1.069289
  H       1.323047      0.449703      2.716425
  H      -0.170243     -1.401062      2.017286
  H       1.330071     -1.064669     -1.994327
  H      -0.161795     -2.163607     -0.342090
17
Coordinates from ORCA-job orca E -948.768839196752
  C       1.316337      0.118513      1.673013
  C       2.151102      0.727228      0.745790
  C       0.479571     -0.925449      1.293350
  C       2.140451      0.283509     -0.573350
  C       1.309745     -0.762821     -0.963148
  C       0.481588     -1.364644     -0.025583
  C       3.751862      1.701371     -1.846648
  N       2.954164      0.877563     -1.542040
  O       6.810695      3.982975      0.098077
  O       4.545718      2.469848     -2.247333
  S       5.412771      4.269960      0.013264
  O       4.517266      3.461346      0.784960
  H       2.814687      1.530759      1.043165
  H       1.323611      0.464258      2.700807
  H      -0.169975     -1.395348      2.023276
  H       1.320418     -1.093423     -1.994988
  H      -0.164512     -2.180747     -0.329710
17
Coordinates from ORCA-job orca E -948.769044810461
  C       1.324338      0.126187      1.653482
  C       2.150963      0.722767      0.710906
  C       0.481906     -0.920019      1.293548
  C       2.130390      0.263765     -0.602042
  C       1.293173     -0.785245     -0.971899
  C       0.471539     -1.374102     -0.020843
  C       3.741203      1.687379     -1.826185
  N       2.942031      0.840158     -1.584575
  O       6.822404      3.991367      0.059826
  O       4.534538      2.480026     -2.169871
  S       5.431013      4.317637      0.062419
  O       4.555764      3.503647      0.850972
  H       2.819800      1.527474      0.995747
  H       1.341956      0.484760      2.676728
  H      -0.162139     -1.379934      2.034576
  H       1.295202     -1.128592     -1.999671
  H      -0.178580     -2.192375     -0.310218
17
Coordinates from ORCA-job orca E -948.769159428355
  C       1.345166      0.137150      1.631653
  C       2.163073      0.717739      0.671591
  C       0.491191     -0.906604      1.293601
  C       2.125787      0.242573     -0.635650
  C       1.275525     -0.803070     -0.983286
  C       0.460385     -1.373933     -0.016045
  C       3.743041      1.664623     -1.796133
  N       2.938561      0.797835     -1.633809
  O       6.799177      3.997351      0.014795
  O       4.533468      2.484205     -2.070654
  S       5.417709      4.349843      0.113250
  O       4.573387      3.524458      0.923545
  H       2.835894      1.525645      0.938212
  H       1.377494      0.508283      2.650070
  H      -0.146801     -1.353803      2.047479
  H       1.263052     -1.158202     -2.007047
  H      -0.200609     -2.189194     -0.288671
17
Coordinates from ORCA-job orca E -948.769218005291
  C       1.347062      0.140536      1.634052
  C       2.165468      0.722729      0.675570
  C       0.495605     -0.904871      1.294557
  C       2.127686      0.248341     -0.633039
  C       1.280477     -0.798501     -0.981928
  C       0.466383     -1.371664     -0.014863
  C       3.742384      1.675507     -1.801604
  N       2.940524      0.807886     -1.630768
  O       6.789264      3.971510      0.029143
  O       4.539299      2.488214     -2.081185
  S       5.406097      4.326373      0.104121
  O       4.547331      3.510972      0.910594
  H       2.835684      1.532873      0.941197
  H       1.378068      0.510144      2.653090
  H      -0.141370     -1.354510      2.047889
  H       1.268775     -1.152734     -2.006009
  H      -0.193237     -2.187906     -0.287914
17
Coordinates from ORCA-job orca E -948.769265127542
  C       1.354691      0.146862      1.635749
  C       2.175609      0.727180      0.678800
  C       0.502849     -0.898449      1.295622
  C       2.134374      0.252708     -0.631128
  C       1.286820     -0.791913     -0.981010
  C       0.472774     -1.364953     -0.013058
  C       3.749638      1.681456     -1.806846
  N       2.944465      0.817582     -1.631397
  O       6.762115      3.943963      0.042263
  O       4.546957      2.493268     -2.091487
  S       5.375819      4.292439      0.098039
  O       4.511311      3.481411      0.903755
  H       2.842776      1.540499      0.940961
  H       1.384878      0.515617      2.655158
  H      -0.134274     -1.348228      2.048813
  H       1.273242     -1.144577     -2.005582
  H      -0.188544     -2.179964     -0.285750
17
Coordinates from ORCA-job orca E -948.769281997074
  C       1.360902      0.151647      1.633956
  C       2.179802      0.731140      0.675092
  C       0.508258     -0.894162      1.296470
  C       2.135481      0.254898     -0.634180
  C       1.288352     -0.790441     -0.981547
  C       0.475910     -1.362471     -0.011277
  C       3.750314      1.681179     -1.810334
  N       2.943511      0.818402     -1.637380
  O       6.747939      3.927288      0.050956
  O       4.547943      2.493112     -2.093991
  S       5.362697      4.279658      0.103340
  O       4.496139      3.472439      0.910611
  H       2.846259      1.545799      0.934225
  H       1.392384      0.521505      2.652934
  H      -0.127820     -1.342702      2.051264
  H       1.273119     -1.144376     -2.005621
  H      -0.185690     -2.178017     -0.281616
17
Coordinates from ORCA-job orca E -948.769304797175
  C       1.369562      0.160709      1.629343
  C       2.183663      0.738863      0.665946
  C       0.517275     -0.887787      1.298226
  C       2.135925      0.257952     -0.641012
  C       1.289955     -0.790204     -0.982496
  C       0.481367     -1.360673     -0.007674
  C       3.747962      1.679429     -1.819354
  N       2.938855      0.817874     -1.650243
  O       6.729845      3.898556      0.066565
  O       4.544286      2.492440     -2.102994
  S       5.348359      4.263529      0.119224
  O       4.478104      3.466003      0.931732
  H       2.849813      1.555085      0.920145
  H       1.403369      0.533718      2.647101
  H      -0.116041     -1.334075      2.056632
  H       1.272388     -1.147850     -2.005185
  H      -0.179187     -2.178670     -0.273054
17
Coordinates from ORCA-job orca E -948.769316164670
  C       1.372176      0.165366      1.626408
  C       2.182784      0.743442      0.659934
  C       0.521586     -0.885705      1.299310
  C       2.134673      0.259480     -0.645411
  C       1.290231     -0.791620     -0.982944
  C       0.484543     -1.361723     -0.005625
  C       3.744203      1.679913     -1.824598
  N       2.935013      0.817646     -1.657355
  O       6.725453      3.881041      0.073972
  O       4.540501      2.492568     -2.108502
  S       5.347375      4.257891      0.128992
  O       4.472683      3.470775      0.946765
  H       2.849011      1.560482      0.911518
  H       1.406995      0.540734      2.643255
  H      -0.109343     -1.331473      2.060001
  H       1.271960     -1.151928     -2.004688
  H      -0.174344     -2.181989     -0.268129
17
Coordinates from ORCA-job orca E -948.769327997532
  C       1.371523      0.168130      1.624759
  C       2.179288      0.747084      0.656113
  C       0.524102     -0.886012      1.300264
  C       2.132760      0.260955     -0.648066
  C       1.290520     -0.793393     -0.982901
  C       0.487540     -1.364267     -0.004235
  C       3.740067      1.682184     -1.829503
  N       2.931141      0.819538     -1.660871
  O       6.727037      3.864088      0.079368
  O       4.536587      2.493426     -2.116409
  S       5.352750      4.254761      0.134367
  O       4.471494      3.483180      0.959917
  H       2.845189      1.565077      0.905880
  H       1.406308      0.545450      2.640869
  H      -0.104443     -1.332653      2.062425
  H       1.272560     -1.155631     -2.004007
  H      -0.168923     -2.187018     -0.265068
17
Coordinates from ORCA-job orca E -948.769336213618
  C       1.369629      0.168289      1.624386
  C       2.175848      0.748379      0.654872
  C       0.524767     -0.887854      1.300597
  C       2.130833      0.261521     -0.649035
  C       1.290338     -0.794791     -0.982962
  C       0.489027     -1.366729     -0.003943
  C       3.737531      1.684436     -1.830450
  N       2.928704      0.821700     -1.661120
  O       6.731058      3.852309      0.079824
  O       4.535187      2.494261     -2.118294
  S       5.360056      4.255057      0.133564
  O       4.472889      3.498656      0.966937
  H       2.840766      1.567654      0.903446
  H       1.404072      0.546482      2.640168
  H      -0.102287     -1.335923      2.063158
  H       1.272881     -1.157610     -2.003911
  H      -0.165797     -2.190936     -0.264336
17
Coordinates from ORCA-job orca E -948.769345813278
  C       1.366202      0.165965      1.625539
  C       2.171033      0.748663      0.656252
  C       0.524612     -0.892231      1.300653
  C       2.128132      0.262497     -0.648143
  C       1.289951     -0.795425     -0.983011
  C       0.490200     -1.369879     -0.004530
  C       3.736238      1.687059     -1.829651
  N       2.926001      0.826442     -1.657792
  O       6.737964      3.837743      0.079032
  O       4.536363      2.494169     -2.119009
  S       5.371383      4.256782      0.125308
  O       4.474848      3.524578      0.970349
  H       2.833336      1.570454      0.903876
  H       1.399758      0.543922      2.641422
  H      -0.101105     -1.343177      2.062630
  H       1.273387     -1.157364     -2.004327
  H      -0.162805     -2.195300     -0.265696
17
Coordinates from ORCA-job orca E -948.769350472315
  C       1.363472      0.161994      1.627046
  C       2.165707      0.748708      0.658078
  C       0.525409     -0.898493      1.300592
  C       2.124002      0.264008     -0.647244
  C       1.288491     -0.795263     -0.983740
  C       0.491143     -1.373433     -0.005545
  C       3.735849      1.688825     -1.826347
  N       2.921706      0.832548     -1.654158
  O       6.744935      3.816651      0.079047
  O       4.541492      2.491573     -2.113452
  S       5.385410      4.259810      0.111642
  O       4.474300      3.562888      0.970950
  H       2.823258      1.574884      0.904167
  H       1.396641      0.538760      2.643368
  H      -0.098300     -1.353372      2.061885
  H       1.272157     -1.155282     -2.005751
  H      -0.160171     -2.199909     -0.267635
17
Coordinates from ORCA-job orca E -948.769347806004
  C       1.362006      0.156724      1.629056
  C       2.161431      0.748104      0.660909
  C       0.526472     -0.905326      1.300454
  C       2.119650      0.265963     -0.645699
  C       1.286144     -0.793657     -0.984709
  C       0.491127     -1.376193     -0.006872
  C       3.737937      1.687497     -1.822547
  N       2.916479      0.838943     -1.650594
  O       6.751074      3.799235      0.082110
  O       4.549635      2.485609     -2.106391
  S       5.398438      4.264161      0.095805
  O       4.471896      3.601672      0.965827
  H       2.813358      1.578974      0.906379
  H       1.395189      0.531027      2.646280
  H      -0.095302     -1.364184      2.060943
  H       1.269199     -1.150654     -2.007739
  H      -0.159234     -2.202995     -0.270311
17
Coordinates from ORCA-job orca E -948.769351845618
  C       1.363184      0.155973      1.628744
  C       2.161454      0.748379      0.660575
  C       0.527707     -0.906471      1.300357
  C       2.118117      0.266783     -0.646238
  C       1.285177     -0.792960     -0.985338
  C       0.491204     -1.376676     -0.006910
  C       3.738913      1.685265     -1.820880
  N       2.913167      0.840302     -1.652436
  O       6.751289      3.794433      0.084949
  O       4.552061      2.483311     -2.100462
  S       5.400816      4.265482      0.092823
  O       4.469059      3.609880      0.962446
  H       2.811605      1.580488      0.906404
  H       1.396706      0.529462      2.646270
  H      -0.093335     -1.365740      2.061185
  H       1.267390     -1.149346     -2.008520
  H      -0.159015     -2.203664     -0.270067
17
Coordinates from ORCA-job orca E -948.769358428113
  C       1.366447      0.157482      1.627587
  C       2.160819      0.752492      0.658143
  C       0.532679     -0.907300      1.301184
  C       2.115215      0.270590     -0.648344
  C       1.284737     -0.791321     -0.985942
  C       0.494264     -1.377683     -0.005682
  C       3.737193      1.685030     -1.822456
  N       2.905445      0.845208     -1.657986
  O       6.748868      3.774648      0.100369
  O       4.554864      2.480021     -2.096950
  S       5.403985      4.260805      0.091431
  O       4.456647      3.619611      0.954700
  H       2.808008      1.586772      0.904269
  H       1.400435      0.530431      2.645316
  H      -0.085708     -1.367488      2.063605
  H       1.265665     -1.147789     -2.009006
  H      -0.154060     -2.206612     -0.267337
17
Coordinates from ORCA-job orca E -948.769366281303
  C       1.368730      0.159131      1.627838
  C       2.160648      0.756833      0.658077
  C       0.536464     -0.907292      1.302300
  C       2.113900      0.275506     -0.648300
  C       1.285322     -0.788101     -0.985373
  C       0.497329     -1.377323     -0.004549
  C       3.737422      1.685003     -1.826305
  N       2.899642      0.851362     -1.660947
  O       6.747239      3.765487      0.119453
  O       4.557035      2.477333     -2.102323
  S       5.403415      4.253414      0.090599
  O       4.442668      3.611742      0.938361
  H       2.806545      1.591298      0.906764
  H       1.402470      0.530851      2.646047
  H      -0.079967     -1.368396      2.065751
  H       1.265683     -1.144110     -2.008549
  H      -0.149047     -2.207840     -0.265941
17
Coordinates from ORCA-job orca E -948.769373309389
  C       1.371422      0.160953      1.628180
  C       2.158801      0.762567      0.656898
  C       0.542304     -0.908284      1.304148
  C       2.111354      0.281469     -0.649330
  C       1.285343     -0.784769     -0.985015
  C       0.501678     -1.377562     -0.003059
  C       3.736287      1.687758     -1.829683
  N       2.893002      0.859652     -1.663927
  O       6.744422      3.744861      0.143327
  O       4.561661      2.473586     -2.107065
  S       5.405307      4.243500      0.088345
  O       4.423844      3.612768      0.920436
  H       2.802233      1.598808      0.906037
  H       1.405774      0.531862      2.646670
  H      -0.070375     -1.371862      2.069125
  H       1.264670     -1.140218     -2.008375
  H      -0.142228     -2.210190     -0.263808
17
Coordinates from ORCA-job orca E -948.769340368517
  C       1.383105      0.167703      1.632655
  C       2.154549      0.784244      0.656980
  C       0.565518     -0.910743      1.311816
  C       2.104524      0.306703     -0.649869
  C       1.286891     -0.767520     -0.982666
  C       0.519216     -1.374538      0.002247
  C       3.740514      1.695654     -1.843781
  N       2.871359      0.896286     -1.669594
  O       6.720663      3.667195      0.242372
  O       4.581869      2.459677     -2.135453
  S       5.402327      4.196287      0.076638
  O       4.343720      3.599954      0.836248
  H       2.788670      1.626866      0.907029
  H       1.420358      0.534290      2.652635
  H      -0.033308     -1.385102      2.081149
  H       1.261976     -1.118451     -2.007557
  H      -0.116451     -2.213605     -0.257947
17
Coordinates from ORCA-job orca E -948.769362614135
  C       1.386945      0.171990      1.630369
  C       2.149767      0.791678      0.649826
  C       0.576077     -0.912626      1.314502
  C       2.098687      0.311456     -0.656317
  C       1.286119     -0.768292     -0.983854
  C       0.527059     -1.378296      0.005451
  C       3.732392      1.702084     -1.848478
  N       2.859283      0.905588     -1.678411
  O       6.710319      3.611264      0.269072
  O       4.585659      2.454970     -2.135035
  S       5.414285      4.186349      0.080707
  O       4.325749      3.639635      0.835432
  H       2.778028      1.640766      0.892525
  H       1.426800      0.541395      2.649207
  H      -0.015749     -1.390838      2.086854
  H       1.258847     -1.120723     -2.008233
  H      -0.104767     -2.221501     -0.250715
17
Coordinates from ORCA-job orca E -948.769151531182
  C       1.408795      0.190305      1.621357
  C       2.133437      0.824385      0.621499
  C       0.624797     -0.918998      1.326080
  C       2.073000      0.336060     -0.682293
  C       1.282617     -0.766184     -0.988590
  C       0.562020     -1.391151      0.019475
  C       3.698514      1.723595     -1.876358
  N       2.799574      0.950799     -1.719311
  O       6.638500      3.377404      0.410203
  O       4.604214      2.425852     -2.131333
  S       5.464871      4.137543      0.106615
  O       4.253464      3.796914      0.791019
  H       2.737450      1.697573      0.837627
  H       1.460282      0.568532      2.636330
  H       0.063391     -1.412434      2.111445
  H       1.243178     -1.123393     -2.011049
  H      -0.052605     -2.251905     -0.219814
17
Coordinates from ORCA-job orca E -948.769370646770
  C       1.396895      0.182750      1.623828
  C       2.144576      0.805986      0.634049
  C       0.596328     -0.912394      1.319157
  C       2.088581      0.319955     -0.670133
  C       1.285263     -0.770204     -0.986109
  C       0.541986     -1.384122      0.012477
  C       3.717084      1.707354     -1.860008
  N       2.832097      0.920995     -1.701287
  O       6.686271      3.515055      0.325382
  O       4.584168      2.447653     -2.135129
  S       5.434961      4.171188      0.102453
  O       4.294351      3.694645      0.827720
  H       2.764402      1.664617      0.865952
  H       1.442100      0.558429      2.640091
  H       0.016397     -1.394790      2.097886
  H       1.252768     -1.126860     -2.008924
  H      -0.082727     -2.235361     -0.234504
17
Coordinates from ORCA-job orca E -948.769385180292
  C       1.385877      0.170442      1.625777
  C       2.145145      0.788692      0.642257
  C       0.576733     -0.916931      1.313908
  C       2.091569      0.305571     -0.663154
  C       1.282149     -0.777460     -0.986536
  C       0.526716     -1.386347      0.006822
  C       3.722063      1.696658     -1.849768
  N       2.846628      0.901548     -1.687534
  O       6.719704      3.586004      0.267611
  O       4.577055      2.450385     -2.125207
  S       5.445094      4.211265      0.093941
  O       4.344075      3.706670      0.860407
  H       2.769289      1.643212      0.879032
  H       1.427774      0.544866      2.642645
  H      -0.014084     -1.394876      2.087205
  H       1.253441     -1.132715     -2.009864
  H      -0.103727     -2.232085     -0.244641
17
Coordinates from ORCA-job orca E -948.769388777127
  C       1.391371      0.175589      1.625248
  C       2.144904      0.796666      0.638932
  C       0.586115     -0.915441      1.316516
  C       2.089676      0.312649     -0.665990
  C       1.283103     -0.773445     -0.986395
  C       0.533595     -1.385313      0.009499
  C       3.721537      1.700196     -1.855322
  N       2.839753      0.911257     -1.693220
  O       6.703927      3.551334      0.296451
  O       4.580958      2.448740     -2.132224
  S       5.441290      4.193453      0.098283
  O       4.319225      3.703889      0.843221
  H       2.766387      1.653461      0.873205
  H       1.434980      0.550298      2.641962
  H       0.000293     -1.395723      2.092160
  H       1.252509     -1.129035     -2.009563
  H      -0.094121     -2.233677     -0.239863
17
Coordinates from ORCA-job orca E -948.769392292305
  C       1.393940      0.179371      1.623264
  C       2.144874      0.800157      0.634813
  C       0.590527     -0.913861      1.317488
  C       2.088564      0.313949     -0.669278
  C       1.283676     -0.774164     -0.986824
  C       0.536993     -1.385963      0.011301
  C       3.718837      1.701518     -1.858157
  N       2.835914      0.912960     -1.698580
  O       6.696325      3.530084      0.305479
  O       4.578266      2.450485     -2.133394
  S       5.442323      4.188656      0.106452
  O       4.311594      3.709231      0.844951
  H       2.765416      1.658405      0.866353
  H       1.438559      0.555819      2.639294
  H       0.006908     -1.394258      2.094716
  H       1.252146     -1.131441     -2.009379
  H      -0.089361     -2.236049     -0.235599
17
Coordinates from ORCA-job orca E -948.769397467576
  C       1.393276      0.179842      1.622712
  C       2.145047      0.799542      0.634327
  C       0.589617     -0.913403      1.317165
  C       2.089247      0.312224     -0.669380
  C       1.284581     -0.775923     -0.986824
  C       0.536905     -1.386653      0.011429
  C       3.718297      1.701612     -1.858455
  N       2.837629      0.910641     -1.698257
  O       6.696238      3.525698      0.300162
  O       4.573291      2.455303     -2.134570
  S       5.444641      4.191406      0.110302
  O       4.314558      3.713523      0.850685
  H       2.765772      1.657869      0.864990
  H       1.437230      0.557161      2.638456
  H       0.005015     -1.392956      2.094176
  H       1.253669     -1.134152     -2.009046
  H      -0.089514     -2.236837     -0.234968
17
Coordinates from ORCA-job orca E -948.769401941946
  C       1.389895      0.179068      1.622386
  C       2.145168      0.796392      0.635318
  C       0.584981     -0.913076      1.315775
  C       2.091448      0.307847     -0.668067
  C       1.286385     -0.779565     -0.986542
  C       0.535024     -1.387862      0.010581
  C       3.716777      1.702727     -1.856279
  N       2.843290      0.904438     -1.695102
  O       6.701346      3.530094      0.282689
  O       4.564269      2.464388     -2.133258
  S       5.448779      4.199141      0.112423
  O       4.326349      3.717376      0.862004
  H       2.767320      1.653759      0.866157
  H       1.431785      0.557362      2.637849
  H      -0.002737     -1.390751      2.091591
  H       1.257557     -1.139065     -2.008363
  H      -0.092138     -2.237374     -0.236259
17
Coordinates from ORCA-job orca E -948.769405754927
  C       1.385608      0.177145      1.623301
  C       2.145027      0.792862      0.638474
  C       0.579426     -0.913431      1.314281
  C       2.094366      0.304130     -0.665007
  C       1.288666     -0.782119     -0.985742
  C       0.532851     -1.388598      0.009132
  C       3.715965      1.705210     -1.853159
  N       2.850743      0.898949     -1.689302
  O       6.707647      3.537405      0.265527
  O       4.556043      2.474323     -2.132421
  S       5.452718      4.205617      0.110140
  O       4.337483      3.717884      0.866558
  H       2.768573      1.648831      0.870857
  H       1.424754      0.555428      2.638871
  H      -0.011818     -1.389652      2.088314
  H       1.262556     -1.142067     -2.007473
  H      -0.095108     -2.237017     -0.239448
17
Coordinates from ORCA-job orca E -948.769412110042
  C       1.380729      0.176208      1.624061
  C       2.145108      0.789768      0.641737
  C       0.573678     -0.913035      1.312672
  C       2.098514      0.300314     -0.661689
  C       1.292500     -0.785166     -0.984489
  C       0.531625     -1.389377      0.007794
  C       3.713087      1.710751     -1.849748
  N       2.859802      0.892720     -1.683340
  O       6.712990      3.540114      0.247303
  O       4.544298      2.488778     -2.131076
  S       5.456910      4.209807      0.108259
  O       4.347797      3.715547      0.869487
  H       2.770329      1.644036      0.876085
  H       1.416382      0.554892      2.639602
  H      -0.021452     -1.387400      2.084869
  H       1.269962     -1.146130     -2.005955
  H      -0.096761     -2.236929     -0.242671
17
Coordinates from ORCA-job orca E -948.769419596776
  C       1.378033      0.176840      1.624823
  C       2.145621      0.789241      0.644221
  C       0.571123     -0.912046      1.312004
  C       2.102302      0.299130     -0.659097
  C       1.296604     -0.786372     -0.983084
  C       0.532557     -1.389398      0.007343
  C       3.710126      1.717220     -1.849202
  N       2.866773      0.889689     -1.679323
  O       6.712961      3.532854      0.240502
  O       4.534282      2.501796     -2.133607
  S       5.458665      4.207183      0.107468
  O       4.348788      3.710667      0.866020
  H       2.771535      1.642512      0.880224
  H       1.411021      0.555897      2.640312
  H      -0.026307     -1.385329      2.083088
  H       1.276907     -1.148184     -2.004320
  H      -0.095491     -2.236801     -0.244469
17
Coordinates from ORCA-job orca E -948.769425480808
  C       1.378034      0.178885      1.624348
  C       2.146829      0.790088      0.643900
  C       0.571375     -0.910295      1.312030
  C       2.104719      0.298695     -0.658973
  C       1.299303     -0.787279     -0.982376
  C       0.534184     -1.389168      0.007862
  C       3.707216      1.721391     -1.850848
  N       2.870219      0.887577     -1.679475
  O       6.709368      3.521884      0.240742
  O       4.526863      2.510169     -2.136654
  S       5.458367      4.202952      0.110817
  O       4.345554      3.707517      0.865771
  H       2.772868      1.643212      0.880107
  H       1.410176      0.559020      2.639464
  H      -0.026777     -1.382621      2.083143
  H       1.280756     -1.150259     -2.003228
  H      -0.093554     -2.236868     -0.243727
17
Coordinates from ORCA-job orca E -948.769432445469
  C       1.379764      0.181435      1.623899
  C       2.148408      0.792173      0.642971
  C       0.573730     -0.908482      1.312697
  C       2.106679      0.299590     -0.659430
  C       1.301781     -0.787168     -0.981737
  C       0.536843     -1.388557      0.008919
  C       3.704646      1.725300     -1.854507
  N       2.872250      0.887203     -1.680760
  O       6.702305      3.503844      0.249377
  O       4.520420      2.517270     -2.142749
  S       5.457617      4.195546      0.114977
  O       4.336543      3.706419      0.861669
  H       2.773587      1.645924      0.878958
  H       1.411856      0.562671      2.638612
  H      -0.024131     -1.380397      2.084284
  H       1.283615     -1.151068     -2.002273
  H      -0.090416     -2.236804     -0.242006
17
Coordinates from ORCA-job orca E -948.769435449428
  C       1.380785      0.182757      1.623063
  C       2.149396      0.792670      0.641579
  C       0.574767     -0.907461      1.312905
  C       2.107406      0.299085     -0.660408
  C       1.302590     -0.788014     -0.981719
  C       0.537771     -1.388621      0.009532
  C       3.702689      1.726559     -1.856025
  N       2.872876      0.885835     -1.682339
  O       6.699368      3.495344      0.252581
  O       4.516267      2.520750     -2.144109
  S       5.458422      4.193764      0.118317
  O       4.333954      3.708978      0.862782
  H       2.774220      1.646841      0.877027
  H       1.413175      0.565040      2.637376
  H      -0.023028     -1.378822      2.084881
  H       1.284351     -1.152714     -2.001966
  H      -0.089509     -2.237094     -0.240573
17
Coordinates from ORCA-job orca E -948.769443106183
  C       1.383841      0.185342      1.621917
  C       2.151367      0.794598      0.639100
  C       0.578377     -0.905836      1.313844
  C       2.108521      0.299470     -0.662194
  C       1.304364     -0.788660     -0.981542
  C       0.540719     -1.388598      0.011063
  C       3.698839      1.729732     -1.860566
  N       2.872997      0.885377     -1.685410
  O       6.691028      3.470799      0.268155
  O       4.507975      2.527935     -2.149935
  S       5.461289      4.186761      0.123597
  O       4.323665      3.717500      0.857911
  H       2.774618      1.650148      0.873513
  H       1.417084      0.569462      2.635517
  H      -0.018597     -1.376808      2.086688
  H       1.285647     -1.154531     -2.001354
  H      -0.086232     -2.237793     -0.237402
17
Coordinates from ORCA-job orca E -948.769443760211
  C       1.382912      0.185353      1.621635
  C       2.151255      0.793910      0.639036
  C       0.577348     -0.905743      1.313480
  C       2.108829      0.298410     -0.662125
  C       1.304841     -0.789806     -0.981504
  C       0.540543     -1.389184      0.010944
  C       3.697488      1.730488     -1.859867
  N       2.873664      0.884169     -1.685065
  O       6.692771      3.470958      0.265558
  O       4.504889      2.530572     -2.148662
  S       5.463361      4.187971      0.123351
  O       4.326780      3.719759      0.860025
  H       2.775111      1.649055      0.873509
  H       1.415632      0.569882      2.635094
  H      -0.020301     -1.376253      2.086084
  H       1.286691     -1.156169     -2.001147
  H      -0.086314     -2.238473     -0.237444
