3
Coordinates from ORCA-job orca
  Se  0.00000000000000     -0.00000018384902      0.47259378497554
  O   0.00000000000000      1.35484017031678     -0.41788094992305
  O   0.00000000000000     -1.35483998646775     -0.41788083505248
