17
Coordinates from ORCA-job orca
  C   0.25920628638603      0.04199985287098     -0.48470561971343
  C   1.35525139740857      0.88912240215400     -0.53242619226897
  C   0.25675488317993     -1.04694670231152      0.38949955622276
  C   2.45642339491104      0.60041452608034      0.28152480643068
  C   2.45321172097808     -0.46391268907166      1.18915483027109
  C   1.34735525262428     -1.29982223581339      1.22321801160830
  H   1.37943465611224      1.75265271588778     -1.18966352560138
  C   3.78808850351466      1.35052734151090      0.01031041983502
  H   -0.60141579863404      0.23670241947672     -1.11689105023001
  H   -0.61268218647420     -1.69648112385807      0.43306017942880
  H   3.30764629115598     -0.62521123573039      1.83861305954568
  H   1.32659175616427     -2.14044974810090      1.90960374602778
  N   3.45614695920617      2.16803895701313      0.89760473481399
  O   5.26929607242925      3.28821370519708      0.73125780551059
  O   4.67381776178239      1.07207171111195     -0.83633106163352
  Se  5.96438507948425      2.91040886435767     -0.73283884898615
  O   5.29488996977105      3.75967223922536     -1.94028985126122
