! wB97X-D3BJ def2-TZVPPD TightSCF opt freq
!CPCM(Toluene)
%geom maxiter 300 end
%maxcore 4000 
%pal nprocs 28
end

*xyz 0 1

C        1.806997170     -0.419591539      0.362265296
C        2.922676222      0.352003237      0.030274050
C        1.949607538     -1.779650145      0.662170749
C        4.193171295     -0.242406052     -0.001789539
C        4.343102391     -1.607583811      0.298592995
C        3.219814239     -2.368147261      0.628522451
H        2.828883115      1.405481815     -0.204693992
C        6.472869090      0.673488638     -0.531235218
H        0.825828439      0.042593416      0.386511838
H        1.080460649     -2.375177987      0.919769505
H        5.329927437     -2.057214374      0.271485033
H        3.338469638     -3.421524762      0.859683456
N        5.292558458      0.545181058     -0.335680990
O        7.629234321      0.923147767     -0.754875633
*