17
Coordinates from ORCA-job orca
  C   0.07673283698334      0.09009909714859     -0.08933362359015
  C   1.06071577101520      1.05659416330067     -0.22988278049710
  C   0.38643981760944     -1.15695307123827      0.45451846474916
  C   2.37394432010761      0.77367692260206      0.17166336688593
  C   2.68584483022257     -0.47630818112585      0.71747000458598
  C   1.68911506075984     -1.43545506460795      0.85689399820400
  H   0.82215100529919      2.02992012673425     -0.64618375991780
  C   3.41353716828500      1.78756169711699      0.02412228756252
  H   -0.93958696924255      0.31052503604795     -0.40184271847461
  H   -0.38939596349008     -1.90900872110298      0.56462500749928
  H   3.70227707736218     -0.69628798502532      1.02577442655005
  H   1.93424585873942     -2.40486733988517      1.28016929249122
  N   3.26382870658990      2.89768360329264     -0.60641395309423
  O   4.45323431949818      3.64607318475197     -0.51562283288894
  O   4.62924542686208      1.53694562797545      0.60401488298958
  S   5.78451971303783      2.67480466014711      0.01710051733732
  O   6.42755102036080      2.07199624386785     -1.15637258039219
