17
Coordinates from ORCA-job mol
  C   0.62373998500790     -1.41701392994812      0.02396022220686
  C   1.37062783493859     -0.81770567078885     -0.98210689055425
  C   0.64542259801724     -0.87025627798923      1.30142801319546
  C   2.12981251979735      0.31935008889579     -0.70439184839041
  C   2.14391276902229      0.86013060464333      0.58486433326619
  C   1.39862526200504      0.26248237547983      1.59161651191842
  H   1.36777255196515     -1.22870263341879     -1.98623076884646
  C   3.59808502327362      1.82773852398598     -1.92552947296156
  H   0.03101418310462     -2.30091359350622     -0.18529809015241
  Cl  -0.29560891507786     -1.62482445364087      2.57622848230605
  H   2.73592786994663      1.74510728482542      0.79887641943633
  H   1.40484464896246      0.67610482242603      2.59443324745964
  N   2.86680071687566      0.88974100471318     -1.74513708069458
  O   4.32093742752095      2.69899294999037     -2.24272560756421
  O   4.21197488057692      3.88603770904105      0.83140467302539
  S   5.55212988345604      4.02566734713661      0.23626005276430
  O   6.48245076060737      2.90186384815447      0.41897780358522
