 $CONTRL SCFTYP=rhf RUNTYP=optimize d5=.t. 
!dfttyp=pbe0
 mplevl=2
 maxit=100 icut=20 inttyp=hondo itol=30 gencon=.f. wide=1                                
 mult=1 icharg=0 exetyp=run fstint=.t. nzvar=0 $END                            
 $SYSTEM TIMLIM=100000 mwords=360 nojac=1  $END                                  
 $system mxbcst=-1 $end                                                         
 $p2p p2p=.t. dlb=.t. $end                                                      
 $smp                                                                           
  mkl64=21 smppar=1 mklnp=18 np=36 httnp=1 dianp=1                              
  pts=0x101                                                                     
 $end                                                                           
 $mpi mxgsum=0x40000 mnpdot=1d9 $end                                            
 $MOORTH nostf=1 nozero=1 syms=1 symden=1 symvec=1 tole=0 tolz=0 $end           
 $BASIS GBASIS=apvtzs extfil=.t. $END                                          
 $GUESS GUESS=huckel                                                            
 $END                                                                           
! $RIMP2 AUXBAS=cc-pvdz/C VERBOSE=.T. $END
 $MP2 method=1 $END
 $MP2GRD dblbf=0 fused=0 asysnc=1 tol1=1d-12 tol2=1d-12 $END
!$FORCE NVIB=2 VIBSIZ=0.005 $END
 $trans mptran=2 dirtrf=.t. mode=112 cuttrf=1d-20 $end
 $DATA
 C7NH5O
C1
CARBON          6.0      1.806997170        -0.419591539         0.362265296
CARBON          6.0      2.922676222         0.352003237         0.030274050
CARBON          6.0      1.949607538        -1.779650145         0.662170749
CARBON          6.0      4.193171295        -0.242406052        -0.001789539
CARBON          6.0      4.343102391        -1.607583811         0.298592995
CARBON          6.0      3.219814239        -2.368147261         0.628522451
HYDROGEN        1.0      2.828883115         1.405481815        -0.204693992
CARBON          6.0      6.472869090         0.673488638        -0.531235218
HYDROGEN        1.0      0.825828439         0.042593416         0.386511838
HYDROGEN        1.0      1.080460649        -2.375177987         0.919769505
HYDROGEN        1.0      5.329927437        -2.057214374         0.271485033
HYDROGEN        1.0      3.338469638        -3.421524762         0.859683456
NITROGEN        7.0      5.292558458         0.545181058        -0.335680990
OXYGEN          8.0      7.629234321         0.923147767        -0.754875633
 $END

