17
Coordinates from ORCA-job mol
  C   0.62808582725078     -1.40923139819845      0.02295769828013
  C   1.37921761539968     -0.80752807858782     -0.97757699387441
  C   0.64249927624169     -0.86842563881814      1.30317172303275
  C   2.13768152836403      0.32833734404135     -0.69435983712786
  C   2.14591687152631      0.86425703113783      0.59694533928655
  C   1.39588268460885      0.26324268165577      1.59738990020759
  H   1.38187431240743     -1.21417879622226     -1.98327201951332
  C   3.61008277899529      1.83712651600848     -1.91708403122734
  H   0.03577264251780     -2.29231898516188     -0.18977576768001
  Cl  -0.30252393306342     -1.62536280693562      2.56841392232320
  H   2.73811823354277      1.74780281677917      0.81546701993394
  H   1.39717292609132      0.67231155950636      2.60187455093871
  N   2.87847446688617      0.90117364688669     -1.72963368609609
  O   4.33219130572020      2.70636960668852     -2.24160081422227
  O   4.17949922421809      3.81884536314950      0.79974003264570
  S   5.52244300747669      4.00351604698668      0.22328497992237
  O   6.48608123181629      2.90786309108382      0.39068798317035
