!DLPNO-CCSD(T) Extrapolate(3/4,cc) cc-pVQZ/C TightPNO TightSCF 
%geom maxiter 300 end
%maxcore 4000 
%pal nprocs 36
end

*xyz 0 1
6        1.804373000     -0.430949000      0.365941000
6        2.883883000      0.376435000      0.028869000
6        1.993875000     -1.778577000      0.657117000
6        4.166461000     -0.170760000     -0.017344000
6        4.364439000     -1.524100000      0.274057000
6        3.276740000     -2.319150000      0.609373000
1        2.748757000      1.428425000     -0.199958000
6        6.424809000      0.555112000     -0.495671000
1        0.807664000     -0.001294000      0.400931000
1        1.147685000     -2.405516000      0.920014000
1        5.366571000     -1.942506000      0.235882000
1        3.434435000     -3.369793000      0.834893000
7        5.229817000      0.670830000     -0.360749000
8        7.584090000      0.582442000     -0.662355000

*
