17
 restart for step    4999 ; t =         4999.00 
     C   -14.2390090492  -10.2506175229    6.2586977850   12.0000000000   -0.0060917549   -0.0037902637    0.0027077747
     C   -15.3134967032  -11.0119170644    6.7277497529   12.0000000000   -0.0053193159   -0.0044050064    0.0022567132
     C   -13.5901926559   -9.3394001874    7.0988340999   12.0000000000   -0.0064531393   -0.0036254128    0.0016856483
     C   -15.7408868723  -10.8658289139    8.0579390043   12.0000000000   -0.0035932395   -0.0031648120    0.0021852665
     C   -15.0814633979   -9.9594336146    8.9111320960   12.0000000000   -0.0044595673   -0.0036670312    0.0028226590
     C   -14.0161931662   -9.2031427729    8.4252492214   12.0000000000   -0.0061437093   -0.0046438927    0.0019373824
     H   -15.8252587902  -11.7225224454    6.0900843300    1.0078250322   -0.0071803426   -0.0042470421    0.0041018577
     C   -17.6555219611  -12.1030364420    9.2246775238   12.0000000000   -0.0059025015   -0.0033338405    0.0037709789
     H   -13.9150824815  -10.3790121432    5.2312714872    1.0078250322   -0.0078269628   -0.0051911309    0.0027733831
     H   -12.7524651576   -8.7567563751    6.7310497470    1.0078250322   -0.0055116281   -0.0048562688    0.0026242452
     H   -15.4115322759   -9.8656997350    9.9392355488    1.0078250322   -0.0070459458   -0.0059357365    0.0020375593
     H   -13.5175549268   -8.5062012541    9.0903832847    1.0078250322   -0.0064678518   -0.0049532659    0.0028108881
     N   -16.7962045942  -11.6455356140    8.5240228192   14.0030740040   -0.0055835872   -0.0041665713    0.0037014235
     O    30.2757430707   21.1008472895  -15.3767782673   15.9949146200    0.0105378631    0.0064713447   -0.0066715269
     O   -18.5501714284  -12.6209803565    9.8328973050   15.9949146200   -0.0055331118   -0.0031016884    0.0038229305
     S    29.0788920579   20.0356039042  -15.5627557020   31.9720711740    0.0099037103    0.0070363575   -0.0050874334
     O    28.6064990583   19.3358164611  -14.1881740759   15.9949146200    0.0107129334    0.0077789809   -0.0041556803
