17
Coordinates from ORCA-job orca E -948.107248822262
  C      -0.097061     -0.015883     -0.033737
  C       0.792906      1.033485     -0.257655
  C       0.359954     -1.226644      0.503825
  C       2.158779      0.864524      0.059671
  C       2.621426     -0.352166      0.598465
  C       1.714844     -1.389686      0.817618
  H       0.447197      1.973496     -0.673008
  C       3.078819      1.929674     -0.168391
  H      -1.146168      0.110771     -0.277289
  H      -0.338272     -2.038533      0.676989
  H       3.672993     -0.452178      0.833571
  H       2.067550     -2.326854      1.233728
  N       3.472306      2.986648     -0.547707
  O       4.397893      3.859767     -0.669818
  O       5.042288      1.417287      0.786848
  S       6.197509      2.473943      0.262882
  O       6.931436      1.949350     -1.075294
17
Coordinates from ORCA-job orca E -948.126091952594
  C      -0.073688     -0.001373     -0.034951
  C       0.822072      1.039997     -0.254952
  C       0.371659     -1.214669      0.501091
  C       2.183324      0.858236      0.064926
  C       2.634829     -0.359404      0.601604
  C       1.721920     -1.388495      0.817260
  H       0.485839      1.984244     -0.669419
  C       3.112886      1.912398     -0.157274
  H      -1.121590      0.134528     -0.281091
  H      -0.334000     -2.021254      0.671418
  H       3.686421     -0.465716      0.838505
  H       2.066587     -2.329241      1.233153
  N       3.447500      2.983166     -0.562009
  O       4.385915      3.826490     -0.665987
  O       5.015383      1.433833      0.758009
  S       6.131450      2.452799      0.247054
  O       6.837891      1.951462     -1.036637
17
Coordinates from ORCA-job orca E -948.134931230425
  C      -0.049942      0.013078     -0.036468
  C       0.853223      1.045337     -0.250986
  C       0.380856     -1.203468      0.497762
  C       2.209790      0.849895      0.072095
  C       2.647034     -0.371113      0.607601
  C       1.725550     -1.390142      0.818076
  H       0.527645      1.994121     -0.664441
  C       3.146549      1.896110     -0.146487
  H      -1.096099      0.159590     -0.286368
  H      -0.333326     -2.003974      0.663774
  H       3.696843     -0.488479      0.848272
  H       2.060381     -2.335100      1.233635
  N       3.424155      2.979705     -0.576482
  O       4.376009      3.795145     -0.661622
  O       4.986930      1.460092      0.729657
  S       6.066815      2.435837      0.228903
  O       6.751986      1.960367     -1.006224
17
Coordinates from ORCA-job orca E -948.135851924376
  C      -0.047532      0.021969     -0.025876
  C       0.864800      1.041724     -0.248146
  C       0.370757     -1.197932      0.505166
  C       2.221317      0.829292      0.058841
  C       2.646079     -0.397288      0.589599
  C       1.713889     -1.401432      0.811520
  H       0.546796      1.995687     -0.656025
  C       3.160503      1.870999     -0.164028
  H      -1.094501      0.183076     -0.264372
  H      -0.352575     -1.988262      0.681466
  H       3.694284     -0.540797      0.821990
  H       2.041255     -2.349962      1.225987
  N       3.443926      2.947365     -0.606260
  O       4.385165      3.763120     -0.670447
  O       4.991930      1.527829      0.756779
  S       6.048970      2.478852      0.241425
  O       6.739336      2.012759     -0.986921
17
Coordinates from ORCA-job orca E -948.135592100152
  C      -0.051476      0.034510      0.000312
  C       0.869073      1.041564     -0.245357
  C       0.363104     -1.189613      0.525315
  C       2.230744      0.807859      0.021278
  C       2.652036     -0.423966      0.538418
  C       1.711450     -1.412113      0.793690
  H       0.554034      2.000864     -0.642932
  C       3.176377      1.839113     -0.211618
  H      -1.102184      0.211016     -0.209188
  H      -0.366922     -1.967162      0.728965
  H       3.703498     -0.589844      0.742385
  H       2.036907     -2.362608      1.205198
  N       3.468159      2.903828     -0.675900
  O       4.394347      3.741276     -0.705730
  O       4.966768      1.574966      0.833670
  S       6.038771      2.530419      0.289444
  O       6.729712      2.056889     -0.917253
17
Coordinates from ORCA-job orca E -948.134954904358
  C      -0.044211      0.049921      0.024264
  C       0.882413      1.046471     -0.239338
  C       0.367418     -1.178648      0.541322
  C       2.247310      0.792876     -0.010160
  C       2.666127     -0.445455      0.492794
  C       1.719070     -1.419519      0.776463
  H       0.570902      2.010789     -0.627497
  C       3.198783      1.815442     -0.253791
  H      -1.097213      0.239171     -0.161470
  H      -0.367988     -1.945265      0.766199
  H       3.720921     -0.622294      0.670884
  H       2.040947     -2.372724      1.184417
  N       3.477242      2.873657     -0.747243
  O       4.387463      3.731615     -0.731347
  O       4.922029      1.630088      0.895908
  S       5.981672      2.550558      0.352330
  O       6.701513      2.040321     -0.863037
17
Coordinates from ORCA-job orca E -948.135023949180
  C      -0.038192      0.066685      0.051984
  C       0.897617      1.049361     -0.230566
  C       0.366618     -1.168363      0.558572
  C       2.264069      0.772421     -0.040161
  C       2.675101     -0.474937      0.448288
  C       1.719765     -1.432205      0.758860
  H       0.592421      2.019770     -0.608522
  C       3.222812      1.785710     -0.298075
  H      -1.092235      0.272138     -0.108813
  H      -0.375417     -1.922434      0.803274
  H       3.730869     -0.667982      0.602050
  H       2.035119     -2.389905      1.161308
  N       3.496191      2.835743     -0.817785
  O       4.380626      3.721940     -0.766646
  O       4.866475      1.674911      0.946106
  S       5.956715      2.594920      0.384777
  O       6.675845      2.059227     -0.773954
17
Coordinates from ORCA-job orca E -948.134801801055
  C      -0.031387      0.081235      0.078395
  C       0.910551      1.052705     -0.221030
  C       0.369696     -1.160097      0.572040
  C       2.277599      0.757798     -0.064833
  C       2.683926     -0.497189      0.409358
  C       1.723711     -1.442530      0.740446
  H       0.609788      2.028557     -0.588447
  C       3.239154      1.764519     -0.337527
  H      -1.086126      0.299713     -0.058865
  H      -0.376104     -1.905568      0.831374
  H       3.739926     -0.705084      0.541734
  H       2.034834     -2.405148      1.134302
  N       3.507354      2.806178     -0.879214
  O       4.363976      3.717958     -0.797447
  O       4.817184      1.746256      0.984308
  S       5.914076      2.631072      0.429309
  O       6.676241      2.026627     -0.703206
17
Coordinates from ORCA-job orca E -948.135883604198
  C      -0.038801      0.071746      0.075256
  C       0.894340      1.058233     -0.202675
  C       0.372023     -1.172183      0.553365
  C       2.262367      0.780642     -0.027721
  C       2.678842     -0.473475      0.441579
  C       1.726995     -1.438325      0.738777
  H       0.585287      2.034155     -0.562832
  C       3.217337      1.793302     -0.306264
  H      -1.094546      0.278954     -0.071272
  H      -0.366815     -1.933515      0.784975
  H       3.735998     -0.668652      0.582620
  H       2.045931     -2.404923      1.116369
  N       3.492679      2.821837     -0.868675
  O       4.385608      3.700660     -0.847347
  O       4.827241      1.738368      0.956542
  S       5.932725      2.620542      0.397778
  O       6.717188      1.989636     -0.689777
17
Coordinates from ORCA-job orca E -948.136259121287
  C      -0.047691      0.065105      0.083039
  C       0.874713      1.065840     -0.180225
  C       0.376642     -1.182057      0.540040
  C       2.245015      0.801711     -0.004429
  C       2.674899     -0.452572      0.453639
  C       1.733928     -1.434642      0.727715
  H       0.555129      2.043250     -0.526856
  C       3.193113      1.819423     -0.288586
  H      -1.105609      0.262737     -0.060736
  H      -0.353502     -1.957171      0.752821
  H       3.734166     -0.635033      0.595131
  H       2.063164     -2.404737      1.087159
  N       3.489461      2.821836     -0.885142
  O       4.412184      3.668796     -0.916726
  O       4.822724      1.745438      0.945518
  S       5.940094      2.618007      0.388926
  O       6.765969      1.951070     -0.640590
17
Coordinates from ORCA-job orca E -948.136303436445
  C      -0.050091      0.067304      0.096185
  C       0.869940      1.070218     -0.167525
  C       0.378617     -1.182881      0.540657
  C       2.241488      0.804958     -0.005487
  C       2.675714     -0.451791      0.441753
  C       1.737520     -1.436327      0.716000
  H       0.547455      2.050114     -0.504408
  C       3.188378      1.822829     -0.293112
  H      -1.109304      0.265618     -0.036926
  H      -0.349492     -1.959843      0.753784
  H       3.736411     -0.633732      0.573390
  H       2.069865     -2.408859      1.065810
  N       3.495941      2.806280     -0.915289
  O       4.426093      3.645307     -0.958391
  O       4.802608      1.762906      0.951377
  S       5.928373      2.630787      0.401582
  O       6.784884      1.944114     -0.588703
17
Coordinates from ORCA-job orca E -948.136325895912
  C      -0.051520      0.072664      0.115324
  C       0.868198      1.074016     -0.155822
  C       0.379617     -1.181199      0.546832
  C       2.240819      0.802708     -0.016273
  C       2.677413     -0.457612      0.418427
  C       1.740163     -1.440412      0.701260
  H       0.544491      2.057124     -0.482018
  C       3.188246      1.817788     -0.310991
  H      -1.111923      0.275042     -0.001040
  H      -0.347935     -1.956857      0.766600
  H       3.739480     -0.643245      0.534153
  H       2.073959     -2.415873      1.041393
  N       3.509877      2.781646     -0.956365
  O       4.440415      3.620689     -0.999190
  O       4.775318      1.791237      0.966922
  S       5.910021      2.652670      0.424900
  O       6.797760      1.946616     -0.523414
17
Coordinates from ORCA-job orca E -948.136338074012
  C      -0.051139      0.078083      0.131230
  C       0.869516      1.076502     -0.147852
  C       0.380255     -1.178917      0.553119
  C       2.242445      0.798643     -0.026943
  C       2.679194     -0.464957      0.398120
  C       1.741577     -1.444698      0.689628
  H       0.546167      2.062273     -0.466311
  C       3.191457      1.810159     -0.328202
  H      -1.112079      0.285149      0.028957
  H      -0.347755     -1.952223      0.779580
  H       3.741941     -0.655509      0.500018
  H       2.075231     -2.422718      1.022444
  N       3.521416      2.761479     -0.988241
  O       4.450129      3.603404     -1.027224
  O       4.750786      1.818475      0.980948
  S       5.893038      2.672637      0.442961
  O       6.802219      1.949220     -0.471533
17
Coordinates from ORCA-job orca E -948.136342455392
  C      -0.050296      0.081231      0.139421
  C       0.871307      1.077479     -0.144387
  C       0.380491     -1.177540      0.556565
  C       2.244162      0.795702     -0.032857
  C       2.680228     -0.469740      0.387761
  C       1.741964     -1.447400      0.683853
  H       0.548670      2.064637     -0.459235
  C       3.194333      1.804983     -0.338036
  H      -1.111337      0.291268      0.044547
  H      -0.348143     -1.949223      0.786581
  H       3.743088     -0.663477      0.482584
  H       2.074980     -2.426902      1.012933
  N       3.526943      2.751740     -1.003555
  O       4.453542      3.596429     -1.040127
  O       4.737890      1.834592      0.988817
  S       5.884208      2.683649      0.451440
  O       6.802370      1.949572     -0.445605
17
Coordinates from ORCA-job orca E -948.136343239886
  C      -0.049888      0.081990      0.141027
  C       0.872050      1.077556     -0.144120
  C       0.380558     -1.177120      0.557468
  C       2.244845      0.794808     -0.034376
  C       2.680544     -0.471004      0.385647
  C       1.741996     -1.448029      0.682886
  H       0.549710      2.064961     -0.458504
  C       3.195453      1.803368     -0.340636
  H      -1.110909      0.292802      0.047686
  H      -0.348330     -1.948289      0.788387
  H       3.743398     -0.665523      0.479013
  H       2.074717     -2.427832      1.011357
  N       3.527724      2.750300     -1.006168
  O       4.453451      3.596083     -1.041620
  O       4.735067      1.837948      0.990385
  S       5.882284      2.685771      0.453010
  O       6.801726      1.949211     -0.440745
