 $CONTRL SCFTYP=rhf RUNTYP=optimize d5=.t. 
!dfttyp=pbe0
 mplevl=2
 maxit=100 icut=20 inttyp=hondo itol=30 gencon=.f. wide=1                                
 mult=1 icharg=0 exetyp=run fstint=.t. nzvar=0 $END                            
 $SYSTEM TIMLIM=100000 mwords=360 nojac=1  $END                                  
 $system mxbcst=-1 $end                                                         
 $p2p p2p=.t. dlb=.t. $end                                                      
 $smp                                                                           
  mkl64=21 smppar=1 mklnp=18 np=36 httnp=1 dianp=1                              
  pts=0x101                                                                     
 $end                                                                           
 $mpi mxgsum=0x40000 mnpdot=1d9 $end                                            
 $MOORTH nostf=1 nozero=1 syms=1 symden=1 symvec=1 tole=0 tolz=0 $end           
 $BASIS GBASIS=apvtzs extfil=.t. $END                                          
 $GUESS GUESS=huckel                                                            
 $END                                                                           
! $RIMP2 AUXBAS=cc-pvdz/C VERBOSE=.T. $END
 $MP2 method=1 $END
 $MP2GRD dblbf=0 fused=0 asysnc=1 tol1=1d-12 tol2=1d-12 $END
!$FORCE NVIB=2 VIBSIZ=0.005 $END
 $trans mptran=2 dirtrf=.t. mode=112 cuttrf=1d-20 $end
 $DATA
 C7NH5O
C1
CARBON          6.0     -0.082734708        -0.070642114         0.352379607
CARBON          6.0      0.782472666         1.021935175         0.417553955
CARBON          6.0      0.421197371        -1.376236662         0.406102944
CARBON          6.0      2.173885213         0.813079367         0.538037744
CARBON          6.0      2.676679978        -0.505698072         0.592332944
CARBON          6.0      1.800257644        -1.588890042         0.526009966
HYDROGEN        1.0      0.397049615         2.034356339         0.376355654
CARBON          6.0      3.065622949         1.920910257         0.603642866
HYDROGEN        1.0     -1.150541570         0.096505269         0.259820605
HYDROGEN        1.0     -0.255927550        -2.222202921         0.354837382
HYDROGEN        1.0      3.745041252        -0.664438464         0.685138465
HYDROGEN        1.0      2.193632181        -2.598933470         0.567751238
NITROGEN        7.0      3.814845937         2.824036500         0.649438592
OXYGEN          8.0      4.614819022         3.784518838         0.696598039
 $END

