19
Coordinates from ORCA-job mol
  C   -2.39461727829433     -0.77117935603759     -0.46154655949073
  C   -1.52357775371878      0.29947661642602     -0.53902259104700
  C   -1.94472448996026     -1.96606046565056      0.08965020213976
  C   -0.20247778761845      0.15850713700318     -0.07355478018379
  C   0.23050457068890     -1.05642817091816      0.47863941416812
  C   -0.64823002233466     -2.12339855571068      0.56177313756704
  H   -1.84918064986906      1.24486529839811     -0.95915696015947
  C   0.69277132589571      1.25630149717911     -0.16327878025589
  H   -3.41585598354119     -0.69256351755544     -0.81509286840401
  N   -2.88019167617777     -3.10650953091797      0.17591034363952
  H   1.24918401147472     -1.14534222865707      0.83615737022649
  H   -0.34073888728191     -3.07319658060643      0.98265663648706
  N   0.93055913675761      2.34180145433455     -0.62709231881611
  O   1.79154860791816      3.23219703650423     -0.59059471368327
  O   2.30970233282338      1.10523977834511      1.07058741018198
  S   3.41068336090722      2.06630947515533      0.64050684207950
  O   4.28118915433578      1.55629279058224     -0.43273843403301
  O   -4.01484825506960     -2.93677222041164     -0.25082532540610
  O   -2.45868971693545     -4.14421045746229      0.66855297498991
