17
Coordinates from ORCA-job orca_irc_IRC_Full E -948.172811792315
  C       0.016839      0.122217      0.119215
  C       0.970333      1.103496     -0.135162
  C       0.403817     -1.149853      0.537137
  C       2.326864      0.801909      0.038077
  C       2.714536     -0.481306      0.439462
  C       1.754937     -1.452975      0.682869
  H       0.661776      2.098966     -0.440667
  C       3.379720      1.806132     -0.135672
  H      -1.038648      0.353924      0.007955
  H      -0.346789     -1.904583      0.754610
  H       3.769463     -0.709342      0.547380
  H       2.066344     -2.444970      0.994740
  N       3.424460      2.713849     -1.039441
  O       4.584737      3.495737     -0.853971
  O       4.413976      1.738549      0.765899
  S       5.697919      2.775925      0.274573
  O       6.675503      1.955251     -0.450508
17
Coordinates from ORCA-job orca_irc_IRC_Full E -948.172746197550
  C       0.015766      0.121383      0.119801
  C       0.968523      1.103577     -0.135299
  C       0.403656     -1.150359      0.537970
  C       2.325778      0.803155      0.037308
  C       2.713649     -0.480159      0.438015
  C       1.755084     -1.452342      0.682541
  H       0.657995      2.098230     -0.441050
  C       3.379405      1.807033     -0.136160
  H      -1.039872      0.352160      0.009113
  H      -0.346354     -1.905460      0.756359
  H       3.768930     -0.708143      0.544518
  H       2.067380     -2.444025      0.994726
  N       3.425694      2.715105     -1.039697
  O       4.587585      3.494583     -0.855130
  O       4.414231      1.737693      0.764950
  S       5.699243      2.775082      0.275737
  O       6.679097      1.955417     -0.447204
17
Coordinates from ORCA-job orca_irc_IRC_Full E -948.172676956174
  C       0.014852      0.120521      0.120346
  C       0.966762      1.103445     -0.135390
  C       0.403398     -1.150863      0.538747
  C       2.324445      0.804479      0.036547
  C       2.713043     -0.479062      0.436602
  C       1.755070     -1.451859      0.682235
  H       0.654104      2.097466     -0.441486
  C       3.379293      1.808189     -0.136635
  H      -1.041205      0.350360      0.010272
  H      -0.346001     -1.906420      0.758074
  H       3.768190     -0.707013      0.541661
  H       2.068298     -2.443052      0.994780
  N       3.426913      2.716361     -1.039767
  O       4.590480      3.493484     -0.856319
  O       4.414616      1.736946      0.764021
  S       5.700635      2.774383      0.276861
  O       6.682895      1.955562     -0.444053
17
Coordinates from ORCA-job orca_irc_IRC_Full E -948.172604737453
  C       0.013794      0.119589      0.120851
  C       0.964954      1.103428     -0.135543
  C       0.403079     -1.151464      0.539490
  C       2.323443      0.805737      0.035873
  C       2.712087     -0.477983      0.435193
  C       1.755117     -1.451297      0.681894
  H       0.650231      2.096564     -0.441921
  C       3.379096      1.809174     -0.136862
  H      -1.042471      0.348544      0.011432
  H      -0.345718     -1.907397      0.759711
  H       3.767549     -0.706014      0.538891
  H       2.069082     -2.442153      0.994923
  N       3.428159      2.717841     -1.039872
  O       4.593363      3.492490     -0.857515
  O       4.415124      1.736350      0.763141
  S       5.702254      2.773714      0.277782
  O       6.686646      1.955805     -0.440972
17
Coordinates from ORCA-job orca_irc_IRC_Full E -948.172527893044
  C       0.012817      0.118636      0.121305
  C       0.963245      1.103193     -0.135665
  C       0.402723     -1.152100      0.540188
  C       2.322187      0.807056      0.035190
  C       2.711404     -0.476976      0.433803
  C       1.754939     -1.450879      0.681562
  H       0.646256      2.095627     -0.442404
  C       3.379122      1.810550     -0.137194
  H      -1.043821      0.346684      0.012621
  H      -0.345539     -1.908467      0.761314
  H       3.766706     -0.705080      0.536126
  H       2.069729     -2.441240      0.995150
  N       3.429381      2.719219     -1.039682
  O       4.596269      3.491597     -0.858743
  O       4.415781      1.735913      0.762314
  S       5.703948      2.773226      0.278659
  O       6.690641      1.955969     -0.438048
17
Coordinates from ORCA-job orca_irc_IRC_Full E -948.172447634632
  C       0.011772      0.117616      0.121725
  C       0.961482      1.103045     -0.135852
  C       0.402248     -1.152799      0.540840
  C       2.321284      0.808303      0.034566
  C       2.710408     -0.475993      0.432409
  C       1.754849     -1.450417      0.681203
  H       0.642354      2.094570     -0.442879
  C       3.379058      1.811598     -0.137162
  H      -1.045126      0.344830      0.013813
  H      -0.345430     -1.909548      0.762829
  H       3.765962     -0.704267      0.533469
  H       2.070227     -2.440400      0.995461
  N       3.430633      2.720919     -1.039644
  O       4.599074      3.490837     -0.859975
  O       4.416561      1.735683      0.761550
  S       5.705882      2.772745      0.279330
  O       6.694551      1.956205     -0.435189
17
Coordinates from ORCA-job orca_irc_IRC_Full E -948.172361550072
  C       0.010748      0.116581      0.122094
  C       0.959843      1.102700     -0.136033
  C       0.401765     -1.153559      0.541462
  C       2.320149      0.809561      0.033912
  C       2.709642     -0.475112      0.431015
  C       1.754510     -1.450070      0.680843
  H       0.638375      2.093471     -0.443389
  C       3.379247      1.813171     -0.137381
  H      -1.046501      0.342926      0.015052
  H      -0.345440     -1.910730      0.764307
  H       3.765035     -0.703499      0.530826
  H       2.070576     -2.439560      0.995862
  N       3.431853      2.722392     -1.039191
  O       4.601801      3.490245     -0.861265
  O       4.417519      1.735683      0.760886
  S       5.707922      2.772416      0.279981
  O       6.698744      1.956312     -0.432484
17
Coordinates from ORCA-job orca_irc_IRC_Full E -948.172271419493
  C       0.009705      0.115499      0.122436
  C       0.958168      1.102420     -0.136279
  C       0.401136     -1.154347      0.542038
  C       2.319382      0.810751      0.033276
  C       2.708613     -0.474253      0.429610
  C       1.754266     -1.449709      0.680474
  H       0.634529      2.092284     -0.443877
  C       3.379324      1.814219     -0.137134
  H      -1.047843      0.341048      0.016286
  H      -0.345517     -1.911917      0.765687
  H       3.764205     -0.702823      0.528315
  H       2.070781     -2.438791      0.996330
  N       3.433114      2.724283     -1.039014
  O       4.604268      3.489823     -0.862585
  O       4.418617      1.735961      0.760313
  S       5.710205      2.772020      0.280481
  O       6.702836      1.956458     -0.429859
17
Coordinates from ORCA-job orca_irc_IRC_Full E -948.172173245484
  C       0.008645      0.114412      0.122734
  C       0.956623      1.101961     -0.136545
  C       0.400495     -1.155206      0.542599
  C       2.318424      0.811891      0.032570
  C       2.707759     -0.473528      0.428182
  C       1.753762     -1.449438      0.680103
  H       0.630635      2.091059     -0.444386
  C       3.379705      1.815895     -0.137309
  H      -1.049259      0.339110      0.017575
  H      -0.345720     -1.913219      0.767022
  H       3.763211     -0.702153      0.525832
  H       2.070830     -2.438023      0.996881
  N       3.434361      2.725826     -1.038296
  O       4.606377      3.489689     -0.864085
  O       4.419970      1.736608      0.759924
  S       5.712681      2.771619      0.281100
  O       6.707290      1.956425     -0.427406
17
Coordinates from ORCA-job orca_irc_IRC_Full E -948.172072117511
  C       0.007631      0.113346      0.123011
  C       0.955127      1.101581     -0.136852
  C       0.399751     -1.156025      0.543102
  C       2.317864      0.812954      0.031864
  C       2.706753     -0.472839      0.426798
  C       1.753364     -1.449179      0.679757
  H       0.627061      2.089844     -0.444844
  C       3.379880      1.816653     -0.136856
  H      -1.050595      0.337290      0.018792
  H      -0.345962     -1.914465      0.768212
  H       3.762344     -0.701555      0.523583
  H       2.070774     -2.437337      0.997441
  N       3.435622      2.727910     -1.038126
  O       4.607965      3.489755     -0.865635
  O       4.421446      1.737532      0.759686
  S       5.715307      2.771047      0.281709
  O       6.711457      1.956415     -0.425144
17
Coordinates from ORCA-job orca_irc_IRC_Full E -948.171980288038
  C       0.006774      0.112504      0.123216
  C       0.953984      1.101311     -0.137131
  C       0.399117     -1.156755      0.543511
  C       2.317727      0.813733      0.031310
  C       2.705776     -0.472224      0.425655
  C       1.753032     -1.448923      0.679467
  H       0.624288      2.088874     -0.445197
  C       3.379698      1.816961     -0.136494
  H      -1.051653      0.335853      0.019757
  H      -0.346176     -1.915446      0.769101
  H       3.761727     -0.701104      0.521870
  H       2.070669     -2.436860      0.997920
  N       3.436652      2.729666     -1.038037
  O       4.608974      3.490005     -0.866977
  O       4.422849      1.738448      0.759704
  S       5.717596      2.770493      0.282232
  O       6.714755      1.956394     -0.423409
17
Coordinates from ORCA-job orca_irc_IRC_Full E -948.171897403948
  C       0.006239      0.112014      0.123337
  C       0.953294      1.101303     -0.137324
  C       0.398692     -1.157181      0.543730
  C       2.318176      0.814196      0.031021
  C       2.704928     -0.471766      0.424994
  C       1.752991     -1.448720      0.679304
  H       0.622887      2.088319     -0.445365
  C       3.379116      1.815982     -0.135536
  H      -1.052172      0.335105      0.020258
  H      -0.346268     -1.915923      0.769535
  H       3.761565     -0.700903      0.521016
  H       2.070592     -2.436663      0.998189
  N       3.437305      2.731370     -1.038710
  O       4.609399      3.490197     -0.867725
  O       4.423697      1.739039      0.759767
  S       5.719022      2.770067      0.282435
  O       6.716327      1.956491     -0.422429
17
Coordinates from ORCA-job orca_irc_IRC_Full E -948.171587375808
  C       0.004086      0.109982      0.123743
  C       0.950528      1.099829     -0.138149
  C       0.396697     -1.158991      0.544822
  C       2.316106      0.815575      0.028962
  C       2.703290     -0.471163      0.421890
  C       1.751025     -1.448432      0.678571
  H       0.615311      2.085642     -0.446306
  C       3.380116      1.820502     -0.138417
  H      -1.055315      0.330866      0.023069
  H      -0.347313     -1.919233      0.771814
  H       3.759117     -0.699279      0.516483
  H       2.069895     -2.435108      0.999611
  N       3.441138      2.734540     -1.035661
  O       4.607632      3.492283     -0.873283
  O       4.430554      1.743959      0.762256
  S       5.725431      2.766358      0.285727
  O       6.727491      1.955599     -0.418634
17
Coordinates from ORCA-job orca_irc_IRC_Full E -948.169644333097
  C      -0.002444      0.106922      0.124918
  C       0.945510      1.097661     -0.140295
  C       0.392300     -1.162121      0.546834
  C       2.315819      0.817392      0.022590
  C       2.699021     -0.470871      0.415396
  C       1.747648     -1.448786      0.678507
  H       0.603395      2.081928     -0.447589
  C       3.388580      1.822492     -0.141688
  H      -1.065288      0.324044      0.027176
  H      -0.349318     -1.925515      0.774685
  H       3.755026     -0.694595      0.510146
  H       2.069058     -2.434167      1.002250
  N       3.451386      2.737670     -1.029654
  O       4.582548      3.509457     -0.900619
  O       4.443901      1.760191      0.769687
  S       5.750771      2.748425      0.313260
  O       6.747875      1.952801     -0.419109
17
Coordinates from ORCA-job orca_irc_IRC_Full E -948.166167439239
  C      -0.010360      0.103338      0.126819
  C       0.936899      1.095288     -0.141618
  C       0.389356     -1.164717      0.548321
  C       2.312551      0.816152      0.014646
  C       2.695193     -0.471147      0.410084
  C       1.745349     -1.449319      0.679354
  H       0.595189      2.080184     -0.448703
  C       3.390276      1.817597     -0.147299
  H      -1.074223      0.319666      0.029705
  H      -0.350182     -1.929274      0.776157
  H       3.752604     -0.690171      0.505860
  H       2.068742     -2.433816      1.004075
  N       3.463673      2.743290     -1.027838
  O       4.555004      3.526415     -0.928129
  O       4.465673      1.776496      0.783960
  S       5.777997      2.732165      0.343694
  O       6.762050      1.950779     -0.422592
17
Coordinates from ORCA-job orca_irc_IRC_Full E -948.161662762829
  C      -0.016514      0.100877      0.128401
  C       0.927340      1.093053     -0.141948
  C       0.387547     -1.166321      0.549198
  C       2.304079      0.811963      0.007363
  C       2.692550     -0.472348      0.406708
  C       1.744512     -1.449248      0.680159
  H       0.590352      2.078999     -0.449435
  C       3.381488      1.818910     -0.166261
  H      -1.079981      0.317069      0.031166
  H      -0.350538     -1.931378      0.776939
  H       3.751512     -0.687037      0.503178
  H       2.068665     -2.433496      1.005137
  N       3.471662      2.744016     -1.025382
  O       4.534597      3.539046     -0.948202
  O       4.499085      1.789405      0.807859
  S       5.797842      2.719869      0.367814
  O       6.771591      1.949550     -0.426198
17
Coordinates from ORCA-job orca_irc_IRC_Full E -948.155154624501
  C      -0.021459      0.098727      0.129849
  C       0.919853      1.091237     -0.141713
  C       0.386573     -1.167114      0.549701
  C       2.295863      0.808817      0.001034
  C       2.691640     -0.472964      0.404078
  C       1.743570     -1.449533      0.680841
  H       0.587071      2.078217     -0.450019
  C       3.352720      1.811260     -0.190363
  H      -1.083948      0.315356      0.032093
  H      -0.350803     -1.932837      0.777503
  H       3.750607     -0.684744      0.501372
  H       2.068692     -2.433089      1.005774
  N       3.481934      2.751345     -1.027847
  O       4.518403      3.548532     -0.963892
  O       4.542594      1.799091      0.841232
  S       5.814151      2.711868      0.385778
  O       6.778326      1.948760     -0.428922
17
Coordinates from ORCA-job orca_irc_IRC_Full E -948.148263108488
  C      -0.025805      0.096960      0.131151
  C       0.912358      1.089654     -0.141448
  C       0.385567     -1.167844      0.550150
  C       2.287739      0.805310     -0.004803
  C       2.690460     -0.473606      0.401793
  C       1.742923     -1.449579      0.681348
  H       0.584437      2.077329     -0.450452
  C       3.323254      1.806838     -0.217175
  H      -1.087102      0.313905      0.032860
  H      -0.350913     -1.933987      0.778001
  H       3.750116     -0.682821      0.499882
  H       2.068794     -2.432727      1.006280
  N       3.490782      2.754531     -1.027196
  O       4.505200      3.558470     -0.978419
  O       4.587455      1.809484      0.873426
  S       5.826611      2.702154      0.401893
  O       6.783911      1.948857     -0.430796
17
Coordinates from ORCA-job orca_irc_IRC_Full E -948.142507191812
  C      -0.029212      0.095905      0.132208
  C       0.906942      1.087932     -0.141037
  C       0.384602     -1.168434      0.550599
  C       2.279848      0.801851     -0.009935
  C       2.689723     -0.474339      0.399631
  C       1.742780     -1.449427      0.681639
  H       0.581736      2.076579     -0.450849
  C       3.289610      1.805042     -0.249182
  H      -1.090919      0.312551      0.033493
  H      -0.351427     -1.935641      0.778756
  H       3.748872     -0.680993      0.498529
  H       2.069026     -2.432551      1.006744
  N       3.502802      2.755064     -1.021150
  O       4.491065      3.567862     -0.993765
  O       4.625191      1.813897      0.908650
  S       5.845000      2.699955      0.415839
  O       6.790149      1.947676     -0.433672
17
Coordinates from ORCA-job orca_irc_IRC_Full E -948.138788827118
  C      -0.033387      0.093040      0.133797
  C       0.898162      1.085958     -0.141164
  C       0.383802     -1.170239      0.552118
  C       2.271299      0.799212     -0.015823
  C       2.688209     -0.474750      0.396429
  C       1.742699     -1.449273      0.682006
  H       0.580632      2.076562     -0.451200
  C       3.259923      1.804708     -0.276494
  H      -1.092396      0.312101      0.033759
  H      -0.351739     -1.936410      0.779234
  H       3.748665     -0.680222      0.498059
  H       2.069084     -2.432409      1.006946
  N       3.509519      2.754197     -1.018809
  O       4.479228      3.577235     -1.008232
  O       4.670040      1.825819      0.936560
  S       5.857685      2.689093      0.435319
  O       6.794364      1.948303     -0.436008
17
Coordinates from ORCA-job orca_irc_IRC_Full E -948.136343225920
  C      -0.049888      0.081990      0.141027
  C       0.872050      1.077556     -0.144120
  C       0.380558     -1.177120      0.557468
  C       2.244845      0.794808     -0.034376
  C       2.680544     -0.471004      0.385647
  C       1.741996     -1.448029      0.682886
  H       0.549710      2.064961     -0.458504
  C       3.195453      1.803368     -0.340636
  H      -1.110909      0.292802      0.047686
  H      -0.348330     -1.948289      0.788387
  H       3.743398     -0.665523      0.479013
  H       2.074717     -2.427832      1.011357
  N       3.527724      2.750300     -1.006168
  O       4.453451      3.596083     -1.041620
  O       4.735067      1.837948      0.990385
  S       5.882284      2.685771      0.453010
  O       6.801726      1.949211     -0.440745
17
Coordinates from ORCA-job orca_irc_IRC_Full E -948.137749958557
  C      -0.066389      0.070940      0.148257
  C       0.845938      1.069153     -0.147077
  C       0.377315     -1.184001      0.562819
  C       2.218391      0.790404     -0.052928
  C       2.672880     -0.467259      0.374865
  C       1.741294     -1.446785      0.683766
  H       0.518788      2.053360     -0.465808
  C       3.130983      1.802028     -0.404777
  H      -1.129422      0.273503      0.061612
  H      -0.344921     -1.960168      0.797540
  H       3.738132     -0.650825      0.459968
  H       2.080351     -2.423255      1.015767
  N       3.545929      2.746404     -0.993527
  O       4.427674      3.614931     -1.075008
  O       4.800095      1.850078      1.044211
  S       5.906882      2.682449      0.470700
  O       6.809089      1.950120     -0.445482
17
Coordinates from ORCA-job orca_irc_IRC_Full E -948.137881639623
  C      -0.067085      0.070385      0.148630
  C       0.844986      1.068697     -0.147312
  C       0.377163     -1.184286      0.563046
  C       2.217447      0.790275     -0.053630
  C       2.672516     -0.466921      0.374416
  C       1.741221     -1.446783      0.683809
  H       0.518636      2.053313     -0.465833
  C       3.130377      1.802755     -0.406727
  H      -1.129580      0.273421      0.061700
  H      -0.344936     -1.960257      0.797596
  H       3.738061     -0.650797      0.459865
  H       2.080346     -2.423239      1.015784
  N       3.546368      2.745997     -0.992678
  O       4.426430      3.615521     -1.076488
  O       4.801178      1.849701      1.046637
  S       5.910560      2.683195      0.471721
  O       6.809322      1.950099     -0.445637
17
Coordinates from ORCA-job orca_irc_IRC_Full E -948.138086165247
  C      -0.068307      0.069403      0.149326
  C       0.843170      1.067855     -0.147837
  C       0.376859     -1.184843      0.563509
  C       2.215828      0.790248     -0.055226
  C       2.671888     -0.466406      0.373536
  C       1.741050     -1.446699      0.683855
  H       0.518150      2.053107     -0.465897
  C       3.127815      1.802453     -0.409978
  H      -1.130236      0.273177      0.061938
  H      -0.345063     -1.960634      0.797790
  H       3.737672     -0.650611      0.459563
  H       2.080362     -2.423167      1.015824
  N       3.548119      2.746426     -0.991492
  O       4.423904      3.617053     -1.079781
  O       4.805541      1.850441      1.051034
  S       5.915956      2.683369      0.474978
  O       6.810301      1.949904     -0.446242
17
Coordinates from ORCA-job orca_irc_IRC_Full E -948.138203861298
  C      -0.068824      0.069058      0.149593
  C       0.842388      1.067498     -0.148092
  C       0.376687     -1.185090      0.563720
  C       2.215026      0.790103     -0.055995
  C       2.671594     -0.466267      0.373139
  C       1.740969     -1.446632      0.683862
  H       0.517785      2.052948     -0.465947
  C       3.126734      1.802899     -0.411992
  H      -1.130701      0.272991      0.062101
  H      -0.345161     -1.960921      0.797931
  H       3.737385     -0.650449      0.459357
  H       2.080386     -2.423092      1.015843
  N       3.548573      2.745851     -0.990501
  O       4.422886      3.618122     -1.081469
  O       4.808234      1.851157      1.053170
  S       5.918202      2.683029      0.476647
  O       6.810847      1.949871     -0.446467
17
Coordinates from ORCA-job orca_irc_IRC_Full E -948.138380735538
  C      -0.069641      0.068552      0.149982
  C       0.841229      1.066967     -0.148490
  C       0.376393     -1.185453      0.564031
  C       2.213855      0.789877     -0.057187
  C       2.671122     -0.466058      0.372524
  C       1.740810     -1.446544      0.683870
  H       0.517143      2.052677     -0.466045
  C       3.124725      1.803256     -0.415049
  H      -1.131453      0.272661      0.062385
  H      -0.345310     -1.961396      0.798170
  H       3.736926     -0.650167      0.459003
  H       2.080433     -2.422957      1.015878
  N       3.549637      2.745355     -0.989060
  O       4.421157      3.619714     -1.084124
  O       4.812451      1.852206      1.056663
  S       5.921787      2.682574      0.479140
  O       6.811746      1.949811     -0.446791
17
Coordinates from ORCA-job orca_irc_IRC_Full E -948.138568973208
  C      -0.070494      0.068083      0.150327
  C       0.840117      1.066463     -0.148898
  C       0.376026     -1.185779      0.564306
  C       2.212769      0.789656     -0.058406
  C       2.670613     -0.465874      0.371903
  C       1.740568     -1.446473      0.683865
  H       0.516307      2.052334     -0.466201
  C       3.122086      1.803011     -0.418064
  H      -1.132289      0.272226      0.062759
  H      -0.345448     -1.961927      0.798458
  H       3.736441     -0.649813      0.458550
  H       2.080495     -2.422777      1.015929
  N       3.551324      2.745516     -0.987751
  O       4.419196      3.621285     -1.086898
  O       4.816996      1.853251      1.060551
  S       5.925492      2.682178      0.481542
  O       6.812811      1.949715     -0.447071
17
Coordinates from ORCA-job orca_irc_IRC_Full E -948.138754437837
  C      -0.071318      0.067626      0.150665
  C       0.839011      1.065962     -0.149286
  C       0.375682     -1.186106      0.564575
  C       2.211641      0.789401     -0.059573
  C       2.670123     -0.465702      0.371306
  C       1.740350     -1.446397      0.683861
  H       0.515512      2.052008     -0.466354
  C       3.119891      1.803298     -0.421216
  H      -1.133084      0.271816      0.063114
  H      -0.345582     -1.962428      0.798730
  H       3.735979     -0.649481      0.458116
  H       2.080548     -2.422607      1.015979
  N       3.552560      2.745105     -0.986256
  O       4.417443      3.622900     -1.089553
  O       4.821353      1.854257      1.064268
  S       5.929073      2.681801      0.483863
  O       6.813827      1.949622     -0.447339
17
Coordinates from ORCA-job orca_irc_IRC_Full E -948.138946615093
  C      -0.072170      0.067168      0.150987
  C       0.837906      1.065471     -0.149689
  C       0.375302     -1.186422      0.564823
  C       2.210556      0.789179     -0.060764
  C       2.669610     -0.465525      0.370697
  C       1.740088     -1.446325      0.683846
  H       0.514589      2.051631     -0.466554
  C       3.117340      1.803142     -0.424261
  H      -1.133930      0.271344      0.063530
  H      -0.345712     -1.962955      0.799032
  H       3.735503     -0.649110      0.457611
  H       2.080602     -2.422413      1.016043
  N       3.554196      2.745191     -0.984902
  O       4.415547      3.624458     -1.092250
  O       4.825907      1.855270      1.068188
  S       5.932738      2.681462      0.486123
  O       6.814938      1.949507     -0.447563
17
Coordinates from ORCA-job orca_irc_IRC_Full E -948.139137382265
  C      -0.073001      0.066724      0.151300
  C       0.836805      1.064979     -0.150079
  C       0.374930     -1.186738      0.565067
  C       2.209440      0.788931     -0.061924
  C       2.669105     -0.465363      0.370103
  C       1.739838     -1.446247      0.683830
  H       0.513680      2.051262     -0.466755
  C       3.115085      1.803367     -0.427424
  H      -1.134759      0.270880      0.063940
  H      -0.345838     -1.963467      0.799328
  H       3.735037     -0.648746      0.457112
  H       2.080652     -2.422222      1.016108
  N       3.555517      2.744856     -0.983398
  O       4.413794      3.626069     -1.094882
  O       4.830374      1.856274      1.072013
  S       5.936310      2.681132      0.488351
  O       6.816040      1.949383     -0.447789
17
Coordinates from ORCA-job orca_irc_IRC_Full E -948.139331623217
  C      -0.073857      0.066265      0.151609
  C       0.835691      1.064491     -0.150486
  C       0.374540     -1.187052      0.565301
  C       2.208350      0.788719     -0.063105
  C       2.668582     -0.465185      0.369494
  C       1.739563     -1.446171      0.683806
  H       0.512677      2.050857     -0.466996
  C       3.112649      1.803293     -0.430473
  H      -1.135623      0.270373      0.064395
  H      -0.345963     -1.963993      0.799644
  H       3.734561     -0.648357      0.456559
  H       2.080697     -2.422013      1.016184
  N       3.557083      2.744868     -0.982011
  O       4.411958      3.627616     -1.097517
  O       4.834942      1.857282      1.075942
  S       5.939958      2.680836      0.490531
  O       6.817202      1.949246     -0.447976
17
Coordinates from ORCA-job orca_irc_IRC_Full E -948.139525321961
  C      -0.074706      0.065815      0.151913
  C       0.834576      1.064003     -0.150890
  C       0.374150     -1.187368      0.565533
  C       2.207235      0.788485     -0.064271
  C       2.668058     -0.465012      0.368889
  C       1.739295     -1.446091      0.683780
  H       0.511669      2.050448     -0.467243
  C       3.110388      1.803455     -0.433606
  H      -1.136483      0.269865      0.064852
  H      -0.346088     -1.964516      0.799961
  H       3.734085     -0.647968      0.456000
  H       2.080740     -2.421803      1.016261
  N       3.558466      2.744624     -0.980525
  O       4.410199      3.629199     -1.100121
  O       4.839472      1.858282      1.079840
  S       5.943589      2.680547      0.492679
  O       6.818361      1.949109     -0.448152
17
Coordinates from ORCA-job orca_irc_IRC_Full E -948.139720074395
  C      -0.075568      0.065355      0.152215
  C       0.833450      1.063514     -0.151307
  C       0.373753     -1.187686      0.565762
  C       2.206131      0.788277     -0.065449
  C       2.667522     -0.464828      0.368273
  C       1.739015     -1.446008      0.683749
  H       0.510604      2.050018     -0.467517
  C       3.108081      1.803491     -0.436669
  H      -1.137363      0.269332      0.065337
  H      -0.346212     -1.965045      0.800290
  H       3.733601     -0.647565      0.455407
  H       2.080780     -2.421584      1.016346
  N       3.559941      2.744531     -0.979094
  O       4.408415      3.630744     -1.102710
  O       4.844045      1.859290      1.083772
  S       5.947253      2.680283      0.494803
  O       6.819560      1.948957     -0.448310
17
Coordinates from ORCA-job orca_irc_IRC_Full E -948.139914651621
  C      -0.076435      0.064892      0.152515
  C       0.832319      1.063022     -0.151728
  C       0.373352     -1.188006      0.565989
  C       2.205019      0.788071     -0.066629
  C       2.666979     -0.464639      0.367651
  C       1.738732     -1.445924      0.683714
  H       0.509510      2.049577     -0.467806
  C       3.105838      1.803583     -0.439742
  H      -1.138252      0.268787      0.065836
  H      -0.346338     -1.965579      0.800626
  H       3.733113     -0.647154      0.454796
  H       2.080817     -2.421359      1.016434
  N       3.561364      2.744376     -0.977638
  O       4.406658      3.632293     -1.105282
  O       4.848627      1.860303      1.087707
  S       5.950923      2.680036      0.496917
  O       6.820782      1.948795     -0.448461
17
Coordinates from ORCA-job orca_irc_IRC_Full E -948.140108714572
  C      -0.077309      0.064421      0.152814
  C       0.831176      1.062533     -0.152162
  C       0.372945     -1.188329      0.566216
  C       2.203918      0.787885     -0.067816
  C       2.666427     -0.464443      0.367021
  C       1.738443     -1.445836      0.683674
  H       0.508371      2.049119     -0.468118
  C       3.103585      1.803581     -0.442740
  H      -1.139153      0.268223      0.066356
  H      -0.346463     -1.966116      0.800973
  H       3.732617     -0.646733      0.454156
  H       2.080852     -2.421125      1.016527
  N       3.562849      2.744345     -0.976236
  O       4.404888      3.633795     -1.107823
  O       4.853218      1.861323      1.091648
  S       5.954624      2.679797      0.498989
  O       6.822020      1.948634     -0.448581
17
Coordinates from ORCA-job orca_irc_IRC_Full E -948.140302072269
  C      -0.078189      0.063945      0.153112
  C       0.830019      1.062039     -0.152604
  C       0.372534     -1.188657      0.566444
  C       2.202795      0.787698     -0.069005
  C       2.665866     -0.464244      0.366384
  C       1.738150     -1.445743      0.683629
  H       0.507194      2.048647     -0.468450
  C       3.101454      1.803712     -0.445780
  H      -1.140067      0.267644      0.066894
  H      -0.346588     -1.966658      0.801329
  H       3.732113     -0.646302      0.453493
  H       2.080884     -2.420884      1.016625
  N       3.564221      2.744173     -0.974779
  O       4.403168      3.635317     -1.110342
  O       4.857827      1.862357      1.095591
  S       5.958335      2.679575      0.501058
  O       6.823292      1.948458     -0.448699
17
Coordinates from ORCA-job orca_irc_IRC_Full E -948.140494244538
  C      -0.079078      0.063462      0.153409
  C       0.828862      1.061547     -0.153060
  C       0.372118     -1.188988      0.566673
  C       2.201696      0.787541     -0.070205
  C       2.665291     -0.464027      0.365732
  C       1.737853     -1.445651      0.683580
  H       0.505974      2.048160     -0.468805
  C       3.099271      1.803680     -0.448703
  H      -1.140993      0.267046      0.067452
  H      -0.346714     -1.967206      0.801697
  H       3.731600     -0.645862      0.452802
  H       2.080915     -2.420635      1.016726
  N       3.565692      2.744188     -0.973408
  O       4.401429      3.636775     -1.112822
  O       4.862431      1.863392      1.099538
  S       5.962078      2.679379      0.503089
  O       6.824584      1.948275     -0.448794
17
Coordinates from ORCA-job orca_irc_IRC_Full E -948.140685413689
  C      -0.079969      0.062974      0.153704
  C       0.827683      1.061049     -0.153526
  C       0.371697     -1.189324      0.566904
  C       2.200566      0.787375     -0.071409
  C       2.664708     -0.463814      0.365072
  C       1.737552     -1.445550      0.683525
  H       0.504718      2.047658     -0.469181
  C       3.097239      1.803833     -0.451695
  H      -1.141931      0.266433      0.068027
  H      -0.346841     -1.967760      0.802076
  H       3.731076     -0.645412      0.452087
  H       2.080946     -2.420378      1.016831
  N       3.567018      2.744012     -0.971960
  O       4.399745      3.638258     -1.115282
  O       4.867065      1.864450      1.103487
  S       5.965834      2.679185      0.505119
  O       6.825904      1.948084     -0.448881
17
Coordinates from ORCA-job orca_irc_IRC_Full E -948.140874792816
  C      -0.080872      0.062477      0.153998
  C       0.826509      1.060555     -0.154007
  C       0.371273     -1.189663      0.567139
  C       2.199464      0.787243     -0.072622
  C       2.664113     -0.463579      0.364397
  C       1.737247     -1.445451      0.683467
  H       0.503420      2.047143     -0.469580
  C       3.095131      1.803786     -0.454549
  H      -1.142880      0.265803      0.068622
  H      -0.346970     -1.968320      0.802468
  H       3.730543     -0.644953      0.451345
  H       2.080975     -2.420112      1.016939
  N       3.568464      2.744063     -0.970619
  O       4.398043      3.639665     -1.117693
  O       4.871687      1.865509      1.107435
  S       5.969616      2.679021      0.507108
  O       6.827245      1.947885     -0.448948
17
Coordinates from ORCA-job orca_irc_IRC_Full E -948.141062933894
  C      -0.081775      0.061976      0.154292
  C       0.825308      1.060053     -0.154499
  C       0.370842     -1.190007      0.567377
  C       2.198326      0.787100     -0.073842
  C       2.663507     -0.463351      0.363713
  C       1.736938     -1.445342      0.683402
  H       0.502085      2.046614     -0.470000
  C       3.093190      1.803958     -0.457489
  H      -1.143841      0.265158      0.069234
  H      -0.347098     -1.968886      0.802871
  H       3.729998     -0.644483      0.450578
  H       2.081006     -2.419839      1.017050
  N       3.569741      2.743886     -0.969187
  O       4.396404      3.641103     -1.120084
  O       4.876349      1.866596      1.111391
  S       5.973414      2.678859      0.509099
  O       6.828614      1.947679     -0.449007
17
Coordinates from ORCA-job orca_irc_IRC_Full E -948.141248679680
  C      -0.082690      0.061467      0.154583
  C       0.824117      1.059558     -0.155006
  C       0.370409     -1.190354      0.567619
  C       2.197219      0.786993     -0.075071
  C       2.662889     -0.463098      0.363012
  C       1.736626     -1.445237      0.683334
  H       0.500711      2.046072     -0.470444
  C       3.091153      1.803900     -0.460269
  H      -1.144810      0.264497      0.069864
  H      -0.347228     -1.969458      0.803288
  H       3.729445     -0.644006      0.449785
  H       2.081037     -2.419556      1.017163
  N       3.571153      2.743968     -0.967880
  O       4.394749      3.642453     -1.122416
  O       4.880991      1.867679      1.115342
  S       5.977234      2.678735      0.511044
  O       6.830004      1.947463     -0.449049
