3
Coordinates from ORCA-job orca E -548.671125319128
  S       0.000000     -0.000000      0.464422
  O       0.000000      1.351922     -0.413795
  O       0.000000     -1.351922     -0.413795
3
Coordinates from ORCA-job orca E -548.718104114606
  S       0.000000     -0.000000      0.422715
  O       0.000000      1.266309     -0.392942
  O       0.000000     -1.266309     -0.392942
3
Coordinates from ORCA-job orca E -548.727426569376
  S       0.000000     -0.000000      0.363059
  O       0.000000      1.191768     -0.363113
  O       0.000000     -1.191768     -0.363113
3
Coordinates from ORCA-job orca E -548.730959869505
  S       0.000000     -0.000000      0.375542
  O       0.000000      1.231020     -0.369355
  O       0.000000     -1.231020     -0.369355
3
Coordinates from ORCA-job orca E -548.731125779409
  S       0.000000      0.000000      0.370375
  O       0.000000      1.227362     -0.366771
  O       0.000000     -1.227362     -0.366771
3
Coordinates from ORCA-job orca E -548.731128015777
  S       0.000000      0.000000      0.369468
  O       0.000000      1.227112     -0.366318
  O       0.000000     -1.227112     -0.366318
3
Coordinates from ORCA-job orca E -548.731128087011
  S       0.000000      0.000000      0.369442
  O       0.000000      1.227167     -0.366305
  O       0.000000     -1.227167     -0.366305
