 $CONTRL SCFTYP=rhf RUNTYP=optimize d5=.t. 
!dfttyp=pbe0
 mplevl=2
 maxit=100 icut=20 inttyp=hondo itol=30 gencon=.f. wide=1                                
 mult=1 icharg=0 exetyp=run fstint=.t. nzvar=0 $END                            
 $SYSTEM TIMLIM=100000 mwords=360 nojac=1  $END                                  
 $system mxbcst=-1 $end                                                         
 $p2p p2p=.t. dlb=.t. $end                                                      
 $smp                                                                           
  mkl64=21 smppar=1 mklnp=18 np=36 httnp=1 dianp=1                              
  pts=0x101                                                                     
 $end                                                                           
 $mpi mxgsum=0x40000 mnpdot=1d9 $end                                            
 $MOORTH nostf=1 nozero=1 syms=1 symden=1 symvec=1 tole=0 tolz=0 $end           
 $BASIS GBASIS=apvtzs extfil=.t. $END                                          
 $GUESS GUESS=huckel                                                            
 $END                                                                           
! $RIMP2 AUXBAS=cc-pvdz/C VERBOSE=.T. $END
 $MP2 method=1 $END
 $MP2GRD dblbf=0 fused=0 asysnc=1 tol1=1d-12 tol2=1d-12 $END
!$FORCE NVIB=2 VIBSIZ=0.005 $END
 $trans mptran=2 dirtrf=.t. mode=112 cuttrf=1d-20 $end
 $DATA
 C7NH5SO3
C1
CARBON          6.0      0.610642000        -1.424405000         0.030662000
CARBON          6.0      1.364540000        -0.825255000        -0.971826000
CARBON          6.0      0.609952000        -0.901358000         1.320927000
CARBON          6.0      2.122588000         0.308212000        -0.675899000
CARBON          6.0      2.129663000         0.840813000         0.617001000
CARBON          6.0      1.371144000         0.230110000         1.607353000
HYDROGEN        1.0      1.373280000        -1.223330000        -1.981625000
CARBON          6.0      3.599389000         1.821422000        -1.896145000
HYDROGEN        1.0      0.020375000        -2.306274000        -0.200842000
HYDROGEN        1.0      0.019576000        -1.372380000         2.101049000
HYDROGEN        1.0      2.724442000         1.722975000         0.836449000
HYDROGEN        1.0      1.377071000         0.644288000         2.611578000
NITROGEN        7.0      2.869226000         0.887025000        -1.706168000
OXYGEN          8.0      4.321768000         2.690263000        -2.225473000
OXYGEN          8.0      4.300925000         3.976274000         0.835202000
SULFUR         16.0      5.609807000         4.094661000         0.171197000
OXYGEN          8.0      6.571112000         3.001858000         0.379461000
 $END

