14
Coordinates from ORCA-job mol E -399.656285209921
  C       1.804373     -0.430949      0.365941
  C       2.883883      0.376435      0.028869
  C       1.993875     -1.778577      0.657117
  C       4.166461     -0.170760     -0.017344
  C       4.364439     -1.524100      0.274057
  C       3.276740     -2.319150      0.609373
  H       2.748757      1.428425     -0.199958
  C       6.424809      0.555112     -0.495671
  H       0.807664     -0.001294      0.400931
  H       1.147685     -2.405516      0.920014
  H       5.366571     -1.942506      0.235882
  H       3.434435     -3.369793      0.834893
  N       5.229817      0.670830     -0.360749
  O       7.584090      0.582442     -0.662355
14
Coordinates from ORCA-job mol E -399.656294624901
  C       1.803703     -0.430535      0.365851
  C       2.884012      0.376847      0.029105
  C       1.993055     -1.778813      0.657024
  C       4.166679     -0.171483     -0.016659
  C       4.365037     -1.525149      0.274811
  C       3.276472     -2.320024      0.609773
  H       2.748642      1.429194     -0.199739
  C       6.425363      0.555864     -0.496329
  H       0.806965     -0.000486      0.400470
  H       1.146418     -2.405709      0.919527
  H       5.367117     -1.944077      0.236755
  H       3.433928     -3.370897      0.835156
  N       5.231020      0.670444     -0.360617
  O       7.585190      0.585424     -0.664127
14
Coordinates from ORCA-job mol E -399.656297120208
  C       1.803501     -0.430236      0.365741
  C       2.884382      0.376923      0.029160
  C       1.992565     -1.778794      0.656928
  C       4.166625     -0.172519     -0.016217
  C       4.365300     -1.526137      0.275249
  C       3.276047     -2.320582      0.610006
  H       2.748855      1.429278     -0.199559
  C       6.425798      0.556553     -0.496775
  H       0.806936      0.000204      0.400160
  H       1.145657     -2.405445      0.919208
  H       5.367145     -1.945512      0.237452
  H       3.433163     -3.371502      0.835432
  N       5.231780      0.669410     -0.360203
  O       7.585845      0.588960     -0.665583
14
Coordinates from ORCA-job mol E -399.656297891332
  C       1.803583     -0.430122      0.365659
  C       2.884737      0.376824      0.029163
  C       1.992364     -1.778698      0.656879
  C       4.166591     -0.173228     -0.015961
  C       4.365284     -1.526744      0.275464
  C       3.275666     -2.320832      0.610114
  H       2.749150      1.429136     -0.199497
  C       6.426112      0.557052     -0.497039
  H       0.807140      0.000571      0.399970
  H       1.145291     -2.405145      0.919075
  H       5.366954     -1.946420      0.237844
  H       3.432488     -3.371778      0.835601
  N       5.232148      0.668428     -0.359783
  O       7.586092      0.591557     -0.666489
14
Coordinates from ORCA-job mol E -399.656298474915
  C       1.803779     -0.430040      0.365563
  C       2.885213      0.376611      0.029182
  C       1.992123     -1.778581      0.656828
  C       4.166675     -0.174018     -0.015681
  C       4.365120     -1.527472      0.275733
  C       3.275129     -2.321123      0.610251
  H       2.749643      1.428877     -0.199451
  C       6.426548      0.557785     -0.497410
  H       0.807476      0.000961      0.399733
  H       1.144839     -2.404755      0.918937
  H       5.366593     -1.947512      0.238314
  H       3.431546     -3.372109      0.835809
  N       5.232586      0.667095     -0.359204
  O       7.586329      0.594881     -0.667604
14
Coordinates from ORCA-job mol E -399.656298756913
  C       1.803907     -0.430015      0.365515
  C       2.885487      0.376429      0.029201
  C       1.991937     -1.778542      0.656818
  C       4.166840     -0.174404     -0.015559
  C       4.364932     -1.527900      0.275896
  C       3.274782     -2.321323      0.610341
  H       2.750033      1.428692     -0.199447
  C       6.426842      0.558339     -0.497676
  H       0.807685      0.001178      0.399601
  H       1.144516     -2.404543      0.918892
  H       5.366323     -1.948123      0.238572
  H       3.430952     -3.372339      0.835936
  N       5.232875      0.666255     -0.358855
  O       7.586488      0.596896     -0.668237
