# t,fs[$1]    pos,AA[$2] , sigma =  0.0500 Angstroems;  E = 270.914 wvn  UpdTime = 10.000 fs 
           0.000    -0.4842771383
          10.000    -0.4596188141
          20.000    -0.4715519232
          30.000    -0.4902413651
          40.000    -0.4711126630
          50.000    -0.4560645458
          60.000    -0.4811133908
          70.000    -0.4757314245
          80.000    -0.4783873310
          90.000    -0.4566048053
         100.000    -0.4319420383
         110.000    -0.4020536065
         120.000    -0.4034255215
         130.000    -0.4034443989
         140.000    -0.3971026100
         150.000    -0.4260747849
         160.000    -0.4829820199
         170.000    -0.5631810030
         180.000    -0.5020494176
         190.000    -0.5683778002
         200.000    -0.4925765654
         210.000    -0.5666747428
         220.000    -0.4725803287
         230.000    -0.5072514069
         240.000    -0.5481386449
         250.000    -0.5658823623
         260.000    -0.5560956168
         270.000    -0.5685214272
         280.000    -0.5638230555
         290.000    -0.5557480836
         300.000    -0.5200236301
         310.000    -0.4903176521
         320.000    -0.5028757960
         330.000    -0.5061074647
         340.000    -0.5701821472
         350.000    -0.5394999503
         360.000    -0.6037229349
         370.000    -0.5847270802
         380.000    -0.5136040391
         390.000    -0.4474652624
         400.000    -0.3655047376
         410.000    -0.4049520272
         420.000    -0.3804392703
         430.000    -0.4079364955
         440.000    -0.3999256352
         450.000    -0.3928819609
         460.000    -0.4216328196
         470.000    -0.3999534868
         480.000    -0.3281654703
         490.000    -0.3179811876
         500.000    -0.3578638240
         510.000    -0.3560553051
         520.000    -0.3263119734
         530.000    -0.3226364831
         540.000    -0.3703657390
         550.000    -0.4908662335
         560.000    -0.4531869063
         570.000    -0.3984747975
         580.000    -0.4166391066
         590.000    -0.5126723722
         600.000    -0.5301859358
         610.000    -0.5842666495
         620.000    -0.5843777510
         630.000    -0.5930304330
         640.000    -0.6049716255
         650.000    -0.6188033646
         660.000    -0.6303255447
         670.000    -0.6275734143
         680.000    -0.6209300347
         690.000    -0.5873029373
         700.000    -0.5575397530
         710.000    -0.5761562203
         720.000    -0.5161424069
         730.000    -0.4813368383
         740.000    -0.4602838971
         750.000    -0.4808425652
         760.000    -0.4839014172
         770.000    -0.4839132586
         780.000    -0.4890492669
         790.000    -0.4736017017
         800.000    -0.4421439887
         810.000    -0.3474600728
         820.000    -0.3127707707
         830.000    -0.3163284207
         840.000    -0.3194745987
         850.000    -0.3405202744
         860.000    -0.2961847080
         870.000    -0.3115548279
         880.000    -0.3730920462
         890.000    -0.4023428498
         900.000    -0.3949397729
         910.000    -0.3865982303
         920.000    -0.4209840264
         930.000    -0.4158224888
         940.000    -0.4894181866
         950.000    -0.4783680646
         960.000    -0.5389166316
         970.000    -0.5627836440
         980.000    -0.5776729105
         990.000    -0.5770021668
        1000.000    -0.5674382060
        1010.000    -0.6456134949
        1020.000    -0.6124377455
        1030.000    -0.6672250343
        1040.000    -0.6225273998
        1050.000    -0.6497884558
        1060.000    -0.6606158789
        1070.000    -0.6128412516
        1080.000    -0.6832339757
        1090.000    -0.6019881851
        1100.000    -0.5359888120
        1110.000    -0.5448353253
        1120.000    -0.4791777031
        1130.000    -0.4643451464
        1140.000    -0.3683842165
        1150.000    -0.4463021398
        1160.000    -0.3624112051
        1170.000    -0.3530463415
        1180.000    -0.3131143662
        1190.000    -0.2454598982
        1200.000    -0.2902300205
        1210.000    -0.2853651068
        1220.000    -0.2178578651
        1230.000    -0.2819969870
        1240.000    -0.2109710460
        1250.000    -0.3161576370
        1260.000    -0.2997105095
        1270.000    -0.2379439117
        1280.000    -0.2902623064
        1290.000    -0.3479545089
        1300.000    -0.3145716454
        1310.000    -0.3395607695
        1320.000    -0.2767986112
        1330.000    -0.2825399067
        1340.000    -0.2733703117
        1350.000    -0.1992420807
        1360.000    -0.2426761358
        1370.000    -0.2145272333
        1380.000    -0.1889409815
        1390.000    -0.0661220087
        1400.000     0.1505525593
        1410.000     0.3632813582
        1420.000     0.4344614376
        1430.000     0.4224976925
        1440.000     0.3574371965
        1450.000     0.3474102609
        1460.000     0.4960005099
        1470.000     0.5515769250
        1480.000     0.5772299034
        1490.000     0.5525391165
        1500.000     0.4771915580
        1510.000     0.4799645657
        1520.000     0.5054857670
        1530.000     0.5907166537
        1540.000     0.5798070045
        1550.000     0.5691204148
        1560.000     0.6129649552
        1570.000     0.5765039406
        1580.000     0.5740541848
        1590.000     0.4844099614
        1600.000     0.4213675648
        1610.000     0.4518239720
        1620.000     0.4984562628
        1630.000     0.4743346846
        1640.000     0.4307875634
        1650.000     0.4413245251
        1660.000     0.4226252688
        1670.000     0.4928222659
        1680.000     0.5530843967
        1690.000     0.5390543755
        1700.000     0.5436294589
        1710.000     0.5086917904
        1720.000     0.5105312191
        1730.000     0.5584467498
        1740.000     0.5966939345
        1750.000     0.6016427980
        1760.000     0.6207657046
        1770.000     0.6111355679
        1780.000     0.6262933621
        1790.000     0.6495648761
        1800.000     0.6086712671
        1810.000     0.5690071844
        1820.000     0.4935271993
        1830.000     0.4982474039
        1840.000     0.5297757334
        1850.000     0.4992071937
        1860.000     0.4445589507
        1870.000     0.3774321716
        1880.000     0.3745904057
        1890.000     0.4398240732
        1900.000     0.4255248496
        1910.000     0.3340249020
        1920.000     0.2905593080
        1930.000     0.3660422366
        1940.000     0.4088039339
        1950.000     0.4105694275
        1960.000     0.4253644990
        1970.000     0.3686042848
        1980.000     0.3484848643
        1990.000     0.4068236097
        2000.000     0.4497658432
        2010.000     0.5395019297
        2020.000     0.5308861744
        2030.000     0.5331617543
        2040.000     0.5921276366
        2050.000     0.6018421927
        2060.000     0.6313973223
        2070.000     0.6659720415
        2080.000     0.6198544998
        2090.000     0.6402252695
        2100.000     0.6260958139
        2110.000     0.5686447815
        2120.000     0.5621196430
        2130.000     0.4911752849
        2140.000     0.4739217376
        2150.000     0.5580386549
        2160.000     0.4992627730
        2170.000     0.4575674467
        2180.000     0.4098889405
        2190.000     0.3285144100
        2200.000     0.3518402720
        2210.000     0.3649139409
        2220.000     0.3089653797
        2230.000     0.2402987166
        2240.000     0.2980737568
        2250.000     0.3620624471
        2260.000     0.3608414643
        2270.000     0.2855259754
        2280.000     0.2647774340
        2290.000     0.3809054276
        2300.000     0.4902376572
        2310.000     0.4810104161
        2320.000     0.4827041427
        2330.000     0.4790551335
        2340.000     0.5276363336
        2350.000     0.6215961107
        2360.000     0.6385049126
        2370.000     0.6433370989
        2380.000     0.6366568516
        2390.000     0.6490991452
        2400.000     0.6380705362
        2410.000     0.6154847688
        2420.000     0.6159609700
        2430.000     0.5529434645
        2440.000     0.5199706324
        2450.000     0.5565349843
        2460.000     0.5427884309
        2470.000     0.4806148522
        2480.000     0.4305926187
        2490.000     0.2946492610
        2500.000     0.2175297803
        2510.000     0.3178882820
        2520.000     0.2896543614
        2530.000     0.2039544725
        2540.000     0.2150758000
        2550.000     0.2465434416
        2560.000     0.3043877820
        2570.000     0.3037569540
        2580.000     0.2649221236
        2590.000     0.3700925043
        2600.000     0.4219827469
        2610.000     0.4039897651
        2620.000     0.4077705093
        2630.000     0.3092959957
        2640.000     0.2369810683
        2650.000     0.2381442433
        2660.000     0.2400245674
        2670.000     0.2608632292
        2680.000     0.3128412678
        2690.000     0.2888805223
        2700.000     0.2821505607
        2710.000     0.3702482553
        2720.000     0.4556515491
        2730.000     0.4945623863
        2740.000     0.5723244686
        2750.000     0.5783489370
        2760.000     0.6261197635
        2770.000     0.6458914859
        2780.000     0.6108264041
        2790.000     0.6632643287
        2800.000     0.6435533451
        2810.000     0.6734700658
        2820.000     0.6648375954
        2830.000     0.6289222849
        2840.000     0.6483618440
        2850.000     0.5702316325
        2860.000     0.5599055857
        2870.000     0.5509109808
        2880.000     0.4494051131
        2890.000     0.3367809527
        2900.000     0.2846957495
        2910.000     0.2887149331
        2920.000     0.3127843738
        2930.000     0.2476555168
        2940.000     0.1020235422
        2950.000     0.1176805436
        2960.000     0.2264950586
        2970.000     0.1620862949
        2980.000     0.1414084965
        2990.000     0.2382970106
        3000.000     0.2110299438
        3010.000     0.1800995929
        3020.000     0.1421638901
        3030.000     0.1803621973
        3040.000     0.2256646552
        3050.000     0.1572121586
        3060.000     0.0475965791
        3070.000     0.1289892321
        3080.000     0.2728426263
        3090.000     0.3776584390
        3100.000     0.4225155774
        3110.000     0.4123479724
        3120.000     0.4140184568
        3130.000     0.5245226144
        3140.000     0.5533969788
        3150.000     0.5913144068
        3160.000     0.6440448016
        3170.000     0.5983780499
        3180.000     0.6911513705
        3190.000     0.6269892141
        3200.000     0.6719234002
        3210.000     0.6847540272
        3220.000     0.6470767575
        3230.000     0.6133667584
        3240.000     0.5870896914
        3250.000     0.6044678062
        3260.000     0.4973002985
        3270.000     0.4299208667
        3280.000     0.3748150775
        3290.000     0.3176764664
        3300.000     0.3842189157
        3310.000     0.3635482414
        3320.000     0.3168323189
        3330.000     0.2798414619
        3340.000     0.2844678739
        3350.000     0.3853009539
        3360.000     0.4375250109
        3370.000     0.4228666536
        3380.000     0.4138355905
        3390.000     0.4266125276
        3400.000     0.5346802559
        3410.000     0.5100879522
        3420.000     0.4973054841
        3430.000     0.4817534354
        3440.000     0.5011643771
        3450.000     0.5702210779
        3460.000     0.5764352977
        3470.000     0.5814921220
        3480.000     0.5840560896
        3490.000     0.6218803336
        3500.000     0.6998723973
        3510.000     0.6603429695
        3520.000     0.6843252377
        3530.000     0.6655510150
        3540.000     0.6334279271
        3550.000     0.6537514665
        3560.000     0.6205127356
        3570.000     0.6880103906
        3580.000     0.6369701016
        3590.000     0.6993388535
        3600.000     0.6976411194
        3610.000     0.6737211661
        3620.000     0.6463665833
        3630.000     0.5797805755
        3640.000     0.6307259183
        3650.000     0.6188620264
        3660.000     0.5707832813
        3670.000     0.5738053859
        3680.000     0.5190168220
        3690.000     0.4995251501
        3700.000     0.4958775875
        3710.000     0.5005827514
        3720.000     0.4652131003
        3730.000     0.3846563200
        3740.000     0.3592643330
        3750.000     0.3569206980
        3760.000     0.3474544805
        3770.000     0.3588126007
        3780.000     0.2693260037
        3790.000     0.2018218324
        3800.000     0.1727285492
        3810.000     0.1798601575
        3820.000     0.2240664626
        3830.000     0.2120325033
        3840.000     0.2150385692
        3850.000     0.3052970189
        3860.000     0.4254419772
        3870.000     0.4355190484
        3880.000     0.4216865577
        3890.000     0.4410997077
        3900.000     0.4472659526
        3910.000     0.4985127931
        3920.000     0.4984753805
        3930.000     0.5556981195
        3940.000     0.5698448814
        3950.000     0.5728856172
        3960.000     0.5737952672
        3970.000     0.5640670174
        3980.000     0.5702230874
        3990.000     0.5395755380
        4000.000     0.5086163602
        4010.000     0.4852926654
        4020.000     0.5092407559
        4030.000     0.5778691440
        4040.000     0.5825476575
        4050.000     0.5251037803
        4060.000     0.4872881092
        4070.000     0.4936042545
        4080.000     0.5046413597
        4090.000     0.4940052136
        4100.000     0.4964909480
        4110.000     0.4229713807
        4120.000     0.3736202405
        4130.000     0.3367851007
        4140.000     0.3680854899
        4150.000     0.4277982869
        4160.000     0.4029457442
        4170.000     0.3726493459
        4180.000     0.2786037763
        4190.000     0.2893049268
        4200.000     0.3969539006
        4210.000     0.4553605782
        4220.000     0.4261764148
        4230.000     0.4117502375
        4240.000     0.4988729050
        4250.000     0.5032909126
        4260.000     0.4845000480
        4270.000     0.4960053915
        4280.000     0.5196873941
        4290.000     0.5382892056
        4300.000     0.5507485587
        4310.000     0.6506257019
        4320.000     0.7036982045
        4330.000     0.6708146121
        4340.000     0.7264603055
        4350.000     0.6433180557
        4360.000     0.6970060608
        4370.000     0.7023585682
        4380.000     0.6492668816
        4390.000     0.5909961926
        4400.000     0.5057931448
        4410.000     0.4922507108
        4420.000     0.5048401654
        4430.000     0.5266257635
        4440.000     0.4787948891
        4450.000     0.3832587010
        4460.000     0.3538528865
        4470.000     0.3117728418
        4480.000     0.2458053932
        4490.000     0.1663781437
        4500.000     0.0585784757
        4510.000     0.0666532952
        4520.000     0.1302702039
        4530.000     0.1630334832
        4540.000     0.1881946881
        4550.000     0.2643871799
        4560.000     0.3695263178
        4570.000     0.4396374638
        4580.000     0.4420744252
        4590.000     0.4215633136
        4600.000     0.4212122260
        4610.000     0.4374837349
        4620.000     0.4624443717
        4630.000     0.4005440736
        4640.000     0.2907860628
        4650.000     0.1964469099
        4660.000     0.2118412148
        4670.000     0.2711888766
        4680.000     0.2849885968
        4690.000     0.2883661211
        4700.000     0.3028433871
        4710.000     0.2797056191
        4720.000     0.3072551089
        4730.000     0.2855605460
        4740.000     0.3106045689
        4750.000     0.3512876257
        4760.000     0.3580826626
        4770.000     0.3349037136
        4780.000     0.3387054497
        4790.000     0.3403682068
        4800.000     0.3482439523
        4810.000     0.3564202560
        4820.000     0.3692243397
        4830.000     0.3497894769
        4840.000     0.3480038680
        4850.000     0.4336993280
        4860.000     0.4979964169
        4870.000     0.4972384388
        4880.000     0.5969037331
        4890.000     0.6064145534
        4900.000     0.6341962528
        4910.000     0.7087297342
        4920.000     0.6832750599
        4930.000     0.7105619613
        4940.000     0.6319184464
        4950.000     0.6348637860
        4960.000     0.6471361937
        4970.000     0.6053589045
        4980.000     0.5751301177
        4990.000     0.5765148091
