17
Coordinates from ORCA-job orca_IRC_Full E -1271.138930998680
  C      -2.432146     -0.830410     -0.425622
  C      -1.620497      0.278799     -0.584249
  C      -1.923020     -1.994779      0.146535
  C      -0.277932      0.217588     -0.168611
  C       0.238371     -0.951629      0.415651
  C      -0.595362     -2.049735      0.566407
  H      -1.999111      1.194215     -1.026560
  C       0.522529      1.357572     -0.369343
  H      -3.466604     -0.784206     -0.750091
  H      -2.566168     -2.861014      0.265592
  H       1.272042     -0.969699      0.741049
  H      -0.206605     -2.958933      1.015273
  N       0.940656      2.398766     -0.712942
  O       2.381054      1.151368      1.196726
  S       3.536526      1.981695      0.725109
  O       4.365819      1.345891     -0.322371
  S       1.937312      3.664893     -0.800232
17
Coordinates from ORCA-job orca_IRC_Full E -1271.138898526192
  C      -2.431627     -0.830034     -0.425624
  C      -1.619825      0.279036     -0.583814
  C      -1.922752     -1.994540      0.146410
  C      -0.277391      0.217410     -0.167945
  C       0.238841     -0.951981      0.416242
  C      -0.595183     -2.049988      0.566604
  H      -1.998201      1.194512     -1.026230
  C       0.522685      1.357416     -0.369260
  H      -3.466004     -0.783600     -0.750207
  H      -2.566201     -2.860536      0.265288
  H       1.272596     -0.970103      0.741558
  H      -0.206818     -2.959453      1.015377
  N       0.940256      2.398938     -0.713346
  O       2.378857      1.150999      1.194936
  S       3.534332      1.982057      0.724039
  O       4.364975      1.346203     -0.322371
  S       1.938325      3.664047     -0.799336
17
Coordinates from ORCA-job orca_IRC_Full E -1271.138864406354
  C      -2.431071     -0.829559     -0.425694
  C      -1.619095      0.279332     -0.583356
  C      -1.922541     -1.994243      0.146223
  C      -0.276851      0.217107     -0.167169
  C       0.239328     -0.952489      0.416913
  C      -0.595077     -2.050319      0.566787
  H      -1.997399      1.194803     -1.025954
  C       0.522600      1.357474     -0.369447
  H      -3.465394     -0.783037     -0.750290
  H      -2.566205     -2.860051      0.265017
  H       1.273211     -0.970440      0.742040
  H      -0.206985     -2.959964      1.015496
  N       0.939943      2.398910     -0.713553
  O       2.376721      1.150596      1.193287
  S       3.531995      1.982512      0.722781
  O       4.364256      1.346485     -0.322345
  S       1.939428      3.663266     -0.798415
17
Coordinates from ORCA-job orca_IRC_Full E -1271.138830775510
  C      -2.430540     -0.829029     -0.425817
  C      -1.618342      0.279677     -0.582933
  C      -1.922395     -1.993922      0.146015
  C      -0.276301      0.216732     -0.166380
  C       0.239775     -0.953071      0.417568
  C      -0.595038     -2.050669      0.566937
  H      -1.996798      1.195056     -1.025757
  C       0.522106      1.357203     -0.369665
  H      -3.464868     -0.782589     -0.750337
  H      -2.566194     -2.859658      0.264811
  H       1.273759     -0.970672      0.742428
  H      -0.207096     -2.960370      1.015599
  N       0.939901      2.399124     -0.713715
  O       2.374900      1.150248      1.191926
  S       3.529826      1.982912      0.721513
  O       4.363693      1.346742     -0.322275
  S       1.940476      3.662668     -0.797596
17
Coordinates from ORCA-job orca_IRC_Full E -1271.138800650422
  C      -2.430068     -0.828491     -0.425967
  C      -1.617655      0.280027     -0.582592
  C      -1.922308     -1.993630      0.145824
  C      -0.275836      0.216271     -0.165660
  C       0.240145     -0.953655      0.418139
  C      -0.595033     -2.050962      0.567042
  H      -1.996424      1.195250     -1.025642
  C       0.521561      1.357065     -0.369957
  H      -3.464493     -0.782287     -0.750359
  H      -2.566184     -2.859402      0.264681
  H       1.274158     -0.970794      0.742691
  H      -0.207153     -2.960635      1.015672
  N       0.939860      2.399122     -0.713744
  O       2.373665      1.150101      1.190882
  S       3.527920      1.983076      0.720425
  O       4.363294      1.346978     -0.322155
  S       1.941415      3.662348     -0.796957
17
Coordinates from ORCA-job orca_IRC_Full E -1271.138769893202
  C      -2.429623     -0.827951     -0.426126
  C      -1.617021      0.280390     -0.582320
  C      -1.922254     -1.993373      0.145658
  C      -0.275425      0.215751     -0.165001
  C       0.240466     -0.954219      0.418639
  C      -0.595034     -2.051184      0.567111
  H      -1.996205      1.195393     -1.025578
  C       0.520958      1.356877     -0.370226
  H      -3.464249     -0.782087     -0.750370
  H      -2.566184     -2.859256      0.264602
  H       1.274424     -0.970844      0.742859
  H      -0.207178     -2.960798      1.015721
  N       0.939838      2.399073     -0.713733
  O       2.373043      1.150257      1.189978
  S       3.526024      1.982894      0.719553
  O       4.363003      1.347217     -0.321996
  S       1.942282      3.662242     -0.796450
17
Coordinates from ORCA-job orca_IRC_Full E -1271.138732326430
  C      -2.429313     -0.827576     -0.426234
  C      -1.616585      0.280667     -0.582160
  C      -1.922226     -1.993211      0.145555
  C      -0.275107      0.215415     -0.164568
  C       0.240679     -0.954584      0.418954
  C      -0.595037     -2.051300      0.567141
  H      -1.996113      1.195467     -1.025551
  C       0.520252      1.356163     -0.370235
  H      -3.464143     -0.781989     -0.750378
  H      -2.566192     -2.859201      0.264568
  H       1.274545     -0.970849      0.742937
  H      -0.207184     -2.960876      1.015747
  N       0.940062      2.399529     -0.713861
  O       2.373048      1.150634      1.189321
  S       3.524457      1.982505      0.719155
  O       4.362885      1.347362     -0.321919
  S       1.942835      3.662226     -0.796150
17
Coordinates from ORCA-job orca_IRC_Full E -1271.138587282612
  C      -2.428986     -0.827207     -0.426334
  C      -1.616113      0.280999     -0.582025
  C      -1.922202     -1.993058      0.145460
  C      -0.274648      0.215207     -0.164156
  C       0.240901     -0.954903      0.419242
  C      -0.595048     -2.051384      0.567154
  H      -1.996061      1.195518     -1.025532
  C       0.518796      1.353934     -0.369803
  H      -3.464095     -0.781917     -0.750391
  H      -2.566210     -2.859183      0.264547
  H       1.274611     -0.970833      0.742985
  H      -0.207181     -2.960932      1.015769
  N       0.940935      2.401332     -0.714369
  O       2.373646      1.151417      1.188519
  S       3.522297      1.981776      0.719114
  O       4.362920      1.347434     -0.321972
  S       1.943302      3.662184     -0.795886
17
Coordinates from ORCA-job orca_IRC_Full E -1271.137677495607
  C      -2.394186     -0.794110     -0.431785
  C      -1.560401      0.303570     -0.566452
  C      -1.917035     -1.974729      0.135665
  C      -0.224481      0.214458     -0.129323
  C       0.256960     -0.972445      0.442980
  C      -0.596352     -2.058172      0.569706
  H      -1.921751      1.227910     -1.005267
  C       0.614538      1.342631     -0.291735
  H      -3.424014     -0.727612     -0.769109
  H      -2.577609     -2.830151      0.239801
  H       1.286117     -1.015499      0.777620
  H      -0.226080     -2.977952      1.011681
  N       0.903921      2.404742     -0.739462
  O       2.275670      1.156809      1.097982
  S       3.476445      1.993387      0.692507
  O       4.346756      1.350184     -0.318279
  S       1.963243      3.629228     -0.767479
17
Coordinates from ORCA-job orca_IRC_Full E -1271.140644258454
  C      -2.359387     -0.761013     -0.437236
  C      -1.504690      0.326140     -0.550878
  C      -1.911869     -1.956399      0.125871
  C      -0.174314      0.213709     -0.094490
  C       0.273018     -0.989988      0.466719
  C      -0.597655     -2.064960      0.572258
  H      -1.847441      1.260303     -0.985002
  C       0.710280      1.331328     -0.213667
  H      -3.383933     -0.673306     -0.787826
  H      -2.589009     -2.801118      0.215055
  H       1.297624     -1.060166      0.812255
  H      -0.244978     -2.994973      1.007594
  N       0.866907      2.408153     -0.764554
  O       2.177694      1.162202      1.007445
  S       3.430593      2.004998      0.665900
  O       4.330593      1.352933     -0.314585
  S       1.983184      3.596273     -0.739072
17
Coordinates from ORCA-job orca_IRC_Full E -1271.141207795540
  C      -2.358689     -0.760403     -0.437321
  C      -1.503212      0.326371     -0.550507
  C      -1.911771     -1.955901      0.125603
  C      -0.173372      0.214379     -0.094062
  C       0.273245     -0.989936      0.467070
  C      -0.597716     -2.065001      0.572276
  H      -1.847183      1.260169     -0.984837
  C       0.716013      1.332501     -0.210098
  H      -3.383559     -0.673210     -0.787717
  H      -2.588861     -2.800879      0.214981
  H       1.297529     -1.060373      0.812309
  H      -0.245046     -2.994957      1.007569
  N       0.865034      2.406400     -0.764713
  O       2.169253      1.160650      1.002859
  S       3.430620      2.008584      0.663432
  O       4.329714      1.352779     -0.314464
  S       1.984617      3.592944     -0.736592
17
Coordinates from ORCA-job orca_IRC_Full E -1271.142782131604
  C      -2.356697     -0.758861     -0.437510
  C      -1.499459      0.327523     -0.549795
  C      -1.911386     -1.954911      0.125090
  C      -0.169847      0.216010     -0.092337
  C       0.273462     -0.989773      0.467853
  C      -0.597712     -2.064866      0.572262
  H      -1.846235      1.259975     -0.984354
  C       0.732409      1.331877     -0.197055
  H      -3.382257     -0.672710     -0.787437
  H      -2.588466     -2.800064      0.214711
  H       1.297524     -1.061102      0.812628
  H      -0.245257     -2.994954      1.007491
  N       0.859561      2.404673     -0.767306
  O       2.148409      1.159434      0.987810
  S       3.425862      2.015404      0.657218
  O       4.327386      1.352647     -0.314066
  S       1.989319      3.583813     -0.729418
17
Coordinates from ORCA-job orca_IRC_Full E -1271.144876331206
  C      -2.354465     -0.757499     -0.437615
  C      -1.495623      0.329009     -0.549185
  C      -1.910759     -1.954221      0.124873
  C      -0.165540      0.217660     -0.089942
  C       0.273753     -0.989783      0.468630
  C      -0.597651     -2.064958      0.572270
  H      -1.844898      1.260435     -0.983943
  C       0.749841      1.329103     -0.181278
  H      -3.380518     -0.671772     -0.787238
  H      -2.588231     -2.799197      0.214379
  H       1.297664     -1.062232      0.813205
  H      -0.245464     -2.994984      1.007379
  N       0.853526      2.404523     -0.771234
  O       2.127110      1.160178      0.969707
  S       3.418543      2.019886      0.650914
  O       4.324539      1.353123     -0.313130
  S       1.994788      3.574844     -0.722008
17
Coordinates from ORCA-job orca_IRC_Full E -1271.147310737813
  C      -2.352251     -0.756156     -0.437703
  C      -1.492102      0.330383     -0.548588
  C      -1.910256     -1.953675      0.124717
  C      -0.161829      0.218962     -0.087615
  C       0.273977     -0.990024      0.469396
  C      -0.597459     -2.065024      0.572279
  H      -1.843468      1.260964     -0.983527
  C       0.766724      1.329044     -0.167523
  H      -3.378803     -0.670787     -0.787103
  H      -2.588079     -2.798425      0.214083
  H       1.297856     -1.063476      0.813847
  H      -0.245590     -2.995163      1.007316
  N       0.847566      2.402397     -0.773849
  O       2.105975      1.160323      0.952525
  S       3.412468      2.024567      0.645420
  O       4.322096      1.353361     -0.312508
  S       1.999794      3.566846     -0.715382
17
Coordinates from ORCA-job orca_IRC_Full E -1271.150250058764
  C      -2.349970     -0.754849     -0.437760
  C      -1.488192      0.331866     -0.547865
  C      -1.909685     -1.953045      0.124567
  C      -0.157647      0.220747     -0.085145
  C       0.274346     -0.990119      0.470168
  C      -0.597348     -2.065307      0.572304
  H      -1.841844      1.261596     -0.983068
  C       0.783563      1.326698     -0.152076
  H      -3.376913     -0.669672     -0.786998
  H      -2.587984     -2.797653      0.213786
  H       1.298032     -1.064949      0.814582
  H      -0.245689     -2.995415      1.007253
  N       0.842112      2.402132     -0.777245
  O       2.083081      1.160299      0.934090
  S       3.406609      2.029552      0.639677
  O       4.319456      1.353635     -0.311724
  S       2.004689      3.558600     -0.708762
17
Coordinates from ORCA-job orca_IRC_Full E -1271.153420355817
  C      -2.347681     -0.753486     -0.437816
  C      -1.484601      0.333211     -0.547166
  C      -1.909190     -1.952534      0.124448
  C      -0.153960      0.222127     -0.082763
  C       0.274622     -0.990413      0.470946
  C      -0.597135     -2.065467      0.572312
  H      -1.840223      1.262214     -0.982603
  C       0.799970      1.327406     -0.138865
  H      -3.375091     -0.668570     -0.786924
  H      -2.587903     -2.796904      0.213505
  H       1.298207     -1.066437      0.815315
  H      -0.245762     -2.995704      1.007200
  N       0.836592      2.399218     -0.779032
  O       2.061024      1.160109      0.916506
  S       3.401306      2.034375      0.634272
  O       4.316974      1.353885     -0.310961
  S       2.009468      3.551087     -0.702590
17
Coordinates from ORCA-job orca_IRC_Full E -1271.156825172072
  C      -2.345287     -0.752107     -0.437847
  C      -1.480695      0.334668     -0.546357
  C      -1.908632     -1.951939      0.124319
  C      -0.149956      0.223766     -0.080248
  C       0.274989     -0.990610      0.471744
  C      -0.596958     -2.065737      0.572319
  H      -1.838419      1.262886     -0.982082
  C       0.815651      1.326642     -0.125017
  H      -3.373086     -0.667348     -0.786863
  H      -2.587845     -2.796108      0.213208
  H       1.298381     -1.068117      0.816133
  H      -0.245828     -2.996032      1.007136
  N       0.831425      2.397329     -0.781215
  O       2.038286      1.159800      0.898363
  S       3.395952      2.039562      0.628605
  O       4.314340      1.354150     -0.310088
  S       2.014301      3.543313     -0.696325
17
Coordinates from ORCA-job orca_IRC_Full E -1271.160189708348
  C      -2.342699     -0.750531     -0.437889
  C      -1.476931      0.336059     -0.545544
  C      -1.908145     -1.951453      0.124207
  C      -0.146221      0.225028     -0.077672
  C       0.275227     -0.991065      0.472603
  C      -0.596607     -2.065809      0.572304
  H      -1.836520      1.263574     -0.981525
  C       0.831236      1.328831     -0.113038
  H      -3.371034     -0.666072     -0.786821
  H      -2.587770     -2.795253      0.212899
  H       1.298595     -1.069875      0.816998
  H      -0.245883     -2.996412      1.007079
  N       0.826008      2.392817     -0.781918
  O       2.015653      1.159291      0.880455
  S       3.390668      2.044885      0.622911
  O       4.311705      1.354417     -0.309218
  S       2.019338      3.535685     -0.690048
17
Coordinates from ORCA-job orca_IRC_Full E -1271.163334867560
  C      -2.340125     -0.749128     -0.437875
  C      -1.472529      0.337694     -0.544540
  C      -1.907434     -1.950655      0.124046
  C      -0.141946      0.226918     -0.074983
  C       0.275838     -0.991097      0.473477
  C      -0.596518     -2.066296      0.572316
  H      -1.834361      1.264348     -0.980895
  C       0.844622      1.325789     -0.099052
  H      -3.368660     -0.664613     -0.786776
  H      -2.587746     -2.794349      0.212558
  H       1.298776     -1.071880      0.817974
  H      -0.245946     -2.996781      1.006984
  N       0.821177      2.392631     -0.784972
  O       1.993249      1.158731      0.862459
  S       3.385064      2.050660      0.616742
  O       4.308778      1.354754     -0.308162
  S       2.024379      3.527390     -0.683514
17
Coordinates from ORCA-job orca_IRC_Full E -1271.165977869169
  C      -2.336720     -0.747036     -0.437885
  C      -1.467986      0.339358     -0.543400
  C      -1.906827     -1.950035      0.123897
  C      -0.137862      0.228039     -0.071833
  C       0.276173     -0.991777      0.474614
  C      -0.595929     -2.066297      0.572275
  H      -1.831668      1.265270     -0.980093
  C       0.856859      1.329501     -0.089714
  H      -3.365850     -0.662817     -0.786772
  H      -2.587654     -2.793143      0.212129
  H       1.299122     -1.074313      0.819207
  H      -0.245999     -2.997332      1.006898
  N       0.815358      2.386251     -0.784816
  O       1.970590      1.157358      0.844667
  S       3.379012      2.057466      0.609736
  O       4.305448      1.355172     -0.306986
  S       2.030551      3.518450     -0.676140
17
Coordinates from ORCA-job orca_IRC_Full E -1271.167877189647
  C      -2.333004     -0.744998     -0.437789
  C      -1.462314      0.341399     -0.541799
  C      -1.905667     -1.948701      0.123624
  C      -0.133798      0.229604     -0.068541
  C       0.277475     -0.991906      0.476058
  C      -0.595703     -2.066995      0.572300
  H      -1.827978      1.266498     -0.979001
  C       0.862535      1.325593     -0.079711
  H      -3.361992     -0.660352     -0.786786
  H      -2.587641     -2.791613      0.211546
  H       1.299518     -1.077488      0.820841
  H      -0.246065     -2.997915      1.006711
  N       0.809543      2.386848     -0.789171
  O       1.951607      1.155337      0.829275
  S       3.371634      2.065361      0.601609
  O       4.301350      1.355797     -0.305570
  S       2.037117      3.507647     -0.667810
17
Coordinates from ORCA-job orca_IRC_Full E -1271.169233432880
  C      -2.327996     -0.741946     -0.437679
  C      -1.456743      0.343401     -0.539905
  C      -1.904328     -1.947242      0.123281
  C      -0.130864      0.229601     -0.064749
  C       0.278793     -0.993084      0.478246
  C      -0.594630     -2.067163      0.572379
  H      -1.822502      1.268266     -0.977360
  C       0.863058      1.328704     -0.077353
  H      -3.356730     -0.656743     -0.786952
  H      -2.587502     -2.789165      0.210631
  H       1.300453     -1.081773      0.823237
  H      -0.246126     -2.998862      1.006458
  N       0.801786      2.381881     -0.791420
  O       1.936199      1.151777      0.816988
  S       3.362672      2.074446      0.592275
  O       4.296074      1.356849     -0.304115
  S       2.045002      3.495168     -0.658177
17
Coordinates from ORCA-job orca_IRC_Full E -1271.170195605549
  C      -2.322598     -0.738776     -0.437428
  C      -1.451164      0.345418     -0.537568
  C      -1.902154     -1.944923      0.122763
  C      -0.129027      0.228693     -0.060873
  C       0.281124     -0.994447      0.481301
  C      -0.593351     -2.067888      0.572786
  H      -1.814361      1.271021     -0.974944
  C       0.857764      1.327139     -0.076360
  H      -3.349703     -0.651382     -0.787485
  H      -2.587310     -2.785468      0.209163
  H       1.302048     -1.087480      0.826690
  H      -0.246206     -3.000221      1.006034
  N       0.792774      2.381440     -0.797606
  O       1.925657      1.147752      0.807944
  S       3.351818      2.083348      0.582900
  O       4.289105      1.358611     -0.303010
  S       2.052201      3.481279     -0.648521
17
Coordinates from ORCA-job orca_IRC_Full E -1271.170805116210
  C      -2.317349     -0.735355     -0.437130
  C      -1.446364      0.346996     -0.534907
  C      -1.899325     -1.942236      0.122171
  C      -0.128004      0.226025     -0.056998
  C       0.284093     -0.996938      0.485448
  C      -0.591550     -2.068911      0.573759
  H      -1.802836      1.275329     -0.971530
  C       0.852157      1.327464     -0.078469
  H      -3.341977     -0.643879     -0.788977
  H      -2.587046     -2.780173      0.206835
  H       1.304515     -1.094493      0.831451
  H      -0.246333     -3.002538      1.005492
  N       0.782869      2.378035     -0.802959
  O       1.917059      1.144493      0.800620
  S       3.340659      2.089264      0.576523
  O       4.280391      1.361210     -0.303410
  S       2.055658      3.469823     -0.642135
17
Coordinates from ORCA-job orca_IRC_Full E -1271.171239652715
  C      -2.312448     -0.730912     -0.436994
  C      -1.439956      0.348787     -0.531516
  C      -1.896418     -1.939007      0.121325
  C      -0.124751      0.221921     -0.052543
  C       0.287742     -1.000525      0.490619
  C      -0.589662     -2.070689      0.575521
  H      -1.786653      1.281557     -0.966480
  C       0.846775      1.324549     -0.081266
  H      -3.334904     -0.633931     -0.792138
  H      -2.587205     -2.773713      0.203202
  H       1.307794     -1.102918      0.838061
  H      -0.246850     -3.006690      1.004887
  N       0.774265      2.374137     -0.808284
  O       1.909184      1.142404      0.795635
  S       3.329878      2.091310      0.574174
  O       4.269503      1.364383     -0.306241
  S       2.050324      3.463454     -0.642177
17
Coordinates from ORCA-job orca_IRC_Full E -1271.171565621843
  C      -2.308843     -0.726081     -0.437240
  C      -1.433902      0.349928     -0.528766
  C      -1.895505     -1.935240      0.119814
  C      -0.121162      0.216312     -0.049615
  C       0.291227     -1.005907      0.495753
  C      -0.589451     -2.073047      0.577251
  H      -1.769101      1.287431     -0.960384
  C       0.846674      1.320871     -0.082356
  H      -3.328833     -0.624390     -0.795454
  H      -2.588314     -2.768574      0.198734
  H       1.310949     -1.110675      0.845257
  H      -0.249156     -3.011025      1.003952
  N       0.767003      2.368177     -0.812984
  O       1.907085      1.142855      0.796901
  S       3.320805      2.092385      0.572525
  O       4.258894      1.366822     -0.310470
  S       2.038248      3.464275     -0.647134
17
Coordinates from ORCA-job orca_IRC_Full E -1271.171640214008
  C      -2.307540     -0.725131     -0.437232
  C      -1.431533      0.350124     -0.528007
  C      -1.895642     -1.934817      0.119377
  C      -0.119179      0.215014     -0.048381
  C       0.291890     -1.007058      0.496702
  C      -0.589411     -2.073665      0.577577
  H      -1.765067      1.288913     -0.959014
  C       0.846188      1.318784     -0.081884
  H      -3.328107     -0.622052     -0.796368
  H      -2.588916     -2.767422      0.197381
  H       1.311180     -1.112756      0.847036
  H      -0.250581     -3.012288      1.003738
  N       0.766431      2.366614     -0.813678
  O       1.906172      1.143858      0.796953
  S       3.319870      2.094864      0.571495
  O       4.256081      1.367306     -0.311870
  S       2.034781      3.463827     -0.648042
17
Coordinates from ORCA-job orca_IRC_Full E -1271.171670514911
  C      -2.307418     -0.724685     -0.437390
  C      -1.430741      0.350100     -0.527710
  C      -1.895392     -1.934746      0.119331
  C      -0.118714      0.214600     -0.048054
  C       0.292246     -1.007528      0.497119
  C      -0.589845     -2.073929      0.577556
  H      -1.763679      1.289410     -0.958547
  C       0.846157      1.318853     -0.082134
  H      -3.327599     -0.621262     -0.796592
  H      -2.589133     -2.767016      0.196902
  H       1.311303     -1.113488      0.847668
  H      -0.251042     -3.012791      1.003706
  N       0.765983      2.365393     -0.813666
  O       1.906124      1.144165      0.797249
  S       3.319424      2.095610      0.571088
  O       4.255175      1.367533     -0.312377
  S       2.033767      3.463897     -0.648366
17
Coordinates from ORCA-job orca_IRC_Full E -1271.171736721503
  C      -2.306708     -0.723646     -0.437644
  C      -1.428885      0.350169     -0.527038
  C      -1.895230     -1.934306      0.118944
  C      -0.117473      0.213352     -0.047129
  C       0.292955     -1.008882      0.498199
  C      -0.590405     -2.074624      0.577680
  H      -1.759928      1.290589     -0.957246
  C       0.846333      1.318165     -0.082067
  H      -3.326384     -0.619136     -0.797239
  H      -2.589734     -2.765981      0.195626
  H       1.311674     -1.115483      0.849389
  H      -0.252366     -3.014063      1.003579
  N       0.764837      2.363116     -0.814249
  O       1.906021      1.145084      0.798028
  S       3.318214      2.097517      0.569983
  O       4.252762      1.368214     -0.313746
  S       2.030932      3.464029     -0.649287
