! b3lyp d3bj 6-31g
! NEB
! miniPRINT
! Mass2016

%maxcore 10000

%pal
nprocs 18    # parallel execution
end

%neb
NEB_End_XYZFile "fin.xyz"  # mention the final. xyz file
Nimages 5                                    # mention the number of points/step you want in between the initial and the final conformer.
end


* xyzfile 0 1 ini.xyz
