17
Coordinates from ORCA-job mol_initial_path E   0.000000000000
  C      -2.554616     -0.879327     -0.405033
  C      -1.795887      0.277834     -0.580526
  C      -1.970458     -2.029646      0.140896
  C      -0.436688      0.280181     -0.203923
  C       0.154369     -0.877093      0.349381
  C      -0.620832     -2.024422      0.515950
  H      -2.241037      1.172166     -1.001864
  C       0.366395      1.442129     -0.371018
  H      -3.600212     -0.883933     -0.692820
  H      -2.565950     -2.926569      0.274392
  H       1.197061     -0.842555      0.642075
  H      -0.170541     -2.915003      0.940496
  N       1.050820      2.378479     -0.520796
  O       1.921027      3.299167     -0.576178
  O       2.681377      0.910631      1.126794
  S       3.775603      2.051447      0.750680
  O       4.809568      1.566514     -0.388505
17
Coordinates from ORCA-job mol_initial_path E   0.000000000000
  C      -2.512239     -0.850648     -0.425128
  C      -1.722930      0.285528     -0.572627
  C      -1.974510     -2.016468      0.128286
  C      -0.381038      0.247843     -0.159738
  C       0.165705     -0.920521      0.399222
  C      -0.639024     -2.046880      0.538469
  H      -2.131365      1.193154     -1.000317
  C       0.447155      1.381327     -0.294956
  H      -3.548445     -0.827144     -0.741662
  H      -2.595058     -2.898379      0.240157
  H       1.199783     -0.918549      0.718300
  H      -0.222921     -2.950188      0.969080
  N       0.998834      2.395589     -0.519713
  O       1.905843      3.297255     -0.537278
  O       2.589747      0.914445      1.051549
  S       3.703475      2.093582      0.682236
  O       4.716988      1.620055     -0.475880
17
Coordinates from ORCA-job mol_initial_path E   0.000000000000
  C      -2.469819     -0.822091     -0.444904
  C      -1.649957      0.293015     -0.564535
  C      -1.978220     -2.002852      0.115684
  C      -0.324776      0.217960     -0.116457
  C       0.176761     -0.963031      0.448346
  C      -0.657344     -2.068531      0.560430
  H      -2.021838      1.212766     -0.998077
  C       0.537243      1.326813     -0.218694
  H      -3.495539     -0.770759     -0.789581
  H      -2.623118     -2.869122      0.206002
  H       1.201218     -0.993192      0.793618
  H      -0.275596     -2.983729      0.996645
  N       0.938191      2.406738     -0.519325
  O       1.887042      3.290630     -0.498144
  O       2.498503      0.917572      0.976622
  S       3.632015      2.134929      0.614468
  O       4.625237      1.672883     -0.562098
17
Coordinates from ORCA-job mol_initial_path E   0.000000000000
  C      -2.426881     -0.793470     -0.464482
  C      -1.576266      0.300186     -0.556076
  C      -1.981498     -1.988680      0.103033
  C      -0.266840      0.190606     -0.073541
  C       0.187632     -1.004672      0.497085
  C      -0.675827     -2.089424      0.582027
  H      -1.911730      1.230967     -0.995110
  C       0.631240      1.280991     -0.145016
  H      -3.440973     -0.714446     -0.836875
  H      -2.650216     -2.838581      0.171724
  H       1.201426     -1.066379      0.868297
  H      -0.328881     -3.015789      1.023429
  N       0.873913      2.407789     -0.515890
  O       1.864175      3.279785     -0.459004
  O       2.406895      0.919603      0.901630
  S       3.560452      2.175929      0.546732
  O       4.533377      1.725584     -0.647965
17
Coordinates from ORCA-job mol_initial_path E   0.000000000000
  C      -2.383090     -0.764694     -0.483985
  C      -1.501547      0.306918     -0.547202
  C      -1.984297     -1.973906      0.090293
  C      -0.207285      0.164496     -0.030382
  C       0.198436     -1.045817      0.545858
  C      -0.694542     -2.109746      0.603483
  H      -1.800430      1.247765     -0.991435
  C       0.724162      1.243810     -0.075357
  H      -3.384315     -0.657934     -0.883832
  H      -2.676438     -2.806596      0.137149
  H       1.200463     -1.138316      0.942604
  H      -0.383048     -3.046574      1.049693
  N       0.810621      2.398025     -0.507377
  O       1.838559      3.266479     -0.419849
  O       2.314220      0.920392      0.826178
  S       3.488034      2.216994      0.478400
  O       4.440498      1.778705     -0.734238
17
Coordinates from ORCA-job mol_initial_path E   0.000000000000
  C      -2.338466     -0.735862     -0.503414
  C      -1.426062      0.313127     -0.537994
  C      -1.986597     -1.958613      0.077507
  C      -0.146993      0.138336      0.013186
  C       0.209182     -1.086733      0.594780
  C      -0.713484     -2.129624      0.624874
  H      -1.688000      1.263136     -0.987094
  C       0.813512      1.213737     -0.009709
  H      -3.325559     -0.601335     -0.930414
  H      -2.701710     -2.773244      0.102346
  H       1.198336     -1.209165      1.016419
  H      -0.437998     -3.076123      1.075515
  N       0.751000      2.379366     -0.493778
  O       1.812150      3.252258     -0.380563
  O       2.219955      0.920121      0.750075
  S       3.414422      2.258236      0.409290
  O       4.346314      1.832382     -0.821026
17
Coordinates from ORCA-job mol_initial_path E   0.000000000000
  C      -2.293270     -0.707149     -0.522691
  C      -1.350315      0.318824     -0.528575
  C      -1.988398     -1.942953      0.064768
  C      -0.086921      0.111509      0.056955
  C       0.219802     -1.127460      0.643677
  C      -0.732567     -2.149096      0.646153
  H      -1.574940      1.277081     -0.982111
  C       0.899655      1.188193      0.053166
  H      -3.265044     -0.545018     -0.976345
  H      -2.725866     -2.738790      0.067556
  H       1.195005     -1.279086      1.089393
  H      -0.493352     -3.104356      1.100833
  N       0.695910      2.355192     -0.476429
  O       1.786563      3.237828     -0.341064
  O       2.123188      0.919369      0.673048
  S       3.339516      2.299492      0.339586
  O       4.251033      1.886420     -0.907920
