17
Coordinates from ORCA-job mol_MEP E -947.651815148280
  C      -2.554616     -0.879327     -0.405033
  C      -1.795887      0.277834     -0.580526
  C      -1.970458     -2.029646      0.140896
  C      -0.436688      0.280181     -0.203923
  C       0.154369     -0.877093      0.349381
  C      -0.620832     -2.024422      0.515950
  H      -2.241037      1.172166     -1.001864
  C       0.366395      1.442129     -0.371018
  H      -3.600212     -0.883933     -0.692820
  H      -2.565950     -2.926569      0.274392
  H       1.197061     -0.842555      0.642075
  H      -0.170541     -2.915003      0.940496
  N       1.050820      2.378479     -0.520796
  O       1.921027      3.299167     -0.576178
  O       2.681377      0.910631      1.126794
  S       3.775603      2.051447      0.750680
  O       4.809568      1.566514     -0.388505
17
Coordinates from ORCA-job mol_MEP E -947.651430878229
  C      -2.509206     -0.847250     -0.438882
  C      -1.704650      0.282029     -0.576505
  C      -1.986903     -2.019125      0.123505
  C      -0.361885      0.235030     -0.147075
  C       0.167883     -0.942086      0.422765
  C      -0.654193     -2.062145      0.552850
  H      -2.097164      1.195172     -1.009421
  C       0.463866      1.382653     -0.291358
  H      -3.541042     -0.812015     -0.769685
  H      -2.618175     -2.895121      0.226379
  H       1.200018     -0.947969      0.751473
  H      -0.254488     -2.970643      0.989930
  N       1.016754      2.395717     -0.498406
  O       1.852380      3.350540     -0.543965
  O       2.633475      0.920781      1.059436
  S       3.714144      2.081893      0.684209
  O       4.679186      1.652538     -0.535252
17
Coordinates from ORCA-job mol_MEP E -947.650766800886
  C      -2.482883     -0.829198     -0.445578
  C      -1.660661      0.288390     -0.569210
  C      -1.984568     -2.010500      0.119084
  C      -0.323734      0.219873     -0.124235
  C       0.182094     -0.965987      0.447139
  C      -0.657962     -2.074174      0.564154
  H      -2.033989      1.208967     -1.003245
  C       0.514156      1.360392     -0.258891
  H      -3.509767     -0.777415     -0.789172
  H      -2.629780     -2.877519      0.211227
  H       1.210153     -0.988745      0.786220
  H      -0.276786     -2.989833      1.002770
  N       0.987327      2.409656     -0.505881
  O       1.825759      3.365281     -0.537943
  O       2.562712      0.917828      1.009799
  S       3.657646      2.080941      0.659545
  O       4.620283      1.662043     -0.565784
17
Coordinates from ORCA-job mol_MEP E -947.650261998907
  C      -2.466145     -0.816499     -0.444342
  C      -1.634523      0.295075     -0.561365
  C      -1.980449     -2.004209      0.118054
  C      -0.299254      0.213080     -0.112209
  C       0.193174     -0.979050      0.456017
  C      -0.656185     -2.080432      0.567189
  H      -2.000261      1.219545     -0.993552
  C       0.553313      1.345493     -0.238307
  H      -3.491484     -0.755643     -0.791034
  H      -2.632979     -2.866205      0.205371
  H       1.219796     -1.011491      0.797451
  H      -0.283204     -3.000170      1.004236
  N       0.965557      2.417215     -0.524612
  O       1.819944      3.363030     -0.537663
  O       2.494726      0.918732      0.971115
  S       3.609615      2.081080      0.647942
  O       4.588361      1.660451     -0.564290
17
Coordinates from ORCA-job mol_MEP E -947.650213477430
  C      -2.451818     -0.806591     -0.442958
  C      -1.613633      0.302308     -0.554956
  C      -1.976182     -1.999508      0.117654
  C      -0.278637      0.211185     -0.101382
  C       0.200766     -0.987407      0.462254
  C      -0.653801     -2.084412      0.568934
  H      -1.978649      1.227306     -0.986921
  C       0.601009      1.330786     -0.208963
  H      -3.476791     -0.741168     -0.791394
  H      -2.633881     -2.858079      0.202086
  H       1.226204     -1.026433      0.804457
  H      -0.285006     -3.006364      1.004288
  N       0.941353      2.425952     -0.544483
  O       1.829290      3.348666     -0.527293
  O       2.419319      0.922583      0.924951
  S       3.563478      2.084379      0.631522
  O       4.566978      1.656798     -0.557796
17
Coordinates from ORCA-job mol_MEP E -947.651818673897
  C      -2.441232     -0.799205     -0.442194
  C      -1.597372      0.308626     -0.550654
  C      -1.973227     -1.996305      0.117478
  C      -0.261439      0.212123     -0.093128
  C       0.205302     -0.992696      0.465976
  C      -0.651992     -2.087129      0.569847
  H      -1.965019      1.232424     -0.982849
  C       0.655659      1.316163     -0.174953
  H      -3.466992     -0.731736     -0.791295
  H      -2.634352     -2.853095      0.200353
  H       1.229809     -1.036868      0.808697
  H      -0.285345     -3.010425      1.004414
  N       0.917175      2.434089     -0.562182
  O       1.844949      3.329440     -0.512761
  O       2.344163      0.927407      0.881513
  S       3.527416      2.093301      0.614268
  O       4.552496      1.653885     -0.552529
17
Coordinates from ORCA-job mol_MEP E -947.694033440989
  C      -2.293383     -0.708435     -0.520456
  C      -1.351140      0.318189     -0.526851
  C      -1.986989     -1.944355      0.065969
  C      -0.086932      0.111418      0.057116
  C       0.221314     -1.127666      0.642800
  C      -0.730350     -2.149958      0.645801
  H      -1.576943      1.276543     -0.979599
  C       0.898900      1.188782      0.052794
  H      -3.265789     -0.546720     -0.972907
  H      -2.723907     -2.740701      0.069160
  H       1.197132     -1.278869      1.087316
  H      -0.489957     -3.105306      1.099677
  N       0.693746      2.355934     -0.475921
  O       1.783948      3.239245     -0.341316
  O       2.123328      0.920455      0.671125
  S       3.338325      2.301599      0.337035
  O       4.248696      1.889845     -0.911744
