17
Coordinates from ORCA-job orca
  C   -0.08843263119736      0.08242065191319     -0.17167877050740
  C   0.69833822321811      1.21444415210005     -0.32069643807732
  C   0.45407252714270     -1.07959742374974      0.36679261774843
  C   2.03612718486363      1.17291119998035      0.07493984965497
  C   2.58636919233368      0.00943145199625      0.61670712335549
  C   1.78781936350904     -1.11489841073843      0.75968226456384
  H   0.28715972237220      2.12554362954209     -0.73901232342568
  C   2.86990374872073      2.33299117423561     -0.07094299901429
  H   -1.12824314030803      0.10775193175993     -0.47697382931825
  H   -0.16595458351680     -1.96186377556760      0.48108698382998
  H   3.62675337109418     -0.00042748011725      0.91964372314101
  H   2.20864063583431     -2.02129974228217      1.17958215556388
  N   3.55939381812391      3.24361984419078     -0.17971027362486
  O   4.33713498824152      4.18599405187262     -0.26478561110635
  O   5.55740093627382      2.23688132796218      1.69677275253087
  S   6.40684353061466      3.08154109408215      0.90345366566009
  O   6.97527311267934      2.50105632281986     -0.27746089097445
