# t,fs[$1]    pos,AA[$2] , sigma =  0.0500 Angstroems;  E = 115.716 wvn  UpdTime = 10.000 fs 
           0.000     0.5760140346
          10.000     0.5688685577
          20.000     0.5793621315
          30.000     0.5831618239
          40.000     0.5841758983
          50.000     0.5881049248
          60.000     0.6030010078
          70.000     0.6262491668
          80.000     0.6574835232
          90.000     0.6377139530
         100.000     0.6327399683
         110.000     0.6388926703
         120.000     0.6517143704
         130.000     0.6126577211
         140.000     0.5696196153
         150.000     0.5201808249
         160.000     0.5457421505
         170.000     0.5437486477
         180.000     0.5382533542
         190.000     0.5493401227
         200.000     0.5442148864
         210.000     0.5090526565
         220.000     0.5458144121
         230.000     0.5955854288
         240.000     0.6017610691
         250.000     0.5807855396
         260.000     0.5385480914
         270.000     0.5216363327
         280.000     0.5276515938
         290.000     0.5390204879
         300.000     0.5100959704
         310.000     0.5279843741
         320.000     0.5420921124
         330.000     0.5425761418
         340.000     0.5886135957
         350.000     0.6855690939
         360.000     0.6942796847
         370.000     0.6627170525
         380.000     0.6393582676
         390.000     0.6305610239
         400.000     0.6100296374
         410.000     0.6084830369
         420.000     0.5801773898
         430.000     0.5881012006
         440.000     0.6345976777
         450.000     0.6737117260
         460.000     0.6364875011
         470.000     0.6262789360
         480.000     0.6063179475
         490.000     0.6528994919
         500.000     0.6816633518
         510.000     0.7144824867
         520.000     0.6586115617
         530.000     0.6560542552
         540.000     0.6678157279
         550.000     0.6863431837
         560.000     0.6634480792
         570.000     0.6428549379
         580.000     0.6123149134
         590.000     0.6192140325
         600.000     0.6317918394
         610.000     0.5977676641
         620.000     0.5453723924
         630.000     0.5416167245
         640.000     0.6082226972
         650.000     0.5964255693
         660.000     0.5473862744
         670.000     0.5087729022
         680.000     0.5287248039
         690.000     0.4843575601
         700.000     0.4964437946
         710.000     0.5196317954
         720.000     0.4912625559
         730.000     0.4619893109
         740.000     0.4952238605
         750.000     0.5008478194
         760.000     0.5159438758
         770.000     0.4903919255
         780.000     0.4784648676
         790.000     0.5335623127
         800.000     0.5413656451
         810.000     0.5119603989
         820.000     0.4614084542
         830.000     0.5310302989
         840.000     0.5699650347
         850.000     0.6163025568
         860.000     0.6195284696
         870.000     0.7101818507
         880.000     0.7578162496
         890.000     0.7113581038
         900.000     0.6692834611
         910.000     0.7018834077
         920.000     0.7303131407
         930.000     0.7418954841
         940.000     0.6963429902
         950.000     0.6714835668
         960.000     0.7097525277
         970.000     0.7412881053
         980.000     0.7108184907
         990.000     0.6682106087
        1000.000     0.7115314908
        1010.000     0.7009917664
        1020.000     0.7114382377
        1030.000     0.6777425493
        1040.000     0.6051021716
        1050.000     0.5966128362
        1060.000     0.6549746343
        1070.000     0.6574766736
        1080.000     0.6259938714
        1090.000     0.5676439508
        1100.000     0.5385913974
        1110.000     0.5067952994
        1120.000     0.5102500690
        1130.000     0.4927336911
        1140.000     0.5283471119
        1150.000     0.5092020004
        1160.000     0.4603371405
        1170.000     0.5017733880
        1180.000     0.5077810799
        1190.000     0.5416335377
        1200.000     0.5755038316
        1210.000     0.6052208690
        1220.000     0.5818487363
        1230.000     0.5426094338
        1240.000     0.5645264466
        1250.000     0.6402344936
        1260.000     0.6340412464
        1270.000     0.6026598860
        1280.000     0.6271339397
        1290.000     0.6864888616
        1300.000     0.7767276157
        1310.000     0.7741919910
        1320.000     0.7256951324
        1330.000     0.7000542388
        1340.000     0.7826950666
        1350.000     0.7857712418
        1360.000     0.7336184145
        1370.000     0.6966081778
        1380.000     0.7178389597
        1390.000     0.7399950605
        1400.000     0.7830377069
        1410.000     0.7335887325
        1420.000     0.6844500846
        1430.000     0.7042799476
        1440.000     0.7134701707
        1450.000     0.7334133194
        1460.000     0.7343346728
        1470.000     0.7316952642
        1480.000     0.7356093774
        1490.000     0.7733486994
        1500.000     0.7600944170
        1510.000     0.7991671508
        1520.000     0.8478741886
        1530.000     0.8069655581
        1540.000     0.7704919615
        1550.000     0.7839721101
        1560.000     0.7997157505
        1570.000     0.8273534973
        1580.000     0.7582948784
        1590.000     0.7475521586
        1600.000     0.8333324876
        1610.000     0.8806507609
        1620.000     0.8382536080
        1630.000     0.8561192874
        1640.000     0.9456689003
        1650.000     0.8846349684
        1660.000     0.8557785846
        1670.000     0.9585946914
        1680.000     0.9117960809
        1690.000     0.8643748526
        1700.000     0.9525446562
        1710.000     0.8929662848
        1720.000     0.8663928916
        1730.000     0.9246905882
        1740.000     0.8888902147
        1750.000     0.8290549773
        1760.000     0.9143193051
        1770.000     0.8858809133
        1780.000     0.8617670308
        1790.000     0.9178772308
        1800.000     0.9378296958
        1810.000     0.8953919208
        1820.000     0.9816843995
        1830.000     1.0212665008
        1840.000     0.9623643351
        1850.000     1.0317477685
        1860.000     1.0785034096
        1870.000     0.9977344789
        1880.000     1.0601823602
        1890.000     1.0476935698
        1900.000     0.9555186962
        1910.000     1.0264238781
        1920.000     0.9978879110
        1930.000     0.8960496890
        1940.000     0.9883136838
        1950.000     0.9758125685
        1960.000     0.8786815027
        1970.000     0.9099573036
        1980.000     0.8589094685
        1990.000     0.7294484113
        2000.000     0.7811591679
        2010.000     0.7957905588
        2020.000     0.7404114144
        2030.000     0.7394319288
        2040.000     0.8393664245
        2050.000     0.8260755101
        2060.000     0.8240167132
        2070.000     0.8732211700
        2080.000     0.8215151486
        2090.000     0.8101615568
        2100.000     0.8996249122
        2110.000     0.9265033873
        2120.000     0.9329383239
        2130.000     1.0266911807
        2140.000     1.0576120977
        2150.000     1.0485749639
        2160.000     1.0718363918
        2170.000     1.0478445806
        2180.000     1.0666309241
        2190.000     1.0909034423
        2200.000     1.0484369293
        2210.000     1.0659962196
        2220.000     1.0556004994
        2230.000     0.9922956695
        2240.000     1.0068905512
        2250.000     1.0083061747
        2260.000     0.9437404876
        2270.000     0.9692034064
        2280.000     0.9443337657
        2290.000     0.9300620317
        2300.000     0.9340482788
        2310.000     0.9243500083
        2320.000     0.9296580748
        2330.000     0.9761694757
        2340.000     0.9877133196
        2350.000     1.0124305757
        2360.000     1.0117085633
        2370.000     1.0145270413
        2380.000     0.9962290734
        2390.000     0.9894139979
        2400.000     1.0038315073
        2410.000     0.9862735908
        2420.000     0.9839951841
        2430.000     0.9770277564
        2440.000     0.9591749295
        2450.000     0.9333690080
        2460.000     0.9299653879
        2470.000     0.9315479953
        2480.000     0.9310075674
        2490.000     0.8773116870
        2500.000     0.8158243433
        2510.000     0.7707685670
        2520.000     0.7631404724
        2530.000     0.8272495313
        2540.000     0.8680745049
        2550.000     0.9140380886
        2560.000     0.9250228508
        2570.000     0.9711823090
        2580.000     1.0317116183
        2590.000     1.0348236642
        2600.000     1.1169606609
        2610.000     1.1598355993
        2620.000     1.2418880540
        2630.000     1.2436754087
        2640.000     1.2748793773
        2650.000     1.3104226055
        2660.000     1.2690662585
        2670.000     1.3544504024
        2680.000     1.3234808001
        2690.000     1.3580089655
        2700.000     1.3085734082
        2710.000     1.2480715763
        2720.000     1.3025135540
        2730.000     1.2652876864
        2740.000     1.2907816869
        2750.000     1.2874139167
        2760.000     1.3007556410
        2770.000     1.3212971643
        2780.000     1.2471761095
        2790.000     1.2901190157
        2800.000     1.2942312863
        2810.000     1.3013693087
        2820.000     1.3289186954
        2830.000     1.3576394789
        2840.000     1.4257864928
        2850.000     1.3646559078
        2860.000     1.3752564548
        2870.000     1.3599973937
        2880.000     1.3303908994
        2890.000     1.2577420461
        2900.000     1.1972433770
        2910.000     1.2339199076
        2920.000     1.1851798670
        2930.000     1.2325742228
        2940.000     1.2591855619
        2950.000     1.3364078333
        2960.000     1.3684778061
        2970.000     1.3386399783
        2980.000     1.4048669178
        2990.000     1.3262238586
        3000.000     1.3133492998
        3010.000     1.2316970380
        3020.000     1.1925778859
        3030.000     1.2390880809
        3040.000     1.1710500401
        3050.000     1.2892725107
        3060.000     1.2523895491
        3070.000     1.2724925061
        3080.000     1.2040469152
        3090.000     1.1882879761
        3100.000     1.2157518072
        3110.000     1.2095442401
        3120.000     1.2670326714
        3130.000     1.2264126882
        3140.000     1.2762620251
        3150.000     1.2629836173
        3160.000     1.2591284990
        3170.000     1.3230598174
        3180.000     1.2791047565
        3190.000     1.3154828461
        3200.000     1.2937634507
        3210.000     1.2229676707
        3220.000     1.2684228677
        3230.000     1.1962802886
        3240.000     1.2579191859
        3250.000     1.3097917784
        3260.000     1.3264122724
        3270.000     1.4211314655
        3280.000     1.3852301604
        3290.000     1.4198317708
        3300.000     1.3956367146
        3310.000     1.3467201678
        3320.000     1.3894009616
        3330.000     1.3357638420
        3340.000     1.3674653485
        3350.000     1.3404268601
        3360.000     1.2599445942
        3370.000     1.2700965956
        3380.000     1.2265969512
        3390.000     1.2620650287
        3400.000     1.2821101348
        3410.000     1.3173299258
        3420.000     1.4022413714
        3430.000     1.3768170223
        3440.000     1.4128954047
        3450.000     1.4187460289
        3460.000     1.3994589755
        3470.000     1.4283651396
        3480.000     1.3863624624
        3490.000     1.4237133260
        3500.000     1.4130425662
        3510.000     1.3668791162
        3520.000     1.3696964323
        3530.000     1.3344453387
        3540.000     1.3554595060
        3550.000     1.3147698745
        3560.000     1.2634286658
        3570.000     1.2763632056
        3580.000     1.1977193410
        3590.000     1.2119103586
        3600.000     1.1374226380
        3610.000     1.1810442446
        3620.000     1.1343104614
        3630.000     1.1437824319
        3640.000     1.1394313952
        3650.000     1.1530129278
        3660.000     1.1285447896
        3670.000     1.0899455088
        3680.000     1.1171467112
        3690.000     1.0755023519
        3700.000     1.1342894219
        3710.000     1.0826656087
        3720.000     1.1717777100
        3730.000     1.1334742342
        3740.000     1.1550667470
        3750.000     1.1829159380
        3760.000     1.2022821837
        3770.000     1.1902837306
        3780.000     1.1610172735
        3790.000     1.1748711321
        3800.000     1.1411231416
        3810.000     1.1622243191
        3820.000     1.1252548630
        3830.000     1.1859286966
        3840.000     1.1560070265
        3850.000     1.1280523345
        3860.000     1.1208588401
        3870.000     1.1212860565
        3880.000     1.1487225021
        3890.000     1.1210086591
        3900.000     1.1323733961
        3910.000     1.1055858042
        3920.000     1.0843618524
        3930.000     1.0744763795
        3940.000     1.1013472778
        3950.000     1.1186449853
        3960.000     1.1017794971
        3970.000     1.1064959469
        3980.000     1.1037690046
        3990.000     1.1145803581
        4000.000     1.1213085352
        4010.000     1.1281271886
        4020.000     1.1458997503
        4030.000     1.0863408113
        4040.000     1.0647839182
        4050.000     1.0576946003
        4060.000     1.0630658961
        4070.000     1.0358557872
        4080.000     1.0049134890
        4090.000     1.0259543359
        4100.000     1.0454382575
        4110.000     1.0553775483
        4120.000     1.0688366216
        4130.000     1.1013668342
        4140.000     1.1312653008
        4150.000     1.1395149999
        4160.000     1.1581110237
        4170.000     1.2062206684
        4180.000     1.1849721022
        4190.000     1.2084496473
        4200.000     1.1988796375
        4210.000     1.2328915541
        4220.000     1.1981385345
        4230.000     1.1985473263
        4240.000     1.1991859723
        4250.000     1.2076224573
        4260.000     1.1993281770
        4270.000     1.1965393906
        4280.000     1.1994765700
        4290.000     1.1916866517
        4300.000     1.2112768677
        4310.000     1.1951014760
        4320.000     1.2126570797
        4330.000     1.2041576769
        4340.000     1.2058947454
        4350.000     1.1929277738
        4360.000     1.2120779700
        4370.000     1.1963654437
        4380.000     1.1925705268
        4390.000     1.1931919370
        4400.000     1.2060143659
        4410.000     1.1944623991
        4420.000     1.2072238532
        4430.000     1.2695728157
        4440.000     1.2833483965
        4450.000     1.2822554678
        4460.000     1.3101000109
        4470.000     1.3655432492
        4480.000     1.4155945405
        4490.000     1.4081197244
        4500.000     1.4199465531
        4510.000     1.4403129292
        4520.000     1.3912809763
        4530.000     1.3513783175
        4540.000     1.2984667777
        4550.000     1.3051024328
        4560.000     1.3233769520
        4570.000     1.3398039071
        4580.000     1.3707190866
        4590.000     1.3889220475
        4600.000     1.3717602885
        4610.000     1.3351285528
        4620.000     1.3706679111
        4630.000     1.4084679368
        4640.000     1.4539414996
        4650.000     1.4598051262
        4660.000     1.4698909031
        4670.000     1.4534193200
        4680.000     1.4383209727
        4690.000     1.4472113949
        4700.000     1.4394198864
        4710.000     1.4618335283
        4720.000     1.4536612781
        4730.000     1.4107970641
        4740.000     1.3977377080
        4750.000     1.3532829759
        4760.000     1.3456310789
        4770.000     1.3300803343
        4780.000     1.3158076744
        4790.000     1.3329561999
        4800.000     1.3337477488
        4810.000     1.3409256495
        4820.000     1.3560520041
        4830.000     1.3864912093
        4840.000     1.4602763733
        4850.000     1.4516869677
        4860.000     1.4274488895
        4870.000     1.4392856802
        4880.000     1.4110935991
        4890.000     1.3768702477
        4900.000     1.3159945456
        4910.000     1.2534327835
        4920.000     1.2826926284
        4930.000     1.2422771423
        4940.000     1.2746901255
        4950.000     1.2567356330
        4960.000     1.2769302112
        4970.000     1.2310626656
        4980.000     1.2299411430
        4990.000     1.2323929953
