17
Coordinates from ORCA-job mol
  C   0.09157099537171      0.11063124073845     -0.09946800588384
  C   1.08312539942231      1.06678181220624     -0.23388211012055
  C   0.41055630454868     -1.12825118056184      0.45314658440510
  C   2.39354798760620      0.78735898341332      0.17669489687737
  C   2.69494680797481     -0.46137654161828      0.72830797948233
  C   1.70330178915535     -1.42268842893337      0.86883280317014
  H   0.84919855615474      2.03711541517493     -0.65899562397244
  C   3.43279042211446      1.79910449717037      0.03206508504378
  H   -0.92420357304186      0.31980591596237     -0.41632277560768
  Cl  -0.84206431434898     -2.33366409888869      0.62776281594006
  H   3.70771430414387     -0.68482263906668      1.04488702209572
  H   1.93158218982147     -2.39319841810946      1.29513911475413
  N   3.27214528038669      2.91899348673818     -0.57652418186218
  O   4.45983702949245      3.66220886336552     -0.49989633424143
  O   4.65690813414700      1.53591905137243      0.58910135542956
  S   5.80433976098747      2.68236546952618     -0.00942308795676
  O   6.43057292606358      2.09774657151030     -1.19739553755333
