!DLPNO-CCSD(T) Extrapolate(3/4,cc) cc-pVQZ/C TightPNO TightSCF 
%geom maxiter 300 end
%maxcore 4000 
%pal nprocs 36
end

*xyz 0 1
6        0.080939000      0.089224000     -0.096399000
6        1.066144000      1.053886000     -0.232948000
6        0.385478000     -1.156396000      0.451921000
6        2.376079000      0.771880000      0.177857000
6        2.682517000     -0.476726000      0.727737000
6        1.684674000     -1.434602000      0.862630000
1        0.836295000      2.026532000     -0.655234000
6        3.415652000      1.785966000      0.033438000
1       -0.932833000      0.309274000     -0.416954000
1       -0.391430000     -1.907685000      0.558059000
1        3.697373000     -0.694535000      1.041986000
1        1.926110000     -2.403472000      1.288971000
7        3.256906000      2.904650000     -0.577358000
8        4.445167000      3.648731000     -0.498639000
8        4.639541000      1.525509000      0.594044000
16       5.786763000      2.670401000     -0.001825000
8        6.419025000      2.084363000     -1.186585000

*
