16
Coordinates from ORCA-job mol
  C   1.77286393569710     -0.41943154239176      0.36865250415532
  C   2.85825739855538      0.37253372040663      0.03586218684039
  C   1.98310461695701     -1.76423895778788      0.65570386248537
  C   4.14057412172527     -0.18506735695235     -0.00738381919631
  C   4.33530415681640     -1.54212838966122      0.28635589260976
  C   3.25227254736104     -2.33530569850922      0.61905514200043
  H   2.72678128869076      1.42448057274068     -0.19348936110597
  C   6.39557919550158      0.52173524821698     -0.48794701870195
  H   0.77183867439103     -0.00688907908498      0.40673197338468
  N   0.83472957084016     -2.60636962962132      1.00560626757126
  H   5.33407169605718     -1.96701601460475      0.25111539577298
  H   3.38106684882717     -3.38644100024435      0.84832525411324
  N   5.19967158819818      0.64941803204866     -0.34963160783759
  O   7.55148652106762      0.54471434366340     -0.65796166406360
  O   -0.27449668724858     -2.08166148223786      1.03105295529467
  O   1.04580452656264     -3.78985276598064      1.25355203667731
