!DLPNO-CCSD(T) Extrapolate(3/4,cc) cc-pVQZ/C TightPNO TightSCF 
%geom maxiter 300 end
%maxcore 4000 
%pal nprocs 36
end

*xyz 0 1
6       -0.072962682     -0.069905148      0.353326150
6        0.788905639      1.019011973      0.418068434
6        0.426138701     -1.370198251      0.406563195
6        2.170361741      0.807955248      0.537486308
6        2.673349813     -0.500352447      0.591788154
6        1.799030394     -1.579282384      0.525849994
1        0.406994370      2.029360543      0.377128361
6        3.058784028      1.918536279      0.603073257
1       -1.136972314      0.098836438      0.260974034
1       -0.248754762     -2.213033276      0.355554843
1        3.738795837     -0.657303971      0.684327010
1        2.192272083     -2.585627675      0.567761650
7        3.817246672      2.822465324      0.647970869
8        4.583112232      3.747837598      0.696128250

*
