28
C13N2H10SO2
C        4.503741117      1.105561159     -3.312846879
C        4.492178852      1.232091848     -1.925637241
C        3.349413716      1.405379797     -4.054490973
C        3.302682860      1.637866470     -1.292713362
C        2.145107272      1.951878123     -2.026201704
C        2.174909595      1.828967114     -3.415368449
H        5.371035705      1.025239389     -1.326496457
C        3.144350064      1.245621241      0.262350627
H        5.408484683      0.788936224     -3.819011582
H        3.369324412      1.316301279     -5.135428577
H        1.259313322      2.295266529     -1.505079765
H        1.293584288      2.068954359     -3.999251259
N        3.473558150      2.474083255      0.318200177
O        3.926450359      2.083908706      2.710420059
N        2.922601955      0.127925009      0.858245048
S        3.750708792      0.487670628      3.028141931
O        5.147621887     -0.337014553      2.988734339
C        2.575613531     -1.128385554      0.327846036
C        3.333509552     -2.250495026      0.707890595
C        1.477017004     -1.277641725     -0.537851146
C        2.991128829     -3.510581629      0.214070451
C        1.159084265     -2.541229198     -1.041129183
C        1.910965397     -3.661070920     -0.665733117
H        4.175503281     -2.114841672      1.377501577
H        0.880523839     -0.410993734     -0.799325486
H        3.575062148     -4.375990950      0.509596308
H        0.315902078     -2.652727756     -1.715344681
H        1.654590446     -4.642385861     -1.050799475
