3
Coordinates from ORCA-job mol
  S   0.00000000000000     -0.00000000000909      0.38400239820774
  O   0.00000000000000      1.25963996102051     -0.37358519910836
  O   0.00000000000000     -1.25963996101142     -0.37358519909939
