3
Coordinates from ORCA-job mol E -548.566956714231
  S       0.000000      0.000000      0.363168
  O       0.000000      1.228797     -0.363168
  O       0.000000     -1.228797     -0.363168
3
Coordinates from ORCA-job mol E -548.570264203570
  S       0.000000     -0.000000      0.371271
  O       0.000000      1.247353     -0.367220
  O       0.000000     -1.247353     -0.367220
3
Coordinates from ORCA-job mol E -548.571179297414
  S       0.000000      0.000000      0.380762
  O       0.000000      1.259385     -0.371965
  O       0.000000     -1.259385     -0.371965
3
Coordinates from ORCA-job mol E -548.571198408631
  S       0.000000      0.000000      0.383182
  O       0.000000      1.260174     -0.373175
  O       0.000000     -1.260174     -0.373175
3
Coordinates from ORCA-job mol E -548.571198989308
  S       0.000000      0.000000      0.383790
  O       0.000000      1.259865     -0.373479
  O       0.000000     -1.259865     -0.373479
3
Coordinates from ORCA-job mol E -548.571199058775
  S       0.000000     -0.000000      0.384002
  O       0.000000      1.259640     -0.373585
  O       0.000000     -1.259640     -0.373585
