19
Coordinates from ORCA-job mol
  C   -0.03419037274536      0.13106648511158      0.06399039215031
  C   0.92052294601674      1.08763724154677     -0.24293080397861
  C   0.39639046154283     -1.12079958897044      0.49005385156465
  C   2.26910487887552      0.76507411598400     -0.08273407638427
  C   2.69434331755139     -0.50632032093042      0.30831258946805
  C   1.73946800122620     -1.46190807143093      0.61545106577487
  H   0.63132653540257      2.07351151269971     -0.59124592685177
  C   3.32472134883615      1.90098035207894     -0.16613717719340
  H   -1.09243760317613      0.34101965704366     -0.03371721765610
  N   -0.62422300642888     -2.14688425244454      0.80769302695439
  H   3.75347585923324     -0.73060310009211      0.38023686061867
  H   2.02298755426702     -2.45736135763308      0.93527052180698
  N   3.48926711671007      1.70116987871460     -1.39767660467628
  O   4.79571021355570      3.25877106481293     -1.60471500718953
  O   3.72863002777328      2.60728411796754      0.78388711558034
  S   5.45120021574942      3.57748870879124     -0.27503765307349
  O   6.52564154254726      2.65732347648469      0.12551261243813
  O   -1.79930152912923     -1.83673888101014      0.66762205567267
  O   -0.22681850780786     -3.23831803872397      1.19111437497435
