-------------------------------------------------------------
----------------------- !PROPERTIES! ------------------------
-------------------------------------------------------------
# -----------------------------------------------------------
$ PAL_Flags
   description: The PAL Flags
   geom. index: 1
   prop. index: 1
        Diskflag:     2
# -----------------------------------------------------------
$ SCF_Energy
   description: The SCF energy
   geom. index: 1
   prop. index: 1
        SCF Energy:    -1152.6427413823
# -----------------------------------------------------------
$ DFT_Energy
   description: The DFT energy
   geom. index: 1
   prop. index: 1
   Number of Alpha Electrons                 58.0000114028 
   Number of Beta  Electrons                 58.0000114028 
   Total number of  Electrons               116.0000228056 
   Exchange energy                         -117.4178512376 
   Correlation energy                        -3.9934475908 
   Correlation energy NL                      0.0000000000 
   Exchange-Correlation energy             -121.4112988284 
   Embedding correction                       0.0000000000 
   Total DFT Energy (No VdW correction)   -1152.6427413823 
# -----------------------------------------------------------
$ Solvation_Details
   description: Details concerning solvation
   geom. index: 1
   prop. index: 1
     Epsilon:                2.2800000000
     Refrac:                 1.5010000000
     RSolv:                  1.3000000000
     Surface Type:                      2
     Number of Points:               1093
     Surface Area:         842.4382904991
     Dielectric Energy:     -0.0101559512
# -----------------------------------------------------------
$ VdW_Correction
   description: The Van der Waals Correction
   geom. index: 1
   prop. index: 1
        Van der Waals Correction:       -0.0081529891
# -----------------------------------------------------------
$ PAL_Flags
   description: The PAL Flags
   geom. index: 2
   prop. index: 1
        Diskflag:     2
# -----------------------------------------------------------
$ SCF_Energy
   description: The SCF energy
   geom. index: 2
   prop. index: 1
        SCF Energy:    -1152.6414813696
# -----------------------------------------------------------
$ DFT_Energy
   description: The DFT energy
   geom. index: 2
   prop. index: 1
   Number of Alpha Electrons                 58.0000052405 
   Number of Beta  Electrons                 58.0000052405 
   Total number of  Electrons               116.0000104809 
   Exchange energy                         -117.4168486760 
   Correlation energy                        -3.9927231472 
   Correlation energy NL                      0.0000000000 
   Exchange-Correlation energy             -121.4095718232 
   Embedding correction                       0.0000000000 
   Total DFT Energy (No VdW correction)   -1152.6414813696 
# -----------------------------------------------------------
$ Solvation_Details
   description: Details concerning solvation
   geom. index: 2
   prop. index: 1
     Epsilon:                2.2800000000
     Refrac:                 1.5010000000
     RSolv:                  1.3000000000
     Surface Type:                      2
     Number of Points:               1091
     Surface Area:         846.3200224223
     Dielectric Energy:     -0.0104652084
# -----------------------------------------------------------
$ VdW_Correction
   description: The Van der Waals Correction
   geom. index: 2
   prop. index: 1
        Van der Waals Correction:       -0.0081145664
# -----------------------------------------------------------
$ PAL_Flags
   description: The PAL Flags
   geom. index: 3
   prop. index: 1
        Diskflag:     2
# -----------------------------------------------------------
$ SCF_Energy
   description: The SCF energy
   geom. index: 3
   prop. index: 1
        SCF Energy:    -1152.6417438456
# -----------------------------------------------------------
$ DFT_Energy
   description: The DFT energy
   geom. index: 3
   prop. index: 1
   Number of Alpha Electrons                 58.0000103529 
   Number of Beta  Electrons                 58.0000103529 
   Total number of  Electrons               116.0000207058 
   Exchange energy                         -117.4018673384 
   Correlation energy                        -3.9879267093 
   Correlation energy NL                      0.0000000000 
   Exchange-Correlation energy             -121.3897940477 
   Embedding correction                       0.0000000000 
   Total DFT Energy (No VdW correction)   -1152.6417438456 
# -----------------------------------------------------------
$ Solvation_Details
   description: Details concerning solvation
   geom. index: 3
   prop. index: 1
     Epsilon:                2.2800000000
     Refrac:                 1.5010000000
     RSolv:                  1.3000000000
     Surface Type:                      2
     Number of Points:               1099
     Surface Area:         857.1286620856
     Dielectric Energy:     -0.0122365911
# -----------------------------------------------------------
$ VdW_Correction
   description: The Van der Waals Correction
   geom. index: 3
   prop. index: 1
        Van der Waals Correction:       -0.0079665163
# -----------------------------------------------------------
$ PAL_Flags
   description: The PAL Flags
   geom. index: 4
   prop. index: 1
        Diskflag:     2
# -----------------------------------------------------------
$ SCF_Energy
   description: The SCF energy
   geom. index: 4
   prop. index: 1
        SCF Energy:    -1152.6419324621
# -----------------------------------------------------------
$ DFT_Energy
   description: The DFT energy
   geom. index: 4
   prop. index: 1
   Number of Alpha Electrons                 58.0000056970 
   Number of Beta  Electrons                 58.0000056970 
   Total number of  Electrons               116.0000113940 
   Exchange energy                         -117.4040069105 
   Correlation energy                        -3.9897569916 
   Correlation energy NL                      0.0000000000 
   Exchange-Correlation energy             -121.3937639021 
   Embedding correction                       0.0000000000 
   Total DFT Energy (No VdW correction)   -1152.6419324621 
# -----------------------------------------------------------
$ Solvation_Details
   description: Details concerning solvation
   geom. index: 4
   prop. index: 1
     Epsilon:                2.2800000000
     Refrac:                 1.5010000000
     RSolv:                  1.3000000000
     Surface Type:                      2
     Number of Points:               1091
     Surface Area:         850.7007076404
     Dielectric Energy:     -0.0112344718
# -----------------------------------------------------------
$ VdW_Correction
   description: The Van der Waals Correction
   geom. index: 4
   prop. index: 1
        Van der Waals Correction:       -0.0080655221
# -----------------------------------------------------------
$ PAL_Flags
   description: The PAL Flags
   geom. index: 5
   prop. index: 1
        Diskflag:     2
# -----------------------------------------------------------
$ SCF_Energy
   description: The SCF energy
   geom. index: 5
   prop. index: 1
        SCF Energy:    -1152.6415503162
# -----------------------------------------------------------
$ DFT_Energy
   description: The DFT energy
   geom. index: 5
   prop. index: 1
   Number of Alpha Electrons                 58.0000114202 
   Number of Beta  Electrons                 58.0000114202 
   Total number of  Electrons               116.0000228405 
   Exchange energy                         -117.4118713301 
   Correlation energy                        -3.9919267632 
   Correlation energy NL                      0.0000000000 
   Exchange-Correlation energy             -121.4037980933 
   Embedding correction                       0.0000000000 
   Total DFT Energy (No VdW correction)   -1152.6415503162 
# -----------------------------------------------------------
$ Solvation_Details
   description: Details concerning solvation
   geom. index: 5
   prop. index: 1
     Epsilon:                2.2800000000
     Refrac:                 1.5010000000
     RSolv:                  1.3000000000
     Surface Type:                      2
     Number of Points:               1093
     Surface Area:         844.1640267091
     Dielectric Energy:     -0.0106939231
# -----------------------------------------------------------
$ VdW_Correction
   description: The Van der Waals Correction
   geom. index: 5
   prop. index: 1
        Van der Waals Correction:       -0.0081275700
# -----------------------------------------------------------
$ PAL_Flags
   description: The PAL Flags
   geom. index: 6
   prop. index: 1
        Diskflag:     2
# -----------------------------------------------------------
$ SCF_Energy
   description: The SCF energy
   geom. index: 6
   prop. index: 1
        SCF Energy:    -1152.6427371843
# -----------------------------------------------------------
$ DFT_Energy
   description: The DFT energy
   geom. index: 6
   prop. index: 1
   Number of Alpha Electrons                 58.0000121353 
   Number of Beta  Electrons                 58.0000121353 
   Total number of  Electrons               116.0000242706 
   Exchange energy                         -117.4167833832 
   Correlation energy                        -3.9921989282 
   Correlation energy NL                      0.0000000000 
   Exchange-Correlation energy             -121.4089823114 
   Embedding correction                       0.0000000000 
   Total DFT Energy (No VdW correction)   -1152.6427371843 
# -----------------------------------------------------------
$ Solvation_Details
   description: Details concerning solvation
   geom. index: 6
   prop. index: 1
     Epsilon:                2.2800000000
     Refrac:                 1.5010000000
     RSolv:                  1.3000000000
     Surface Type:                      2
     Number of Points:               1092
     Surface Area:         844.1172535980
     Dielectric Energy:     -0.0111063974
# -----------------------------------------------------------
$ VdW_Correction
   description: The Van der Waals Correction
   geom. index: 6
   prop. index: 1
        Van der Waals Correction:       -0.0080942124
# -----------------------------------------------------------
$ PAL_Flags
   description: The PAL Flags
   geom. index: 7
   prop. index: 1
        Diskflag:     2
# -----------------------------------------------------------
$ SCF_Energy
   description: The SCF energy
   geom. index: 7
   prop. index: 1
        SCF Energy:    -1152.6426396827
# -----------------------------------------------------------
$ DFT_Energy
   description: The DFT energy
   geom. index: 7
   prop. index: 1
   Number of Alpha Electrons                 58.0000090805 
   Number of Beta  Electrons                 58.0000090805 
   Total number of  Electrons               116.0000181610 
   Exchange energy                         -117.4149093139 
   Correlation energy                        -3.9924416126 
   Correlation energy NL                      0.0000000000 
   Exchange-Correlation energy             -121.4073509265 
   Embedding correction                       0.0000000000 
   Total DFT Energy (No VdW correction)   -1152.6426396827 
# -----------------------------------------------------------
$ Solvation_Details
   description: Details concerning solvation
   geom. index: 7
   prop. index: 1
     Epsilon:                2.2800000000
     Refrac:                 1.5010000000
     RSolv:                  1.3000000000
     Surface Type:                      2
     Number of Points:               1094
     Surface Area:         844.7299179602
     Dielectric Energy:     -0.0107070230
# -----------------------------------------------------------
$ VdW_Correction
   description: The Van der Waals Correction
   geom. index: 7
   prop. index: 1
        Van der Waals Correction:       -0.0081328066
# -----------------------------------------------------------
$ PAL_Flags
   description: The PAL Flags
   geom. index: 8
   prop. index: 1
        Diskflag:     2
# -----------------------------------------------------------
$ SCF_Energy
   description: The SCF energy
   geom. index: 8
   prop. index: 1
        SCF Energy:    -1152.6429681844
# -----------------------------------------------------------
$ DFT_Energy
   description: The DFT energy
   geom. index: 8
   prop. index: 1
   Number of Alpha Electrons                 58.0000057828 
   Number of Beta  Electrons                 58.0000057828 
   Total number of  Electrons               116.0000115655 
   Exchange energy                         -117.4167279452 
   Correlation energy                        -3.9937796350 
   Correlation energy NL                      0.0000000000 
   Exchange-Correlation energy             -121.4105075802 
   Embedding correction                       0.0000000000 
   Total DFT Energy (No VdW correction)   -1152.6429681844 
# -----------------------------------------------------------
$ Solvation_Details
   description: Details concerning solvation
   geom. index: 8
   prop. index: 1
     Epsilon:                2.2800000000
     Refrac:                 1.5010000000
     RSolv:                  1.3000000000
     Surface Type:                      2
     Number of Points:               1086
     Surface Area:         847.1115526582
     Dielectric Energy:     -0.0099571276
# -----------------------------------------------------------
$ VdW_Correction
   description: The Van der Waals Correction
   geom. index: 8
   prop. index: 1
        Van der Waals Correction:       -0.0082017626
# -----------------------------------------------------------
$ PAL_Flags
   description: The PAL Flags
   geom. index: 9
   prop. index: 1
        Diskflag:     2
# -----------------------------------------------------------
$ SCF_Energy
   description: The SCF energy
   geom. index: 9
   prop. index: 1
        SCF Energy:    -1152.6425404853
# -----------------------------------------------------------
$ DFT_Energy
   description: The DFT energy
   geom. index: 9
   prop. index: 1
   Number of Alpha Electrons                 58.0000125328 
   Number of Beta  Electrons                 58.0000125328 
   Total number of  Electrons               116.0000250655 
   Exchange energy                         -117.4173959945 
   Correlation energy                        -3.9934710703 
   Correlation energy NL                      0.0000000000 
   Exchange-Correlation energy             -121.4108670648 
   Embedding correction                       0.0000000000 
   Total DFT Energy (No VdW correction)   -1152.6425404853 
# -----------------------------------------------------------
$ Solvation_Details
   description: Details concerning solvation
   geom. index: 9
   prop. index: 1
     Epsilon:                2.2800000000
     Refrac:                 1.5010000000
     RSolv:                  1.3000000000
     Surface Type:                      2
     Number of Points:               1093
     Surface Area:         842.5405909308
     Dielectric Energy:     -0.0103546394
# -----------------------------------------------------------
$ VdW_Correction
   description: The Van der Waals Correction
   geom. index: 9
   prop. index: 1
        Van der Waals Correction:       -0.0081507986
# -----------------------------------------------------------
$ PAL_Flags
   description: The PAL Flags
   geom. index: 10
   prop. index: 1
        Diskflag:     2
# -----------------------------------------------------------
$ SCF_Energy
   description: The SCF energy
   geom. index: 10
   prop. index: 1
        SCF Energy:    -1152.6429543249
# -----------------------------------------------------------
$ DFT_Energy
   description: The DFT energy
   geom. index: 10
   prop. index: 1
   Number of Alpha Electrons                 58.0000088352 
   Number of Beta  Electrons                 58.0000088352 
   Total number of  Electrons               116.0000176704 
   Exchange energy                         -117.4165631887 
   Correlation energy                        -3.9935638620 
   Correlation energy NL                      0.0000000000 
   Exchange-Correlation energy             -121.4101270507 
   Embedding correction                       0.0000000000 
   Total DFT Energy (No VdW correction)   -1152.6429543249 
# -----------------------------------------------------------
$ Solvation_Details
   description: Details concerning solvation
   geom. index: 10
   prop. index: 1
     Epsilon:                2.2800000000
     Refrac:                 1.5010000000
     RSolv:                  1.3000000000
     Surface Type:                      2
     Number of Points:               1092
     Surface Area:         843.6932700907
     Dielectric Energy:     -0.0102060431
# -----------------------------------------------------------
$ VdW_Correction
   description: The Van der Waals Correction
   geom. index: 10
   prop. index: 1
        Van der Waals Correction:       -0.0081693642
# -----------------------------------------------------------
$ PAL_Flags
   description: The PAL Flags
   geom. index: 11
   prop. index: 1
        Diskflag:     2
# -----------------------------------------------------------
$ SCF_Energy
   description: The SCF energy
   geom. index: 11
   prop. index: 1
        SCF Energy:    -1152.6429802149
# -----------------------------------------------------------
$ DFT_Energy
   description: The DFT energy
   geom. index: 11
   prop. index: 1
   Number of Alpha Electrons                 58.0000090753 
   Number of Beta  Electrons                 58.0000090753 
   Total number of  Electrons               116.0000181506 
   Exchange energy                         -117.4159877644 
   Correlation energy                        -3.9935777107 
   Correlation energy NL                      0.0000000000 
   Exchange-Correlation energy             -121.4095654751 
   Embedding correction                       0.0000000000 
   Total DFT Energy (No VdW correction)   -1152.6429802149 
# -----------------------------------------------------------
$ Solvation_Details
   description: Details concerning solvation
   geom. index: 11
   prop. index: 1
     Epsilon:                2.2800000000
     Refrac:                 1.5010000000
     RSolv:                  1.3000000000
     Surface Type:                      2
     Number of Points:               1089
     Surface Area:         843.9175243890
     Dielectric Energy:     -0.0102306999
# -----------------------------------------------------------
$ VdW_Correction
   description: The Van der Waals Correction
   geom. index: 11
   prop. index: 1
        Van der Waals Correction:       -0.0081717217
# -----------------------------------------------------------
$ PAL_Flags
   description: The PAL Flags
   geom. index: 12
   prop. index: 1
        Diskflag:     2
# -----------------------------------------------------------
$ SCF_Energy
   description: The SCF energy
   geom. index: 12
   prop. index: 1
        SCF Energy:    -1152.6430196056
# -----------------------------------------------------------
$ DFT_Energy
   description: The DFT energy
   geom. index: 12
   prop. index: 1
   Number of Alpha Electrons                 58.0000080415 
   Number of Beta  Electrons                 58.0000080415 
   Total number of  Electrons               116.0000160830 
   Exchange energy                         -117.4159427311 
   Correlation energy                        -3.9936284017 
   Correlation energy NL                      0.0000000000 
   Exchange-Correlation energy             -121.4095711328 
   Embedding correction                       0.0000000000 
   Total DFT Energy (No VdW correction)   -1152.6430196056 
# -----------------------------------------------------------
$ Solvation_Details
   description: Details concerning solvation
   geom. index: 12
   prop. index: 1
     Epsilon:                2.2800000000
     Refrac:                 1.5010000000
     RSolv:                  1.3000000000
     Surface Type:                      2
     Number of Points:               1087
     Surface Area:         842.9992421144
     Dielectric Energy:     -0.0102423259
# -----------------------------------------------------------
$ VdW_Correction
   description: The Van der Waals Correction
   geom. index: 12
   prop. index: 1
        Van der Waals Correction:       -0.0081726424
# -----------------------------------------------------------
$ PAL_Flags
   description: The PAL Flags
   geom. index: 13
   prop. index: 1
        Diskflag:     2
# -----------------------------------------------------------
$ SCF_Energy
   description: The SCF energy
   geom. index: 13
   prop. index: 1
        SCF Energy:    -1152.6430327193
# -----------------------------------------------------------
$ DFT_Energy
   description: The DFT energy
   geom. index: 13
   prop. index: 1
   Number of Alpha Electrons                 58.0000088137 
   Number of Beta  Electrons                 58.0000088137 
   Total number of  Electrons               116.0000176273 
   Exchange energy                         -117.4160272922 
   Correlation energy                        -3.9936622946 
   Correlation energy NL                      0.0000000000 
   Exchange-Correlation energy             -121.4096895868 
   Embedding correction                       0.0000000000 
   Total DFT Energy (No VdW correction)   -1152.6430327193 
# -----------------------------------------------------------
$ Solvation_Details
   description: Details concerning solvation
   geom. index: 13
   prop. index: 1
     Epsilon:                2.2800000000
     Refrac:                 1.5010000000
     RSolv:                  1.3000000000
     Surface Type:                      2
     Number of Points:               1089
     Surface Area:         842.2651371348
     Dielectric Energy:     -0.0102870738
# -----------------------------------------------------------
$ VdW_Correction
   description: The Van der Waals Correction
   geom. index: 13
   prop. index: 1
        Van der Waals Correction:       -0.0081694636
# -----------------------------------------------------------
$ PAL_Flags
   description: The PAL Flags
   geom. index: 14
   prop. index: 1
        Diskflag:     2
# -----------------------------------------------------------
$ SCF_Energy
   description: The SCF energy
   geom. index: 14
   prop. index: 1
        SCF Energy:    -1152.6430067007
# -----------------------------------------------------------
$ DFT_Energy
   description: The DFT energy
   geom. index: 14
   prop. index: 1
   Number of Alpha Electrons                 58.0000094487 
   Number of Beta  Electrons                 58.0000094487 
   Total number of  Electrons               116.0000188975 
   Exchange energy                         -117.4153290440 
   Correlation energy                        -3.9935147990 
   Correlation energy NL                      0.0000000000 
   Exchange-Correlation energy             -121.4088438431 
   Embedding correction                       0.0000000000 
   Total DFT Energy (No VdW correction)   -1152.6430067007 
# -----------------------------------------------------------
$ Solvation_Details
   description: Details concerning solvation
   geom. index: 14
   prop. index: 1
     Epsilon:                2.2800000000
     Refrac:                 1.5010000000
     RSolv:                  1.3000000000
     Surface Type:                      2
     Number of Points:               1088
     Surface Area:         842.0223827413
     Dielectric Energy:     -0.0103342059
# -----------------------------------------------------------
$ VdW_Correction
   description: The Van der Waals Correction
   geom. index: 14
   prop. index: 1
        Van der Waals Correction:       -0.0081645182
# -----------------------------------------------------------
$ PAL_Flags
   description: The PAL Flags
   geom. index: 15
   prop. index: 1
        Diskflag:     2
# -----------------------------------------------------------
$ SCF_Energy
   description: The SCF energy
   geom. index: 15
   prop. index: 1
        SCF Energy:    -1152.6430102997
# -----------------------------------------------------------
$ DFT_Energy
   description: The DFT energy
   geom. index: 15
   prop. index: 1
   Number of Alpha Electrons                 58.0000102876 
   Number of Beta  Electrons                 58.0000102876 
   Total number of  Electrons               116.0000205751 
   Exchange energy                         -117.4161962265 
   Correlation energy                        -3.9936038176 
   Correlation energy NL                      0.0000000000 
   Exchange-Correlation energy             -121.4098000441 
   Embedding correction                       0.0000000000 
   Total DFT Energy (No VdW correction)   -1152.6430102997 
# -----------------------------------------------------------
$ Solvation_Details
   description: Details concerning solvation
   geom. index: 15
   prop. index: 1
     Epsilon:                2.2800000000
     Refrac:                 1.5010000000
     RSolv:                  1.3000000000
     Surface Type:                      2
     Number of Points:               1089
     Surface Area:         841.7027434250
     Dielectric Energy:     -0.0103523555
# -----------------------------------------------------------
$ VdW_Correction
   description: The Van der Waals Correction
   geom. index: 15
   prop. index: 1
        Van der Waals Correction:       -0.0081609168
# -----------------------------------------------------------
$ PAL_Flags
   description: The PAL Flags
   geom. index: 16
   prop. index: 1
        Diskflag:     2
# -----------------------------------------------------------
$ SCF_Energy
   description: The SCF energy
   geom. index: 16
   prop. index: 1
        SCF Energy:    -1152.6430008972
# -----------------------------------------------------------
$ DFT_Energy
   description: The DFT energy
   geom. index: 16
   prop. index: 1
   Number of Alpha Electrons                 58.0000100106 
   Number of Beta  Electrons                 58.0000100106 
   Total number of  Electrons               116.0000200212 
   Exchange energy                         -117.4153428876 
   Correlation energy                        -3.9934761345 
   Correlation energy NL                      0.0000000000 
   Exchange-Correlation energy             -121.4088190221 
   Embedding correction                       0.0000000000 
   Total DFT Energy (No VdW correction)   -1152.6430008972 
# -----------------------------------------------------------
$ Solvation_Details
   description: Details concerning solvation
   geom. index: 16
   prop. index: 1
     Epsilon:                2.2800000000
     Refrac:                 1.5010000000
     RSolv:                  1.3000000000
     Surface Type:                      2
     Number of Points:               1089
     Surface Area:         841.8346805203
     Dielectric Energy:     -0.0103532711
# -----------------------------------------------------------
$ VdW_Correction
   description: The Van der Waals Correction
   geom. index: 16
   prop. index: 1
        Van der Waals Correction:       -0.0081611542
# -----------------------------------------------------------
$ PAL_Flags
   description: The PAL Flags
   geom. index: 17
   prop. index: 1
        Diskflag:     2
# -----------------------------------------------------------
$ SCF_Energy
   description: The SCF energy
   geom. index: 17
   prop. index: 1
        SCF Energy:    -1152.6429840110
# -----------------------------------------------------------
$ DFT_Energy
   description: The DFT energy
   geom. index: 17
   prop. index: 1
   Number of Alpha Electrons                 58.0000107514 
   Number of Beta  Electrons                 58.0000107514 
   Total number of  Electrons               116.0000215028 
   Exchange energy                         -117.4154800353 
   Correlation energy                        -3.9934596472 
   Correlation energy NL                      0.0000000000 
   Exchange-Correlation energy             -121.4089396826 
   Embedding correction                       0.0000000000 
   Total DFT Energy (No VdW correction)   -1152.6429840110 
# -----------------------------------------------------------
$ Solvation_Details
   description: Details concerning solvation
   geom. index: 17
   prop. index: 1
     Epsilon:                2.2800000000
     Refrac:                 1.5010000000
     RSolv:                  1.3000000000
     Surface Type:                      2
     Number of Points:               1090
     Surface Area:         842.0323251562
     Dielectric Energy:     -0.0103635908
# -----------------------------------------------------------
$ VdW_Correction
   description: The Van der Waals Correction
   geom. index: 17
   prop. index: 1
        Van der Waals Correction:       -0.0081600739
# -----------------------------------------------------------
$ PAL_Flags
   description: The PAL Flags
   geom. index: 18
   prop. index: 1
        Diskflag:     2
# -----------------------------------------------------------
$ SCF_Energy
   description: The SCF energy
   geom. index: 18
   prop. index: 1
        SCF Energy:    -1152.6429868003
# -----------------------------------------------------------
$ DFT_Energy
   description: The DFT energy
   geom. index: 18
   prop. index: 1
   Number of Alpha Electrons                 58.0000106323 
   Number of Beta  Electrons                 58.0000106323 
   Total number of  Electrons               116.0000212645 
   Exchange energy                         -117.4154148251 
   Correlation energy                        -3.9934541123 
   Correlation energy NL                      0.0000000000 
   Exchange-Correlation energy             -121.4088689375 
   Embedding correction                       0.0000000000 
   Total DFT Energy (No VdW correction)   -1152.6429868003 
# -----------------------------------------------------------
$ Solvation_Details
   description: Details concerning solvation
   geom. index: 18
   prop. index: 1
     Epsilon:                2.2800000000
     Refrac:                 1.5010000000
     RSolv:                  1.3000000000
     Surface Type:                      2
     Number of Points:               1090
     Surface Area:         841.9961630729
     Dielectric Energy:     -0.0103605936
# -----------------------------------------------------------
$ VdW_Correction
   description: The Van der Waals Correction
   geom. index: 18
   prop. index: 1
        Van der Waals Correction:       -0.0081602728
# -----------------------------------------------------------
$ SCF_Electric_Properties
   description: The SCF Calculated Electric Properties
   geom. index: 18
   prop. index: 1
       Filename                          : mol.scfp 
       Do Dipole Moment Calculation      : true 
       Do Quadrupole Moment Calculation  : false 
       Do Polarizability Calculation     : false 
** Dipole moment part of electric properties **
        Magnitude of dipole moment (Debye) :        1.7055372987
        Electronic Contribution:
                  0    
      0       3.745604
      1       3.918303
      2      -0.198039
        Nuclear Contribution:
                  0    
      0      -4.202629
      1      -3.476557
      2       0.413039
        Total Dipole moment:
                  0    
      0      -0.457025
      1       0.441746
      2       0.215000
# -----------------------------------------------------------
$ PAL_Flags
   description: The PAL Flags
   geom. index: 19
   prop. index: 1
        Diskflag:     2
# -----------------------------------------------------------
$ SCF_Energy
   description: The SCF energy
   geom. index: 19
   prop. index: 1
        SCF Energy:    -1152.6429867992
# -----------------------------------------------------------
$ DFT_Energy
   description: The DFT energy
   geom. index: 19
   prop. index: 1
   Number of Alpha Electrons                 58.0000106322 
   Number of Beta  Electrons                 58.0000106322 
   Total number of  Electrons               116.0000212644 
   Exchange energy                         -117.4154307394 
   Correlation energy                        -3.9934537879 
   Correlation energy NL                      0.0000000000 
   Exchange-Correlation energy             -121.4088845273 
   Embedding correction                       0.0000000000 
   Total DFT Energy (No VdW correction)   -1152.6429867992 
# -----------------------------------------------------------
$ Solvation_Details
   description: Details concerning solvation
   geom. index: 19
   prop. index: 1
     Epsilon:                2.2800000000
     Refrac:                 1.5010000000
     RSolv:                  1.3000000000
     Surface Type:                      2
     Number of Points:               1090
     Surface Area:         841.9961630729
     Dielectric Energy:     -0.0103607689
# -----------------------------------------------------------
$ VdW_Correction
   description: The Van der Waals Correction
   geom. index: 19
   prop. index: 1
        Van der Waals Correction:       -0.0081602728
# -----------------------------------------------------------
$ THERMOCHEMISTRY_Energies
   description: The Thermochemistry energies
   geom. index: 19
   prop. index: 1
        Temperature (Kelvin)           :        298.1500000000
        Pressure (atm)                 :          1.0000000000
        Total Mass (AMU)               :        227.9840924101
        Spin Degeneracy                :          1.0000000000
        Electronic Energy (Hartree)    :      -1152.6295044306
        Translational Energy (Hartree) :          0.0014162714
        Rotational Energy (Hartree)    :          0.0014162714
        Vibrational Energy (Hartree)   :          0.0102926325
        Number of frequencies          :     57      
        Scaling Factor for frequencies :          1.0000000000
        Vibrational frequencies        :     
                  0    
      0       0.000000
      1       0.000000
      2       0.000000
      3       0.000000
      4       0.000000
      5       0.000000
      6     -413.033018
      7      28.222503
      8      40.352161
      9      48.505688
     10      61.993741
     11     109.240388
     12     152.814542
     13     194.574300
     14     217.759871
     15     237.942413
     16     258.485579
     17     325.779564
     18     343.120749
     19     368.051391
     20     409.589150
     21     449.412244
     22     500.903599
     23     505.668840
     24     531.147291
     25     627.040948
     26     686.053012
     27     697.690764
     28     703.529420
     29     761.356363
     30     820.245796
     31     831.762054
     32     867.000181
     33     875.419177
     34     983.595546
     35     989.758543
     36     992.299909
     37     1033.103506
     38     1093.956977
     39     1112.917035
     40     1129.344687
     41     1193.470620
     42     1202.386460
     43     1219.912663
     44     1314.821697
     45     1353.294620
     46     1371.742457
     47     1423.274841
     48     1494.150417
     49     1561.813046
     50     1604.331577
     51     1628.167533
     52     1820.020827
     53     3202.717363
     54     3203.540436
     55     3224.239108
     56     3225.108876
        Zero Point Energy (Hartree)    :          0.1117022734
        Inner Energy (Hartree)         :      -1152.5046769819
        Enthalpy (Hartree)             :      -1152.5037327728
        Electronic entropy             :          0.0000000000
        Rotational entropy             :          0.0154868817
        Vibrational entropy            :          0.0183551453
        Translational entropy          :          0.0154868817
        Entropy                        :          0.0538804265
        Gibbs Energy (Hartree)         :      -1152.5576131993
        Is Linear                      :                 false
# -------------------------------------------------------------
----------------------- !GEOMETRIES! ------------------------
# -------------------------------------------------------------
------------------------ !GEOMETRY! -------------------------
    Number of atoms:    19 
    Geometry Index:     1 
    Coordinates:
               0 C     -0.034279315116    0.128054867421    0.062758189271
               1 C      0.919495384235    1.086631039168   -0.241060164705
               2 C      0.396228469396   -1.123633370422    0.488249735535
               3 C      2.269086854731    0.769632544617   -0.081899829363
               4 C      2.692716724865   -0.500958438436    0.311381185710
               5 C      1.739799032372   -1.459836364535    0.615338210122
               6 H      0.630991855186    2.072067994246   -0.590734990116
               7 C      3.324237862052    1.913951793745   -0.155567902543
               8 H     -1.094275856376    0.329601178821   -0.034864531575
               9 N     -0.624406513642   -2.153621600773    0.804047764353
              10 H      3.752616027942   -0.720953935845    0.383761402698
              11 H      2.018642310225   -2.456649217069    0.935278672388
              12 N      3.488260129402    1.698046001776   -1.385126711981
              13 O      4.793915844401    3.250392887732   -1.609272118862
              14 O      3.712105265238    2.619988917811    0.795992809968
              15 S      5.467362551508    3.577330611078   -0.293301738811
              16 O      6.532050286276    2.655961741748    0.122618931037
              17 O     -1.797868564299   -1.838310176678    0.670012588560
              18 O     -0.220859348398   -3.245303474404    1.177338498314
------------------------ !GEOMETRY! -------------------------
    Number of atoms:    19 
    Geometry Index:     2 
    Coordinates:
               0 C     -0.050386887105    0.130498592018    0.088694396111
               1 C      0.897545963355    1.089598586493   -0.229733039885
               2 C      0.388377021116   -1.125976716440    0.492385994715
               3 C      2.249769758658    0.767473559781   -0.103602512537
               4 C      2.681429095282   -0.507913378746    0.265927214015
               5 C      1.734018807653   -1.467036029543    0.584265650801
               6 H      0.602451999094    2.079153910592   -0.562509367913
               7 C      3.304571133648    1.910848709584   -0.186876724686
               8 H     -1.111622720962    0.336617046136    0.018067172906
               9 N     -0.626345698244   -2.156739443415    0.822317195831
              10 H      3.742329329974   -0.731052271460    0.311451834081
              11 H      2.019747831072   -2.466984006949    0.887957994691
              12 N      3.435132769333    1.708999298847   -1.422048507968
              13 O      4.960487297522    3.048337608926   -1.631637961075
              14 O      3.716941642290    2.603159674339    0.765455005278
              15 S      5.465964790767    3.607194716900   -0.318900363159
              16 O      6.576805197753    2.869826102379    0.297324301535
              17 O     -1.802914567868   -1.840237794522    0.719671597196
              18 O     -0.218483763338   -3.253375164921    1.176740120063
------------------------ !GEOMETRY! -------------------------
    Number of atoms:    19 
    Geometry Index:     3 
    Coordinates:
               0 C     -0.068532111703    0.128416805879    0.115671737264
               1 C      0.885097103003    1.065336860622   -0.250050133200
               2 C      0.364180928517   -1.129822697852    0.520189450121
               3 C      2.234393802694    0.713319857451   -0.170756894778
               4 C      2.657646769093   -0.572346496737    0.173814609503
               5 C      1.705903995977   -1.499607455114    0.561972456012
               6 H      0.596928899464    2.060957137818   -0.569369008298
               7 C      3.314596706918    1.837615729961   -0.243888250134
               8 H     -1.126591057698    0.359442114994    0.085614296597
               9 N     -0.654921206434   -2.136436979087    0.898106570466
              10 H      3.713523673733   -0.822049673531    0.167373804570
              11 H      1.987597870230   -2.501251697280    0.863414388004
              12 N      3.446160350660    1.559808160684   -1.457855196070
              13 O      5.209315395714    3.181349405501   -1.645842499173
              14 O      3.701681667667    2.546349383321    0.703499027107
              15 S      5.467833867735    3.723938286504   -0.257566731526
              16 O      6.618865826691    3.145724358866    0.453243634829
              17 O     -1.830593452088   -1.810981972039    0.806672045710
              18 O     -0.257270030172   -3.247368129961    1.220706692996
------------------------ !GEOMETRY! -------------------------
    Number of atoms:    19 
    Geometry Index:     4 
    Coordinates:
               0 C     -0.053107430268    0.127096488480    0.088710239428
               1 C      0.900952229096    1.077020079617   -0.238794039994
               2 C      0.378643961633   -1.127588018278    0.505653031808
               3 C      2.250985103561    0.745405591111   -0.109939946611
               4 C      2.675788355236   -0.531117457263    0.264382913811
               5 C      1.722241768122   -1.477878208949    0.599374683877
               6 H      0.611989327550    2.066666514219   -0.576555914088
               7 C      3.315551759180    1.880325686682   -0.194280480589
               8 H     -1.112674254183    0.341429881063    0.017430151595
               9 N     -0.642028643164   -2.147988214415    0.845999956996
              10 H      3.735016375057   -0.762740507102    0.307677678349
              11 H      2.003076215572   -2.476464707488    0.911884537410
              12 N      3.463801919661    1.639182051432   -1.418616299449
              13 O      4.976048586501    3.240531699737   -1.642953286517
              14 O      3.715288514101    2.585387406880    0.753633093441
              15 S      5.484017331177    3.655300952870   -0.278945077670
              16 O      6.598991699483    2.859317785772    0.253112929321
              17 O     -1.816738079792   -1.836888865524    0.708530602499
              18 O     -0.242025738524   -3.254605158843    1.178645226382
------------------------ !GEOMETRY! -------------------------
    Number of atoms:    19 
    Geometry Index:     5 
    Coordinates:
               0 C     -0.040000968629    0.127240770870    0.060906118272
               1 C      0.912438106840    1.083306992011   -0.252189376456
               2 C      0.393594988490   -1.126304154394    0.479775510684
               3 C      2.262460179329    0.759953003313   -0.104042105635
               4 C      2.689918019731   -0.515971805002    0.269127690634
               5 C      1.737874729576   -1.468589809589    0.591361967383
               6 H      0.622199791765    2.072416168301   -0.590553800458
               7 C      3.318134744292    1.900612350686   -0.173020676835
               8 H     -1.099840650812    0.335135513884   -0.024003147956
               9 N     -0.625597820998   -2.155286180780    0.799015494705
              10 H      3.749919876713   -0.741064839809    0.326045759088
              11 H      2.020177734959   -2.466562192031    0.904561011858
              12 N      3.525668182660    1.637507286623   -1.385100521595
              13 O      4.852532655052    3.285219957189   -1.602491638561
              14 O      3.675575653942    2.634051583419    0.771033525399
              15 S      5.472464774958    3.604775494920   -0.260350995220
              16 O      6.521857969056    2.678457282348    0.186541182473
              17 O     -1.799577269605   -1.816753997772    0.745669689457
              18 O     -0.223981697316   -3.225750424186    1.232664312762
------------------------ !GEOMETRY! -------------------------
    Number of atoms:    19 
    Geometry Index:     6 
    Coordinates:
               0 C     -0.035833264833    0.136984623016    0.079944484809
               1 C      0.913006375119    1.083364979924   -0.269004491401
               2 C      0.401364485575   -1.115192097782    0.501650211431
               3 C      2.264082259090    0.753874815797   -0.141329593884
               4 C      2.694765909932   -0.524589993785    0.222343202356
               5 C      1.745440547557   -1.466725818149    0.581668193601
               6 H      0.620254310637    2.072356106575   -0.605900982675
               7 C      3.315302412044    1.902687787897   -0.188628641233
               8 H     -1.095889742855    0.351617629726    0.018625653456
               9 N     -0.616348081538   -2.135274612139    0.853541497180
              10 H      3.754255434552   -0.756111185251    0.251695338711
              11 H      2.030130150391   -2.463997491814    0.894812551124
              12 N      3.562414369786    1.556464586032   -1.368346638165
              13 O      4.892998791120    3.311773007844   -1.590722059792
              14 O      3.595282853187    2.698780393392    0.727291041548
              15 S      5.467038399396    3.603709998770   -0.227872303061
              16 O      6.464065358176    2.635510919966    0.251569239258
              17 O     -1.792793634171   -1.813937826346    0.759116943678
              18 O     -0.213717933164   -3.228902823673    1.224496353060
------------------------ !GEOMETRY! -------------------------
    Number of atoms:    19 
    Geometry Index:     7 
    Coordinates:
               0 C     -0.033074160781    0.131544523661    0.063670123830
               1 C      0.920820054184    1.085983106025   -0.248780810740
               2 C      0.398044020626   -1.118800788840    0.495580568530
               3 C      2.269658257641    0.764283664035   -0.085067859133
               4 C      2.695507169573   -0.508653886387    0.301036068326
               5 C      1.741249901271   -1.460440323827    0.619777246693
               6 H      0.632561140780    2.072178237129   -0.597343620705
               7 C      3.322718694188    1.906396297288   -0.159948338558
               8 H     -1.092127044976    0.338831449055   -0.031523652464
               9 N     -0.623600755965   -2.144833822964    0.817139106546
              10 H      3.755045959172   -0.732016537546    0.369625893992
              11 H      2.021928598895   -2.455911932945    0.942185085195
              12 N      3.499916994370    1.649323409951   -1.377209310904
              13 O      4.800771562907    3.322480866144   -1.598401905968
              14 O      3.694839901039    2.635595710086    0.781261364221
              15 S      5.476810761254    3.585709190002   -0.273501575706
              16 O      6.508397462344    2.611432091564    0.109386127015
              17 O     -1.798273040378   -1.837059245444    0.669445788952
              18 O     -0.225376476146   -3.243649006989    1.177619700879
------------------------ !GEOMETRY! -------------------------
    Number of atoms:    19 
    Geometry Index:     8 
    Coordinates:
               0 C     -0.033275370072    0.125594897090    0.045159072267
               1 C      0.914431310697    1.101567801345   -0.219571770964
               2 C      0.405199152298   -1.120905702909    0.477861443109
               3 C      2.262886004495    0.802950929327   -0.017921474120
               4 C      2.696029524574   -0.460068944764    0.388723853938
               5 C      1.749607282468   -1.436941462270    0.649688939242
               6 H      0.621252544644    2.082273432700   -0.578856736794
               7 C      3.313386848087    1.936504335153   -0.137378505349
               8 H     -1.091767236564    0.312878508008   -0.089454414275
               9 N     -0.607158029397   -2.167394794535    0.757795641504
              10 H      3.756112173267   -0.662412644383    0.503711050453
              11 H      2.037202349897   -2.429154215001    0.976090405871
              12 N      3.452125736707    1.763963872442   -1.379033201598
              13 O      4.715597868772    3.311098620024   -1.599451899887
              14 O      3.770142015185    2.614133761631    0.810327323387
              15 S      5.497830994244    3.501543972965   -0.314953942600
              16 O      6.491987324893    2.458645208281   -0.028480876809
              17 O     -1.783566037367   -1.874311449018    0.593355899100
              18 O     -0.202205456827   -3.257573126087    1.137339193523
------------------------ !GEOMETRY! -------------------------
    Number of atoms:    19 
    Geometry Index:     9 
    Coordinates:
               0 C     -0.037043006092    0.123202962692    0.036553202044
               1 C      0.922108384107    1.083190733848   -0.247464768596
               2 C      0.389418483415   -1.122187856283    0.482959722771
               3 C      2.267135077569    0.767711941154   -0.050574365783
               4 C      2.689422331586   -0.499277897982    0.356535437438
               5 C      1.731411757339   -1.453879113798    0.651267524768
               6 H      0.639352149281    2.065605438377   -0.610005135295
               7 C      3.336647856064    1.886928951594   -0.135713204027
               8 H     -1.093428305556    0.323767503146   -0.094797587096
               9 N     -0.632804565587   -2.154022529148    0.775829258286
              10 H      3.747591338785   -0.717544835175    0.460356170427
              11 H      2.010153570536   -2.444784248806    0.988982396418
              12 N      3.416944811313    1.756590236792   -1.385500949556
              13 O      4.725693471004    3.311725982500   -1.585874883671
              14 O      3.843080009152    2.492464833100    0.833209325507
              15 S      5.460771634294    3.581264867945   -0.287417072848
              16 O      6.595143509596    2.686930731576   -0.015968922267
              17 O     -1.806885561431   -1.844417786438    0.626448114345
              18 O     -0.238893945375   -3.240876915091    1.176125737135
------------------------ !GEOMETRY! -------------------------
    Number of atoms:    19 
    Geometry Index:     10 
    Coordinates:
               0 C     -0.036248089063    0.125878310395    0.049670106356
               1 C      0.916373401371    1.091072897042   -0.237197130554
               2 C      0.397398659532   -1.121838573350    0.483440671079
               3 C      2.264547704223    0.780793171850   -0.052201389953
               4 C      2.693114289570   -0.485775009256    0.351707162088
               5 C      1.741209725425   -1.450097961979    0.637504887072
               6 H      0.626463685638    2.074024140447   -0.592815944095
               7 C      3.322601058759    1.912941056860   -0.146792608178
               8 H     -1.094538075996    0.324025808250   -0.069702748722
               9 N     -0.619713639767   -2.157492603491    0.781553471089
              10 H      3.752516221175   -0.698945585199    0.449921888025
              11 H      2.025577917749   -2.442722342319    0.965406950229
              12 N      3.442103832181    1.748980064898   -1.389854870929
              13 O      4.755733226173    3.279849585579   -1.601445482496
              14 O      3.775042824903    2.579363903595    0.809541292290
              15 S      5.475930487219    3.550111382668   -0.295642330176
              16 O      6.542186000783    2.594570797827    0.036384271320
              17 O     -1.795335398607   -1.853862265285    0.632395541836
              18 O     -0.219144831267   -3.248483778531    1.163076263718
------------------------ !GEOMETRY! -------------------------
    Number of atoms:    19 
    Geometry Index:     11 
    Coordinates:
               0 C     -0.034995696048    0.126716059760    0.051771354452
               1 C      0.917153812876    1.089968320290   -0.242761130288
               2 C      0.398982870967   -1.120927991712    0.485708257631
               3 C      2.265801149697    0.778202356180   -0.064450152486
               4 C      2.694690547555   -0.488605209141    0.338472333260
               5 C      1.742987729486   -1.450958174531    0.632401688156
               6 H      0.626267594236    2.072863130303   -0.597903568566
               7 C      3.321165078019    1.914519467172   -0.151812465286
               8 H     -1.093541972504    0.327079193606   -0.061460899497
               9 N     -0.618086934601   -2.154446472025    0.790976848458
              10 H      3.754325156604   -0.703494604188    0.430028643719
              11 H      2.028231952588   -2.443475796646    0.959788706794
              12 N      3.459568078553    1.739337386877   -1.391093550641
              13 O      4.761653407068    3.287509912615   -1.597377719668
              14 O      3.753842381972    2.594922048966    0.803858908926
              15 S      5.472803723646    3.547924572566   -0.284391593234
              16 O      6.526158242649    2.580689033853    0.055765605631
              17 O     -1.793951841960   -1.850004090080    0.645233884435
              18 O     -0.217236280804   -3.245426143862    1.172194848204
------------------------ !GEOMETRY! -------------------------
    Number of atoms:    19 
    Geometry Index:     12 
    Coordinates:
               0 C     -0.036170092054    0.127981586183    0.057006506623
               1 C      0.914416969168    1.091747333239   -0.240869702014
               2 C      0.399861486297   -1.120627079663    0.486264361305
               3 C      2.263774386739    0.779334927263   -0.069953298396
               4 C      2.694818391726   -0.487866826956    0.328820911405
               5 C      1.744547392037   -1.451323929688    0.624362130725
               6 H      0.621550223447    2.074885904273   -0.593764315928
               7 C      3.317314056965    1.916864172925   -0.159361885684
               8 H     -1.095147818057    0.329460142453   -0.050103490400
               9 N     -0.615714612250   -2.154104954543    0.795870032179
              10 H      3.754902829720   -0.703363737808    0.413485877055
              11 H      2.032022452562   -2.444548431564    0.947613629634
              12 N      3.468594732695    1.729444907573   -1.395284746460
              13 O      4.780824243635    3.267342506321   -1.601455004377
              14 O      3.736659963135    2.611966186055    0.792227734830
              15 S      5.470719668022    3.546333296330   -0.280412315817
              16 O      6.518297411959    2.583134196966    0.088383746206
              17 O     -1.792280810174   -1.849240281938    0.656636012434
              18 O     -0.213171875571   -3.245026917421    1.175483816681
------------------------ !GEOMETRY! -------------------------
    Number of atoms:    19 
    Geometry Index:     13 
    Coordinates:
               0 C     -0.035825977579    0.129782844327    0.061439802186
               1 C      0.915434358021    1.091137643670   -0.241814023520
               2 C      0.399286727202   -1.120154753531    0.488201143578
               3 C      2.264817260635    0.775115138255   -0.077448161134
               4 C      2.694941647319   -0.493646319567    0.317114925811
               5 C      1.743716318051   -1.454602094612    0.618369012676
               6 H      0.622837129552    2.075206742716   -0.592374023018
               7 C      3.318523627590    1.912623874758   -0.164373033335
               8 H     -1.094719117348    0.334775279591   -0.039650889977
               9 N     -0.617311516818   -2.151084364456    0.802600146351
              10 H      3.754862415294   -0.712422312404    0.394319095240
              11 H      2.030942111944   -2.448778305870    0.938861630630
              12 N      3.482659945280    1.713192208512   -1.396250107417
              13 O      4.791627961959    3.257975416183   -1.603452233843
              14 O      3.725588994137    2.618555129349    0.784693428350
              15 S      5.461946949932    3.555003051554   -0.275876583046
              16 O      6.515888076464    2.606652456774    0.113401077673
              17 O     -1.793686879419   -1.844184109258    0.666138382253
              18 O     -0.215711032219   -3.242754525992    1.181050410544
------------------------ !GEOMETRY! -------------------------
    Number of atoms:    19 
    Geometry Index:     14 
    Coordinates:
               0 C     -0.035533955082    0.130442189084    0.063721514184
               1 C      0.916971764920    1.089659383202   -0.242157943141
               2 C      0.397907751464   -1.120550847808    0.489302855753
               3 C      2.266134773594    0.770595516604   -0.081165203032
               4 C      2.694423466487   -0.499430627501    0.311260238791
               5 C      1.741821393359   -1.458123946636    0.615703454922
               6 H      0.625463128296    2.074587570418   -0.591226388682
               7 C      3.320793199264    1.907312158419   -0.167239245244
               8 H     -1.094206713489    0.337951339840   -0.034523089855
               9 N     -0.620230942721   -2.149314473163    0.805928707312
              10 H      3.754049654343   -0.720781431566    0.384868994682
              11 H      2.027789471833   -2.453019073332    0.935079664808
              12 N      3.487407417409    1.705292641550   -1.398250379709
              13 O      4.798822077085    3.255741209241   -1.604916925324
              14 O      3.723905029778    2.616541387468    0.781215914313
              15 S      5.457097891218    3.565686393055   -0.274201544614
              16 O      6.519601069663    2.631404566158    0.125730134293
              17 O     -1.796191884837   -1.840350586775    0.670569406749
              18 O     -0.220205592586   -3.241250368259    1.185249833794
------------------------ !GEOMETRY! -------------------------
    Number of atoms:    19 
    Geometry Index:     15 
    Coordinates:
               0 C     -0.033980334683    0.131820965666    0.065124065348
               1 C      0.920531762066    1.088328776824   -0.242510907261
               2 C      0.396779313974   -1.120362274570    0.490198931054
               3 C      2.269166671005    0.765392280088   -0.083556306805
               4 C      2.694631646025   -0.506307059469    0.306397772609
               5 C      1.739871898460   -1.461876118978    0.614015082925
               6 H      0.631066315328    2.074375104364   -0.590124356362
               7 C      3.324910034579    1.901113315316   -0.166859302593
               8 H     -1.092251905817    0.342240984361   -0.031309010302
               9 N     -0.623761823290   -2.146364317375    0.808334356225
              10 H      3.753782675537   -0.730844524887    0.377049642755
              11 H      2.023624965171   -2.457568475196    0.932877753745
              12 N      3.492782112496    1.696357898226   -1.396922895654
              13 O      4.796541427530    3.251928894469   -1.605122523604
              14 O      3.725392446548    2.611309215537    0.781717456258
              15 S      5.448615214899    3.577183271958   -0.275361592846
              16 O      6.523203238936    2.659843825577    0.131429186667
              17 O     -1.798909461245   -1.835584985433    0.670300574983
              18 O     -0.226177197520   -3.238593776478    1.189272072857
------------------------ !GEOMETRY! -------------------------
    Number of atoms:    19 
    Geometry Index:     16 
    Coordinates:
               0 C     -0.034267128906    0.131531706419    0.065659281642
               1 C      0.920206406209    1.088233514831   -0.241572752086
               2 C      0.396545816623   -1.120837426019    0.490074660160
               3 C      2.268910970069    0.765392329996   -0.083065637022
               4 C      2.694333997169   -0.506223402538    0.307018509693
               5 C      1.739659124057   -1.462236315957    0.613692963316
               6 H      0.630644375151    2.074324225958   -0.588990113196
               7 C      3.324436395998    1.901218355667   -0.167922449814
               8 H     -1.092564265054    0.341867366323   -0.030676852662
               9 N     -0.623909888066   -2.146995656087    0.807957853442
              10 H      3.753505272185   -0.730662160685    0.377726901065
              11 H      2.023479990907   -2.458041589062    0.932138485593
              12 N      3.493091445758    1.698223687288   -1.398422218645
              13 O      4.799525183305    3.253653290399   -1.606506842572
              14 O      3.724784614216    2.612119924627    0.780386933389
              15 S      5.449867154766    3.577258867199   -0.275211422507
              16 O      6.522995998378    2.658658871239    0.132449491588
              17 O     -1.799076739089   -1.836658124105    0.668997805807
              18 O     -0.226349723674   -3.238434465492    1.191215402809
------------------------ !GEOMETRY! -------------------------
    Number of atoms:    19 
    Geometry Index:     17 
    Coordinates:
               0 C     -0.034278430212    0.130933330817    0.063542227081
               1 C      0.920340069453    1.087607796590   -0.243376717117
               2 C      0.396435579091   -1.120726980860    0.490046846783
               3 C      2.268927283349    0.765345103612   -0.082738600517
               4 C      2.694324039048   -0.505914103488    0.308708694268
               5 C      1.739557891290   -1.461535230879    0.615973641664
               6 H      0.631067818210    2.073373922305   -0.591930662305
               7 C      3.324702352769    1.901239114433   -0.165715815478
               8 H     -1.092545988518    0.340640837110   -0.034461258757
               9 N     -0.624059457472   -2.146966431348    0.807567717332
              10 H      3.753477881742   -0.729952940054    0.381065783296
              11 H      2.023141420581   -2.456851559203    0.936166966590
              12 N      3.488302924883    1.701577063967   -1.397374350175
              13 O      4.794789923308    3.259934867568   -1.604077840095
              14 O      3.729419325887    2.606537371124    0.784646155874
              15 S      5.451816446951    3.576938215890   -0.274821941917
              16 O      6.526082465949    2.655650268449    0.123642522274
              17 O     -1.799173558436   -1.836891431582    0.667665387870
              18 O     -0.226508987871   -3.238546214450    1.190421243330
------------------------ !GEOMETRY! -------------------------
    Number of atoms:    19 
    Geometry Index:     18 
    Coordinates:
               0 C     -0.034190372745    0.131066485112    0.063990392150
               1 C      0.920522946017    1.087637241547   -0.242930803979
               2 C      0.396390461543   -1.120799588970    0.490053851565
               3 C      2.269104878876    0.765074115984   -0.082734076384
               4 C      2.694343317551   -0.506320320930    0.308312589468
               5 C      1.739468001226   -1.461908071431    0.615451065775
               6 H      0.631326535403    2.073511512700   -0.591245926852
               7 C      3.324721348836    1.900980352079   -0.166137177193
               8 H     -1.092437603176    0.341019657044   -0.033717217656
               9 N     -0.624223006429   -2.146884252445    0.807693026954
              10 H      3.753475859233   -0.730603100092    0.380236860619
              11 H      2.022987554267   -2.457361357633    0.935270521807
              12 N      3.489267116710    1.701169878715   -1.397676604676
              13 O      4.795710213556    3.258771064813   -1.604715007190
              14 O      3.728630027773    2.607284117968    0.783887115580
              15 S      5.451200215749    3.577488708791   -0.275037653073
              16 O      6.525641542547    2.657323476485    0.125512612438
              17 O     -1.799301529129   -1.836738881010    0.667622055673
              18 O     -0.226818507808   -3.238318038724    1.191114374974
------------------------ !GEOMETRY! -------------------------
    Number of atoms:    19 
    Geometry Index:     19 
    Coordinates:
               0 C     -0.034190372745    0.131066485112    0.063990392150
               1 C      0.920522946017    1.087637241547   -0.242930803979
               2 C      0.396390461543   -1.120799588970    0.490053851565
               3 C      2.269104878876    0.765074115984   -0.082734076384
               4 C      2.694343317551   -0.506320320930    0.308312589468
               5 C      1.739468001226   -1.461908071431    0.615451065775
               6 H      0.631326535403    2.073511512700   -0.591245926852
               7 C      3.324721348836    1.900980352079   -0.166137177193
               8 H     -1.092437603176    0.341019657044   -0.033717217656
               9 N     -0.624223006429   -2.146884252445    0.807693026954
              10 H      3.753475859233   -0.730603100092    0.380236860619
              11 H      2.022987554267   -2.457361357633    0.935270521807
              12 N      3.489267116710    1.701169878715   -1.397676604676
              13 O      4.795710213556    3.258771064813   -1.604715007190
              14 O      3.728630027773    2.607284117968    0.783887115580
              15 S      5.451200215749    3.577488708791   -0.275037653073
              16 O      6.525641542547    2.657323476485    0.125512612438
              17 O     -1.799301529129   -1.836738881010    0.667622055673
              18 O     -0.226818507808   -3.238318038724    1.191114374974
