17
Coordinates from ORCA-job mol
  C   0.07800304661896      0.08972471420288     -0.09159382028935
  C   1.06168198031221      1.05654562545118     -0.23037552998939
  C   0.38715976491639     -1.15695156315199      0.45310620772062
  C   2.37413613378011      0.77441046700627      0.17393294148771
  C   2.68557648201198     -0.47527873761031      0.72056934156684
  C   1.68903123393631     -1.43470859521510      0.85816154212607
  H   0.82343556313509      2.02936402704549     -0.64792589686363
  C   3.41327772962959      1.78831993878305      0.02703071218699
  H   -0.93765699547751      0.30949330288517     -0.40657769279029
  H   -0.38850650703255     -1.90940155384940      0.56144930494035
  H   3.70133934656132     -0.69509336148327      1.03087416395455
  H   1.93362580623286     -2.40392631824381      1.28211998722873
  N   3.26272317507163      2.90088496243708     -0.59864518941789
  O   4.45318285389484      3.64720367102737     -0.51071382617124
  O   4.63127364287160      1.53508230206869      0.60247527218825
  S   5.78530635729629      2.67095979126210      0.01281748434610
  O   6.42081038624080      2.07037132738457     -1.16600500222441
