3
Coordinates from ORCA-job inp
  S   0.00000000000000     -0.00000005555885      0.38975209069412
  O   0.00000000000000      1.27005019703863     -0.37646006003054
  O   0.00000000000000     -1.27005014147978     -0.37646003066358
